name = "Divide et Impera DW 31.01.13"
extend = "common"
replace = "decisions"
extend = "events"
extend = "gfx"
replace = "history"
extend = "interface"
replace = "localisation"
replace = "map"
replace = "missions"
extend = "sound"