name = "Anglo-French War"
casus_belli = cb_dishonored_call

1627.3.1 = {
	add_attacker = ENG
	add_defender = FRA
}

# Treaty of Susa
1629.4.24 = {
	rem_attacker = ENG
	rem_defender = FRA
}
