name = "Franco-Italian War"
casus_belli = cb_core

1542.1.1 = {
	add_attacker = FRA
	add_attacker = TUR
	add_attacker = GEL
	add_defender = ENG
	add_defender = SPA
	add_defender = HAB
}

1544.4.11 = {
	battle = {
		name = "Ceresole"
		location = 103
		attacker = {
			commander = "Francois de Vendome"	# Francois de Vendome
			infantry = 15000
			cavalry = 2000
			artillery = 20
			losses = 12	#percent
			country = FRA
		}
		defender = {
			commander = "Marques del Vasto" 	# Marques del Vasto
			infantry = 18000
			cavalry = 1500
			artillery = 25
			losses = 26	#percent
			country = SPA
		}
		result = win
	}
}


1545.7.18 = {
	battle = {
		name = "Solent"
		location = 1272
		attacker = {
			commander = "Claude d'Annebault"	# Claude d'Annebault
			big_ship = 80 
			light_ship = 60
			losses = 10	# percent
			country = FRA
		}
		defender = {
			commander = "John Dudley"	# John Dudley
			big_ship = 70
			light_ship = 20
			losses = 5	# percent
			country = ENG
		}
		result = win
	}
}

1545.8.1 = {
	rem_attacker = GEL
	rem_attacker = TUR
	rem_defender = SPA
	rem_defender = HAB
}

# End of the war
1546.8.1 = {
	rem_attacker = FRA
	rem_defender = ENG
}
