name = "Mad War"
casus_belli = cb_liberation

1486.6.1 = {
	add_attacker = BRI
	add_attacker = ORL
	add_attacker = HAB
	add_defender = FRA
}

# Treaty of Le Verger
1488.8.20 = {
	rem_attacker = BRI
	rem_attacker = ORL
}

# Peace of Frankfurt
1489.7.1 = {
	rem_attacker = HAB
	rem_defender = FRA
}
