name = "Second Italian War"
casus_belli = cb_conquest

1499.8.10 = {
	add_attacker = FRA
	add_attacker = VEN
	add_attacker = SWI
	add_defender = MLO
}

1501.11.11 = {
	add_attacker = ARA
	add_defender = NAP
}

1502.1.1 = {
	rem_defender = NAP
}

1502.7.2 = {
	rem_attacker = ARA
	add_defender = ARA
}

# Treaty of Lyon
1504.1.31 = {
	rem_attacker = FRA
	rem_attacker = VEN
	rem_attacker = SWI
	rem_defender = ARA
	rem_defender = MLO
}
