name = "Second Muscovite-Lithuanian War"
casus_belli = cb_nationalist

1500.5.1 = {
	add_attacker = MOS
	add_defender = LIT
	add_defender = POL
}

1500.7.14 = {
	battle = {
		name = "Vedrosha"
		location = 295
		attacker = {
			commander = "Daniil Shchenya"	# Daniil Shchenya
			infantry = 26000
			cavalry = 12000
			losses = 3	# percent
			country = MOS
		}
		defender = {
			commander = "Konstantin Ostrogski"	# Konstantin Ostrogski
			infantry = 28000
			cavalry = 12000
			losses = 20	# percent
			country = POL
		}
		result = win
	}
}

# Truce
1503.3.21 = {
	rem_attacker = MOS
	rem_defender = LIT
	rem_defender = POL
}
