name = "Sixth Ottoman-Habsburg War"
casus_belli = cb_conquest

1663.4.18 = {
	add_attacker = TUR
	add_defender = HAB
	add_defender = BRA
	add_defender = SAX
}

# Battle of Saint Gotthard
1664.8.1 = { 
	battle = { 
		name = "Saint Gotthard"
		location = 135
		attacker = { 
			commander = "Ahmed Koprulu"			# Ahmed Koprulu
			infantry = 45000
			cavalry = 15000
			losses = 17			# percent 
			country = TUR
		} 
		defender = { 
			commander = "Raimondo Montecuccoli"			# Raimondo Montecuccoli
			infantry = 30000
			cavalry = 10000
			losses = 5			# percent 
			country = HAB
		} 
		result = loss
	} 
} 

# Peace
1664.8.10 = {
	rem_attacker = TUR
	rem_defender = HAB
	rem_defender = BRA
	rem_defender = SAX
}
