name = "Third Ottoman-Venetian War"
casus_belli = cb_conquest

1499.6.30 = {
	add_attacker = TUR
	add_defender = VEN
}

# Battle of Zonchio
1499.8.25 = { 
	battle = { 
		name = "Zonchio" 
		location = 1312
		attacker = { 
			commander = "Kemal Reis"			# Kemal Reis
			galley = 82
			losses = 1			# percent 
			country = TUR
		} 
		defender = { 
			commander = "Antonio Grimani"		# Antonio Grimani
			galley = 64
			losses = 13			# percent 
			country = VEN
		} 
		result = win
	} 
} 

1503.8.10 = {
	rem_attacker = TUR
	rem_defender = VEN
}
