name = "War of the League of the Public Weal"
casus_belli = cb_liberation

1465.3.1 = {
	add_attacker = BUR
	add_attacker = BRI
	add_attacker = BOU
	add_attacker = LOR
	add_attacker = AMG
	add_defender = FRA
}

1465.7.11 = {
	battle = {
		name = "Montlhery"
		location = 38
		attacker = {
			commander = "Charles the Bold"	# Charles, Count of Charloi
			infantry = 12000
			cavalry = 2500
			losses = 36	# percent
			country = BUR
		}
		defender = {
			commander = "Louis XI"	# Louis XI
			infantry = 18000
			cavalry = 4000
			losses = 47	# percent
			country = FRA
		}
		result = loss
	}
}

# Treaties of Conflans and Saint-Maur-des-Fosses
1465.8.15 = {
	rem_attacker = BUR
	rem_attacker = BRI
	rem_attacker = BOU
	rem_attacker = LOR
	rem_attacker = AMG
	rem_defender = FRA
}
