province_decisions = {

	assimilate_colony = {
		potential = {
			is_overseas = yes
			religion_group = THIS
			has_owner_culture = no
			owner = { 
				OR = {
					technology_group = western
					technology_group = eastern
					technology_group = ottoman
					technology_group = muslim
				}
				OR = {
					culture_group = germanic
					culture_group = netherlands
					culture_group = scandinavian
					culture_group = british
					culture_group = gaelic
					culture_group = latin
					culture_group = iberian
					culture_group = french
					culture_group = basque_group
					culture_group = danubo_carpatian
					culture_group = finno_ugric
					culture_group = south_slavic
					culture_group = west_slavic
					culture_group = east_slavic
					culture_group = baltic
					culture_group = romanian
					culture_group = byzantine
					culture_group = caucasian
					culture_group = oghuz
				}
			}
			OR = {
				culture_group = germanic
				culture_group = netherlands
				culture_group = scandinavian
				culture_group = british
				culture_group = gaelic
				culture_group = latin
				culture_group = iberian
				culture_group = french
				culture_group = basque_group
				culture_group = danubo_carpatian
				culture_group = finno_ugric
				culture_group = south_slavic
				culture_group = west_slavic
				culture_group = east_slavic
				culture_group = baltic
				culture_group = romanian
				culture_group = byzantine
				culture_group = caucasian
				culture_group = oghuz
			}
			NOT = { citysize = 10000 }
			NOT = { continent = europe } 
			NOT = { region = north_africa }
			NOT = { region = middle_east_central_asia }
		}
		allow = {
			is_core = THIS
			owner =  {
				colonists = 1
				stability = 0
			}
			
		}
		effect = {
			owner = { colonists = -1 }
			culture = THIS
		}
		ai_will_do = {
			factor = 1
		}
	}
	
}