province_event = {

	id = 666312

	trigger = {
            province_id = 373
	    culture = irish
            owner = { is_core = THIS }
            owner = { culture_group = british }
            }
            
	mean_time_to_happen = {
		years = 75
        modifier = {
			factor = 0.95
			owner = { religion = THIS }
		}
        modifier = {
			factor = 0.95
			owner = { ADM = 8 }
		}
        modifier = {
			factor = 0.95
			owner = { ADM = 9 }
		}
        modifier = {
			factor = 0.95
			owner = { stability = 1 }
		}
        modifier = {
			factor = 0.95
			owner = { stability = 2 }
		}
        modifier = {
			factor = 0.95
			owner = { stability = 3 }
		}
        modifier = {
			factor = 0.9
			owner = { production_tech = 25 }
		}
        modifier = {
			factor = 0.9
			owner = { production_tech = 50 }
		}
        modifier = {
			factor = 0.95
			owner = { government_tech = 10 }
		}
        modifier = {
			factor = 0.95
			owner = { government_tech = 20 }
		}
        modifier = {
			factor = 0.95
			owner = { government_tech = 30 }
		}
        modifier = {
			factor = 0.95
			owner = { government_tech = 40 }
		}
        modifier = {
			factor = 0.95
			owner = { government_tech = 50 }
		}
	}

	title = "EVTNAME666312"
	desc = "EVTDESC666312"

       

	option = {
	      name = "OK"
              culture = english
              }
        
}
province_event = {

	id = 666313

	trigger = {
            province_id = 373
	    culture = english
            owner = { is_core = THIS }
            owner = { culture_group = gaelic }
            }
            
	mean_time_to_happen = {
		years = 40
        modifier = {
			factor = 0.95
			owner = { religion = THIS }
		}
        modifier = {
			factor = 0.95
			owner = { ADM = 8 }
		}
        modifier = {
			factor = 0.95
			owner = { ADM = 9 }
		}
        modifier = {
			factor = 0.95
			owner = { stability = 1 }
		}
        modifier = {
			factor = 0.95
			owner = { stability = 2 }
		}
        modifier = {
			factor = 0.95
			owner = { stability = 3 }
		}
        modifier = {
			factor = 0.9
			owner = { production_tech = 25 }
		}
        modifier = {
			factor = 0.9
			owner = { production_tech = 50 }
		}
        modifier = {
			factor = 0.95
			owner = { government_tech = 10 }
		}
        modifier = {
			factor = 0.95
			owner = { government_tech = 20 }
		}
        modifier = {
			factor = 0.95
			owner = { government_tech = 30 }
		}
        modifier = {
			factor = 0.95
			owner = { government_tech = 40 }
		}
        modifier = {
			factor = 0.95
			owner = { government_tech = 50 }
		}
	}

	title = "EVTNAME666312"
	desc = "EVTDESC666312"

       

	option = {
	      name = "OK"
              culture = irish
              }
        
}
province_event = {

	id = 666314

	trigger = {
            province_id = 16
	    culture = norwegian
            owner = { is_core = THIS }
            owner = { primary_culture = swedish }
            }
            
	mean_time_to_happen = {
		years = 75
        modifier = {
			factor = 0.95
			owner = { religion = THIS }
		}
        modifier = {
			factor = 0.95
			owner = { ADM = 8 }
		}
        modifier = {
			factor = 0.95
			owner = { ADM = 9 }
		}
        modifier = {
			factor = 0.95
			owner = { stability = 1 }
		}
        modifier = {
			factor = 0.95
			owner = { stability = 2 }
		}
        modifier = {
			factor = 0.95
			owner = { stability = 3 }
		}
        modifier = {
			factor = 0.9
			owner = { production_tech = 25 }
		}
        modifier = {
			factor = 0.9
			owner = { production_tech = 50 }
		}
        modifier = {
			factor = 0.95
			owner = { government_tech = 10 }
		}
        modifier = {
			factor = 0.95
			owner = { government_tech = 20 }
		}
        modifier = {
			factor = 0.95
			owner = { government_tech = 30 }
		}
        modifier = {
			factor = 0.95
			owner = { government_tech = 40 }
		}
        modifier = {
			factor = 0.95
			owner = { government_tech = 50 }
		}
	}

	title = "EVTNAME666312"
	desc = "EVTDESC666312"

       

	option = {
	      name = "OK"
              culture = swedish
              }
        
}
province_event = {

	id = 666315

	trigger = {
            province_id = 16
	    culture = swedish
            owner = { is_core = THIS }
            owner = { primary_culture = norwegian }
            }
            
	mean_time_to_happen = {
		years = 75
        modifier = {
			factor = 0.95
			owner = { religion = THIS }
		}
        modifier = {
			factor = 0.95
			owner = { ADM = 8 }
		}
        modifier = {
			factor = 0.95
			owner = { ADM = 9 }
		}
        modifier = {
			factor = 0.95
			owner = { stability = 1 }
		}
        modifier = {
			factor = 0.95
			owner = { stability = 2 }
		}
        modifier = {
			factor = 0.95
			owner = { stability = 3 }
		}
        modifier = {
			factor = 0.9
			owner = { production_tech = 25 }
		}
        modifier = {
			factor = 0.9
			owner = { production_tech = 50 }
		}
        modifier = {
			factor = 0.95
			owner = { government_tech = 10 }
		}
        modifier = {
			factor = 0.95
			owner = { government_tech = 20 }
		}
        modifier = {
			factor = 0.95
			owner = { government_tech = 30 }
		}
        modifier = {
			factor = 0.95
			owner = { government_tech = 40 }
		}
        modifier = {
			factor = 0.95
			owner = { government_tech = 50 }
		}
	}

	title = "EVTNAME666312"
	desc = "EVTDESC666312"

       

	option = {
	      name = "OK"
              culture = norwegian
              }
        
}

province_event = {

	id = 666316

	trigger = {
            province_id = 10
	    culture = swedish
            owner = { is_core = THIS }
            owner = { primary_culture = norwegian }
            }
            
	mean_time_to_happen = {
		years = 40
        modifier = {
			factor = 0.95
			owner = { religion = THIS }
		}
        modifier = {
			factor = 0.95
			owner = { ADM = 8 }
		}
        modifier = {
			factor = 0.95
			owner = { ADM = 9 }
		}
        modifier = {
			factor = 0.95
			owner = { stability = 1 }
		}
        modifier = {
			factor = 0.95
			owner = { stability = 2 }
		}
        modifier = {
			factor = 0.95
			owner = { stability = 3 }
		}
        modifier = {
			factor = 0.9
			owner = { production_tech = 25 }
		}
        modifier = {
			factor = 0.9
			owner = { production_tech = 50 }
		}
        modifier = {
			factor = 0.95
			owner = { government_tech = 10 }
		}
        modifier = {
			factor = 0.95
			owner = { government_tech = 20 }
		}
        modifier = {
			factor = 0.95
			owner = { government_tech = 30 }
		}
        modifier = {
			factor = 0.95
			owner = { government_tech = 40 }
		}
        modifier = {
			factor = 0.95
			owner = { government_tech = 50 }
		}
	}

	title = "EVTNAME666312"
	desc = "EVTDESC666312"

       

	option = {
	      name = "OK"
              culture = norwegian
              }
        
}
province_event = {

	id = 666317

	trigger = {
            province_id = 10
	    culture = norwegian
            owner = { is_core = THIS }
            owner = { primary_culture = swedish }
            }
            
	mean_time_to_happen = {
		years = 40
        modifier = {
			factor = 0.95
			owner = { religion = THIS }
		}
        modifier = {
			factor = 0.95
			owner = { ADM = 8 }
		}
        modifier = {
			factor = 0.95
			owner = { ADM = 9 }
		}
        modifier = {
			factor = 0.95
			owner = { stability = 1 }
		}
        modifier = {
			factor = 0.95
			owner = { stability = 2 }
		}
        modifier = {
			factor = 0.95
			owner = { stability = 3 }
		}
        modifier = {
			factor = 0.9
			owner = { production_tech = 25 }
		}
        modifier = {
			factor = 0.9
			owner = { production_tech = 50 }
		}
        modifier = {
			factor = 0.95
			owner = { government_tech = 10 }
		}
        modifier = {
			factor = 0.95
			owner = { government_tech = 20 }
		}
        modifier = {
			factor = 0.95
			owner = { government_tech = 30 }
		}
        modifier = {
			factor = 0.95
			owner = { government_tech = 40 }
		}
        modifier = {
			factor = 0.95
			owner = { government_tech = 50 }
		}
	}

	title = "EVTNAME666312"
	desc = "EVTDESC666312"

       

	option = {
	      name = "OK"
              culture = swedish
              }
        
}
province_event = {

	id = 666318

	trigger = {
            province_id = 6
	    culture = danish
            owner = { is_core = THIS }
            owner = { primary_culture = swedish }
            }
            
	mean_time_to_happen = {
		years = 75
        modifier = {
			factor = 0.95
			owner = { religion = THIS }
		}
        modifier = {
			factor = 0.95
			owner = { ADM = 8 }
		}
        modifier = {
			factor = 0.95
			owner = { ADM = 9 }
		}
        modifier = {
			factor = 0.95
			owner = { stability = 1 }
		}
        modifier = {
			factor = 0.95
			owner = { stability = 2 }
		}
        modifier = {
			factor = 0.95
			owner = { stability = 3 }
		}
        modifier = {
			factor = 0.9
			owner = { production_tech = 25 }
		}
        modifier = {
			factor = 0.9
			owner = { production_tech = 50 }
		}
        modifier = {
			factor = 0.95
			owner = { government_tech = 10 }
		}
        modifier = {
			factor = 0.95
			owner = { government_tech = 20 }
		}
        modifier = {
			factor = 0.95
			owner = { government_tech = 30 }
		}
        modifier = {
			factor = 0.95
			owner = { government_tech = 40 }
		}
        modifier = {
			factor = 0.95
			owner = { government_tech = 50 }
		}
	}

	title = "EVTNAME666312"
	desc = "EVTDESC666312"

       

	option = {
	      name = "OK"
              culture = swedish
              }
        
}
province_event = {

	id = 666319

	trigger = {
            province_id = 6
	    culture = swedish
            owner = { is_core = THIS }
            owner = { primary_culture = danish }
            }
            
	mean_time_to_happen = {
		years = 40
        modifier = {
			factor = 0.95
			owner = { religion = THIS }
		}
        modifier = {
			factor = 0.95
			owner = { ADM = 8 }
		}
        modifier = {
			factor = 0.95
			owner = { ADM = 9 }
		}
        modifier = {
			factor = 0.95
			owner = { stability = 1 }
		}
        modifier = {
			factor = 0.95
			owner = { stability = 2 }
		}
        modifier = {
			factor = 0.95
			owner = { stability = 3 }
		}
        modifier = {
			factor = 0.9
			owner = { production_tech = 25 }
		}
        modifier = {
			factor = 0.9
			owner = { production_tech = 50 }
		}
        modifier = {
			factor = 0.95
			owner = { government_tech = 10 }
		}
        modifier = {
			factor = 0.95
			owner = { government_tech = 20 }
		}
        modifier = {
			factor = 0.95
			owner = { government_tech = 30 }
		}
        modifier = {
			factor = 0.95
			owner = { government_tech = 40 }
		}
        modifier = {
			factor = 0.95
			owner = { government_tech = 50 }
		}
	}

	title = "EVTNAME666312"
	desc = "EVTDESC666312"

       

	option = {
	      name = "OK"
              culture = danish
              }
        
}
province_event = {

	id = 666320

	trigger = {
            province_id = 26
	    culture = danish
            owner = { is_core = THIS }
            owner = { primary_culture = swedish }
            }
            
	mean_time_to_happen = {
		years = 75
        modifier = {
			factor = 0.95
			owner = { religion = THIS }
		}
        modifier = {
			factor = 0.95
			owner = { ADM = 8 }
		}
        modifier = {
			factor = 0.95
			owner = { ADM = 9 }
		}
        modifier = {
			factor = 0.95
			owner = { stability = 1 }
		}
        modifier = {
			factor = 0.95
			owner = { stability = 2 }
		}
        modifier = {
			factor = 0.95
			owner = { stability = 3 }
		}
        modifier = {
			factor = 0.9
			owner = { production_tech = 25 }
		}
        modifier = {
			factor = 0.9
			owner = { production_tech = 50 }
		}
        modifier = {
			factor = 0.95
			owner = { government_tech = 10 }
		}
        modifier = {
			factor = 0.95
			owner = { government_tech = 20 }
		}
        modifier = {
			factor = 0.95
			owner = { government_tech = 30 }
		}
        modifier = {
			factor = 0.95
			owner = { government_tech = 40 }
		}
        modifier = {
			factor = 0.95
			owner = { government_tech = 50 }
		}
	}

	title = "EVTNAME666312"
	desc = "EVTDESC666312"

       

	option = {
	      name = "OK"
              culture = swedish
              }
        
}
province_event = {

	id = 666321

	trigger = {
            province_id = 26
	    culture = swedish
            owner = { is_core = THIS }
            owner = { primary_culture = danish }
            }
            
	mean_time_to_happen = {
		years = 40
        modifier = {
			factor = 0.95
			owner = { religion = THIS }
		}
        modifier = {
			factor = 0.95
			owner = { ADM = 8 }
		}
        modifier = {
			factor = 0.95
			owner = { ADM = 9 }
		}
        modifier = {
			factor = 0.95
			owner = { stability = 1 }
		}
        modifier = {
			factor = 0.95
			owner = { stability = 2 }
		}
        modifier = {
			factor = 0.95
			owner = { stability = 3 }
		}
        modifier = {
			factor = 0.9
			owner = { production_tech = 25 }
		}
        modifier = {
			factor = 0.9
			owner = { production_tech = 50 }
		}
        modifier = {
			factor = 0.95
			owner = { government_tech = 10 }
		}
        modifier = {
			factor = 0.95
			owner = { government_tech = 20 }
		}
        modifier = {
			factor = 0.95
			owner = { government_tech = 30 }
		}
        modifier = {
			factor = 0.95
			owner = { government_tech = 40 }
		}
        modifier = {
			factor = 0.95
			owner = { government_tech = 50 }
		}
	}

	title = "EVTNAME666312"
	desc = "EVTDESC666312"

       

	option = {
	      name = "OK"
              culture = danish
              }
        
}
province_event = {

	id = 666322

	trigger = {
            province_id = 2156
	    culture = casubian
            owner = { is_core = THIS }
            owner = { culture_group = germanic }
            }
            
	mean_time_to_happen = {
		years = 75
        modifier = {
			factor = 0.95
			owner = { religion = THIS }
		}
        modifier = {
			factor = 0.95
			owner = { ADM = 8 }
		}
        modifier = {
			factor = 0.95
			owner = { ADM = 9 }
		}
        modifier = {
			factor = 0.95
			owner = { stability = 1 }
		}
        modifier = {
			factor = 0.95
			owner = { stability = 2 }
		}
        modifier = {
			factor = 0.95
			owner = { stability = 3 }
		}
        modifier = {
			factor = 0.9
			owner = { production_tech = 25 }
		}
        modifier = {
			factor = 0.9
			owner = { production_tech = 50 }
		}
        modifier = {
			factor = 0.95
			owner = { government_tech = 10 }
		}
        modifier = {
			factor = 0.95
			owner = { government_tech = 20 }
		}
        modifier = {
			factor = 0.95
			owner = { government_tech = 30 }
		}
        modifier = {
			factor = 0.95
			owner = { government_tech = 40 }
		}
        modifier = {
			factor = 0.95
			owner = { government_tech = 50 }
		}
	}

	title = "EVTNAME666312"
	desc = "EVTDESC666312"

       

	option = {
	      name = "OK"
              culture = pommeranian
              }
        
}
province_event = {

	id = 666323

	trigger = {
            province_id = 2156
	    culture = pommeranian
            owner = { is_core = THIS }
            owner = { culture_group = west_slavic }
            }
            
	mean_time_to_happen = {
		years = 40
        modifier = {
			factor = 0.95
			owner = { religion = THIS }
		}
        modifier = {
			factor = 0.95
			owner = { ADM = 8 }
		}
        modifier = {
			factor = 0.95
			owner = { ADM = 9 }
		}
        modifier = {
			factor = 0.95
			owner = { stability = 1 }
		}
        modifier = {
			factor = 0.95
			owner = { stability = 2 }
		}
        modifier = {
			factor = 0.95
			owner = { stability = 3 }
		}
        modifier = {
			factor = 0.9
			owner = { production_tech = 25 }
		}
        modifier = {
			factor = 0.9
			owner = { production_tech = 50 }
		}
        modifier = {
			factor = 0.95
			owner = { government_tech = 10 }
		}
        modifier = {
			factor = 0.95
			owner = { government_tech = 20 }
		}
        modifier = {
			factor = 0.95
			owner = { government_tech = 30 }
		}
        modifier = {
			factor = 0.95
			owner = { government_tech = 40 }
		}
        modifier = {
			factor = 0.95
			owner = { government_tech = 50 }
		}
	}

	title = "EVTNAME666312"
	desc = "EVTDESC666312"

       

	option = {
	      name = "OK"
              culture = casubian
              }
        
}

province_event = {

	id = 666324

	trigger = {
            province_id = 2173
	    culture = polish
            owner = { is_core = THIS }
            owner = { culture_group = germanic }
            }
            
	mean_time_to_happen = {
		years = 40
        modifier = {
			factor = 0.95
			owner = { religion = THIS }
		}
        modifier = {
			factor = 0.95
			owner = { ADM = 8 }
		}
        modifier = {
			factor = 0.95
			owner = { ADM = 9 }
		}
        modifier = {
			factor = 0.95
			owner = { stability = 1 }
		}
        modifier = {
			factor = 0.95
			owner = { stability = 2 }
		}
        modifier = {
			factor = 0.95
			owner = { stability = 3 }
		}
        modifier = {
			factor = 0.9
			owner = { production_tech = 25 }
		}
        modifier = {
			factor = 0.9
			owner = { production_tech = 50 }
		}
        modifier = {
			factor = 0.95
			owner = { government_tech = 10 }
		}
        modifier = {
			factor = 0.95
			owner = { government_tech = 20 }
		}
        modifier = {
			factor = 0.95
			owner = { government_tech = 30 }
		}
        modifier = {
			factor = 0.95
			owner = { government_tech = 40 }
		}
        modifier = {
			factor = 0.95
			owner = { government_tech = 50 }
		}
	}

	title = "EVTNAME666312"
	desc = "EVTDESC666312"

       

	option = {
	      name = "OK"
              culture = east_german
              }
        
}
province_event = {

	id = 666325

	trigger = {
            province_id = 2173
	    culture = east_german
            owner = { is_core = THIS }
            owner = { culture_group = west_slavic }
            }
            
	mean_time_to_happen = {
		years = 40
        modifier = {
			factor = 0.95
			owner = { religion = THIS }
		}
        modifier = {
			factor = 0.95
			owner = { ADM = 8 }
		}
        modifier = {
			factor = 0.95
			owner = { ADM = 9 }
		}
        modifier = {
			factor = 0.95
			owner = { stability = 1 }
		}
        modifier = {
			factor = 0.95
			owner = { stability = 2 }
		}
        modifier = {
			factor = 0.95
			owner = { stability = 3 }
		}
        modifier = {
			factor = 0.9
			owner = { production_tech = 25 }
		}
        modifier = {
			factor = 0.9
			owner = { production_tech = 50 }
		}
        modifier = {
			factor = 0.95
			owner = { government_tech = 10 }
		}
        modifier = {
			factor = 0.95
			owner = { government_tech = 20 }
		}
        modifier = {
			factor = 0.95
			owner = { government_tech = 30 }
		}
        modifier = {
			factor = 0.95
			owner = { government_tech = 40 }
		}
        modifier = {
			factor = 0.95
			owner = { government_tech = 50 }
		}
	}

	title = "EVTNAME666312"
	desc = "EVTDESC666312"

       

	option = {
	      name = "OK"
              culture = polish
              }
        
}
province_event = {

	id = 666326

	trigger = {
            province_id = 2145
	    culture = polish
            owner = { is_core = THIS }
            owner = { culture_group = germanic }
            }
            
	mean_time_to_happen = {
		years = 75
        modifier = {
			factor = 0.95
			owner = { religion = THIS }
		}
        modifier = {
			factor = 0.95
			owner = { ADM = 8 }
		}
        modifier = {
			factor = 0.95
			owner = { ADM = 9 }
		}
        modifier = {
			factor = 0.95
			owner = { stability = 1 }
		}
        modifier = {
			factor = 0.95
			owner = { stability = 2 }
		}
        modifier = {
			factor = 0.95
			owner = { stability = 3 }
		}
        modifier = {
			factor = 0.9
			owner = { production_tech = 25 }
		}
        modifier = {
			factor = 0.9
			owner = { production_tech = 50 }
		}
        modifier = {
			factor = 0.95
			owner = { government_tech = 10 }
		}
        modifier = {
			factor = 0.95
			owner = { government_tech = 20 }
		}
        modifier = {
			factor = 0.95
			owner = { government_tech = 30 }
		}
        modifier = {
			factor = 0.95
			owner = { government_tech = 40 }
		}
        modifier = {
			factor = 0.95
			owner = { government_tech = 50 }
		}
	}

	title = "EVTNAME666312"
	desc = "EVTDESC666312"

       

	option = {
	      name = "OK"
              culture = east_german
              }
        
}
province_event = {

	id = 666327

	trigger = {
            province_id = 2145
	    culture = east_german
            owner = { is_core = THIS }
            owner = { culture_group = west_slavic }
            }
            
	mean_time_to_happen = {
		years = 40
        modifier = {
			factor = 0.95
			owner = { religion = THIS }
		}
        modifier = {
			factor = 0.95
			owner = { ADM = 8 }
		}
        modifier = {
			factor = 0.95
			owner = { ADM = 9 }
		}
        modifier = {
			factor = 0.95
			owner = { stability = 1 }
		}
        modifier = {
			factor = 0.95
			owner = { stability = 2 }
		}
        modifier = {
			factor = 0.95
			owner = { stability = 3 }
		}
        modifier = {
			factor = 0.9
			owner = { production_tech = 25 }
		}
        modifier = {
			factor = 0.9
			owner = { production_tech = 50 }
		}
        modifier = {
			factor = 0.95
			owner = { government_tech = 10 }
		}
        modifier = {
			factor = 0.95
			owner = { government_tech = 20 }
		}
        modifier = {
			factor = 0.95
			owner = { government_tech = 30 }
		}
        modifier = {
			factor = 0.95
			owner = { government_tech = 40 }
		}
        modifier = {
			factor = 0.95
			owner = { government_tech = 50 }
		}
	}

	title = "EVTNAME666312"
	desc = "EVTDESC666312"

       

	option = {
	      name = "OK"
              culture = polish
              }
        
}
province_event = {

	id = 666328

	trigger = {
            province_id = 48
	    culture = casubian
            owner = { is_core = THIS }
            owner = { culture_group = germanic }
            }
            
	mean_time_to_happen = {
		years = 40
        modifier = {
			factor = 0.95
			owner = { religion = THIS }
		}
        modifier = {
			factor = 0.95
			owner = { ADM = 8 }
		}
        modifier = {
			factor = 0.95
			owner = { ADM = 9 }
		}
        modifier = {
			factor = 0.95
			owner = { stability = 1 }
		}
        modifier = {
			factor = 0.95
			owner = { stability = 2 }
		}
        modifier = {
			factor = 0.95
			owner = { stability = 3 }
		}
        modifier = {
			factor = 0.9
			owner = { production_tech = 25 }
		}
        modifier = {
			factor = 0.9
			owner = { production_tech = 50 }
		}
        modifier = {
			factor = 0.95
			owner = { government_tech = 10 }
		}
        modifier = {
			factor = 0.95
			owner = { government_tech = 20 }
		}
        modifier = {
			factor = 0.95
			owner = { government_tech = 30 }
		}
        modifier = {
			factor = 0.95
			owner = { government_tech = 40 }
		}
        modifier = {
			factor = 0.95
			owner = { government_tech = 50 }
		}
	}

	title = "EVTNAME666312"
	desc = "EVTDESC666312"

       

	option = {
	      name = "OK"
              culture = pommeranian
              }
        
}
province_event = {

	id = 666329

	trigger = {
            province_id = 48
	    culture = pommeranian
            owner = { is_core = THIS }
            owner = { culture_group = west_slavic }
            }
            
	mean_time_to_happen = {
		years = 75
        modifier = {
			factor = 0.95
			owner = { religion = THIS }
		}
        modifier = {
			factor = 0.95
			owner = { ADM = 8 }
		}
        modifier = {
			factor = 0.95
			owner = { ADM = 9 }
		}
        modifier = {
			factor = 0.95
			owner = { stability = 1 }
		}
        modifier = {
			factor = 0.95
			owner = { stability = 2 }
		}
        modifier = {
			factor = 0.95
			owner = { stability = 3 }
		}
        modifier = {
			factor = 0.9
			owner = { production_tech = 25 }
		}
        modifier = {
			factor = 0.9
			owner = { production_tech = 50 }
		}
        modifier = {
			factor = 0.95
			owner = { government_tech = 10 }
		}
        modifier = {
			factor = 0.95
			owner = { government_tech = 20 }
		}
        modifier = {
			factor = 0.95
			owner = { government_tech = 30 }
		}
        modifier = {
			factor = 0.95
			owner = { government_tech = 40 }
		}
        modifier = {
			factor = 0.95
			owner = { government_tech = 50 }
		}
	}

	title = "EVTNAME666312"
	desc = "EVTDESC666312"

       

	option = {
	      name = "OK"
              culture = casubian
              }
        
}
province_event = {

	id = 666330

	trigger = {
            province_id = 51
	    culture = lusatian
            owner = { is_core = THIS }
            owner = { culture_group = germanic }
            }
            
	mean_time_to_happen = {
		years = 40
        modifier = {
			factor = 0.95
			owner = { religion = THIS }
		}
        modifier = {
			factor = 0.95
			owner = { ADM = 8 }
		}
        modifier = {
			factor = 0.95
			owner = { ADM = 9 }
		}
        modifier = {
			factor = 0.95
			owner = { stability = 1 }
		}
        modifier = {
			factor = 0.95
			owner = { stability = 2 }
		}
        modifier = {
			factor = 0.95
			owner = { stability = 3 }
		}
        modifier = {
			factor = 0.9
			owner = { production_tech = 25 }
		}
        modifier = {
			factor = 0.9
			owner = { production_tech = 50 }
		}
        modifier = {
			factor = 0.95
			owner = { government_tech = 10 }
		}
        modifier = {
			factor = 0.95
			owner = { government_tech = 20 }
		}
        modifier = {
			factor = 0.95
			owner = { government_tech = 30 }
		}
        modifier = {
			factor = 0.95
			owner = { government_tech = 40 }
		}
        modifier = {
			factor = 0.95
			owner = { government_tech = 50 }
		}
	}

	title = "EVTNAME666312"
	desc = "EVTDESC666312"

       

	option = {
	      name = "OK"
              culture = saxon
              }
        
}
province_event = {

	id = 666331

	trigger = {
            province_id = 51
	    culture = saxon
            owner = { is_core = THIS }
            owner = { culture_group = west_slavic }
            }
            
	mean_time_to_happen = {
		years = 75
        modifier = {
			factor = 0.95
			owner = { religion = THIS }
		}
        modifier = {
			factor = 0.95
			owner = { ADM = 8 }
		}
        modifier = {
			factor = 0.95
			owner = { ADM = 9 }
		}
        modifier = {
			factor = 0.95
			owner = { stability = 1 }
		}
        modifier = {
			factor = 0.95
			owner = { stability = 2 }
		}
        modifier = {
			factor = 0.95
			owner = { stability = 3 }
		}
        modifier = {
			factor = 0.9
			owner = { production_tech = 25 }
		}
        modifier = {
			factor = 0.9
			owner = { production_tech = 50 }
		}
        modifier = {
			factor = 0.95
			owner = { government_tech = 10 }
		}
        modifier = {
			factor = 0.95
			owner = { government_tech = 20 }
		}
        modifier = {
			factor = 0.95
			owner = { government_tech = 30 }
		}
        modifier = {
			factor = 0.95
			owner = { government_tech = 40 }
		}
        modifier = {
			factor = 0.95
			owner = { government_tech = 50 }
		}
	}

	title = "EVTNAME666312"
	desc = "EVTDESC666312"

       

	option = {
	      name = "OK"
              culture = lusatian
              }
        
}
province_event = {

	id = 666332

	trigger = {
            province_id = 60
	    culture = lusatian
            owner = { is_core = THIS }
            owner = { culture_group = germanic }
            }
            
	mean_time_to_happen = {
		years = 75
        modifier = {
			factor = 0.95
			owner = { religion = THIS }
		}
        modifier = {
			factor = 0.95
			owner = { ADM = 8 }
		}
        modifier = {
			factor = 0.95
			owner = { ADM = 9 }
		}
        modifier = {
			factor = 0.95
			owner = { stability = 1 }
		}
        modifier = {
			factor = 0.95
			owner = { stability = 2 }
		}
        modifier = {
			factor = 0.95
			owner = { stability = 3 }
		}
        modifier = {
			factor = 0.9
			owner = { production_tech = 25 }
		}
        modifier = {
			factor = 0.9
			owner = { production_tech = 50 }
		}
        modifier = {
			factor = 0.95
			owner = { government_tech = 10 }
		}
        modifier = {
			factor = 0.95
			owner = { government_tech = 20 }
		}
        modifier = {
			factor = 0.95
			owner = { government_tech = 30 }
		}
        modifier = {
			factor = 0.95
			owner = { government_tech = 40 }
		}
        modifier = {
			factor = 0.95
			owner = { government_tech = 50 }
		}
	}

	title = "EVTNAME666312"
	desc = "EVTDESC666312"

       

	option = {
	      name = "OK"
              culture = saxon
              }
        
}
province_event = {

	id = 666333

	trigger = {
            province_id = 60
	    culture = saxon
            owner = { is_core = THIS }
            owner = { culture_group = west_slavic }
            }
            
	mean_time_to_happen = {
		years = 40
        modifier = {
			factor = 0.95
			owner = { religion = THIS }
		}
        modifier = {
			factor = 0.95
			owner = { ADM = 8 }
		}
        modifier = {
			factor = 0.95
			owner = { ADM = 9 }
		}
        modifier = {
			factor = 0.95
			owner = { stability = 1 }
		}
        modifier = {
			factor = 0.95
			owner = { stability = 2 }
		}
        modifier = {
			factor = 0.95
			owner = { stability = 3 }
		}
        modifier = {
			factor = 0.9
			owner = { production_tech = 25 }
		}
        modifier = {
			factor = 0.9
			owner = { production_tech = 50 }
		}
        modifier = {
			factor = 0.95
			owner = { government_tech = 10 }
		}
        modifier = {
			factor = 0.95
			owner = { government_tech = 20 }
		}
        modifier = {
			factor = 0.95
			owner = { government_tech = 30 }
		}
        modifier = {
			factor = 0.95
			owner = { government_tech = 40 }
		}
        modifier = {
			factor = 0.95
			owner = { government_tech = 50 }
		}
	}

	title = "EVTNAME666312"
	desc = "EVTDESC666312"

       

	option = {
	      name = "OK"
              culture = lusatian
              }
        
}
province_event = {

	id = 666334

	trigger = {
            province_id = 43
	    culture = casubian
            owner = { is_core = THIS }
            owner = { culture_group = germanic }
            }
            
	mean_time_to_happen = {
		years = 40
        modifier = {
			factor = 0.95
			owner = { religion = THIS }
		}
        modifier = {
			factor = 0.95
			owner = { ADM = 8 }
		}
        modifier = {
			factor = 0.95
			owner = { ADM = 9 }
		}
        modifier = {
			factor = 0.95
			owner = { stability = 1 }
		}
        modifier = {
			factor = 0.95
			owner = { stability = 2 }
		}
        modifier = {
			factor = 0.95
			owner = { stability = 3 }
		}
        modifier = {
			factor = 0.9
			owner = { production_tech = 25 }
		}
        modifier = {
			factor = 0.9
			owner = { production_tech = 50 }
		}
        modifier = {
			factor = 0.95
			owner = { government_tech = 10 }
		}
        modifier = {
			factor = 0.95
			owner = { government_tech = 20 }
		}
        modifier = {
			factor = 0.95
			owner = { government_tech = 30 }
		}
        modifier = {
			factor = 0.95
			owner = { government_tech = 40 }
		}
        modifier = {
			factor = 0.95
			owner = { government_tech = 50 }
		}
	}

	title = "EVTNAME666312"
	desc = "EVTDESC666312"

       

	option = {
	      name = "OK"
              culture = east_german
              }
        
}
province_event = {

	id = 666335

	trigger = {
            province_id = 43
	    culture = east_german
            owner = { is_core = THIS }
            owner = { culture_group = west_slavic }
            }
            
	mean_time_to_happen = {
		years = 75
        modifier = {
			factor = 0.95
			owner = { religion = THIS }
		}
        modifier = {
			factor = 0.95
			owner = { ADM = 8 }
		}
        modifier = {
			factor = 0.95
			owner = { ADM = 9 }
		}
        modifier = {
			factor = 0.95
			owner = { stability = 1 }
		}
        modifier = {
			factor = 0.95
			owner = { stability = 2 }
		}
        modifier = {
			factor = 0.95
			owner = { stability = 3 }
		}
        modifier = {
			factor = 0.9
			owner = { production_tech = 25 }
		}
        modifier = {
			factor = 0.9
			owner = { production_tech = 50 }
		}
        modifier = {
			factor = 0.95
			owner = { government_tech = 10 }
		}
        modifier = {
			factor = 0.95
			owner = { government_tech = 20 }
		}
        modifier = {
			factor = 0.95
			owner = { government_tech = 30 }
		}
        modifier = {
			factor = 0.95
			owner = { government_tech = 40 }
		}
        modifier = {
			factor = 0.95
			owner = { government_tech = 50 }
		}
	}

	title = "EVTNAME666312"
	desc = "EVTDESC666312"

       

	option = {
	      name = "OK"
              culture = casubian
              }
        
}
province_event = {

	id = 666336

	trigger = {
            province_id = 49
	    culture = polish
            owner = { is_core = THIS }
            owner = { culture_group = germanic }
            }
            
	mean_time_to_happen = {
		years = 75
        modifier = {
			factor = 0.95
			owner = { religion = THIS }
		}
        modifier = {
			factor = 0.95
			owner = { ADM = 8 }
		}
        modifier = {
			factor = 0.95
			owner = { ADM = 9 }
		}
        modifier = {
			factor = 0.95
			owner = { stability = 1 }
		}
        modifier = {
			factor = 0.95
			owner = { stability = 2 }
		}
        modifier = {
			factor = 0.95
			owner = { stability = 3 }
		}
        modifier = {
			factor = 0.9
			owner = { production_tech = 25 }
		}
        modifier = {
			factor = 0.9
			owner = { production_tech = 50 }
		}
        modifier = {
			factor = 0.95
			owner = { government_tech = 10 }
		}
        modifier = {
			factor = 0.95
			owner = { government_tech = 20 }
		}
        modifier = {
			factor = 0.95
			owner = { government_tech = 30 }
		}
        modifier = {
			factor = 0.95
			owner = { government_tech = 40 }
		}
        modifier = {
			factor = 0.95
			owner = { government_tech = 50 }
		}
	}

	title = "EVTNAME666312"
	desc = "EVTDESC666312"

       

	option = {
	      name = "OK"
              culture = east_german
              }
        
}
province_event = {

	id = 666337

	trigger = {
            province_id = 49
	    culture = east_german
            owner = { is_core = THIS }
            owner = { culture_group = west_slavic }
            }
            
	mean_time_to_happen = {
		years = 75
        modifier = {
			factor = 0.95
			owner = { religion = THIS }
		}
        modifier = {
			factor = 0.95
			owner = { ADM = 8 }
		}
        modifier = {
			factor = 0.95
			owner = { ADM = 9 }
		}
        modifier = {
			factor = 0.95
			owner = { stability = 1 }
		}
        modifier = {
			factor = 0.95
			owner = { stability = 2 }
		}
        modifier = {
			factor = 0.95
			owner = { stability = 3 }
		}
        modifier = {
			factor = 0.9
			owner = { production_tech = 25 }
		}
        modifier = {
			factor = 0.9
			owner = { production_tech = 50 }
		}
        modifier = {
			factor = 0.95
			owner = { government_tech = 10 }
		}
        modifier = {
			factor = 0.95
			owner = { government_tech = 20 }
		}
        modifier = {
			factor = 0.95
			owner = { government_tech = 30 }
		}
        modifier = {
			factor = 0.95
			owner = { government_tech = 40 }
		}
        modifier = {
			factor = 0.95
			owner = { government_tech = 50 }
		}
	}

	title = "EVTNAME666312"
	desc = "EVTDESC666312"

       

	option = {
	      name = "OK"
              culture = polish
              }
        
}

province_event = {

	id = 666338

	trigger = {
            province_id = 59
	    culture = lusatian
            owner = { is_core = THIS }
            owner = { culture_group = germanic }
            }
            
	mean_time_to_happen = {
		years = 40
        modifier = {
			factor = 0.95
			owner = { religion = THIS }
		}
        modifier = {
			factor = 0.95
			owner = { ADM = 8 }
		}
        modifier = {
			factor = 0.95
			owner = { ADM = 9 }
		}
        modifier = {
			factor = 0.95
			owner = { stability = 1 }
		}
        modifier = {
			factor = 0.95
			owner = { stability = 2 }
		}
        modifier = {
			factor = 0.95
			owner = { stability = 3 }
		}
        modifier = {
			factor = 0.9
			owner = { production_tech = 25 }
		}
        modifier = {
			factor = 0.9
			owner = { production_tech = 50 }
		}
        modifier = {
			factor = 0.95
			owner = { government_tech = 10 }
		}
        modifier = {
			factor = 0.95
			owner = { government_tech = 20 }
		}
        modifier = {
			factor = 0.95
			owner = { government_tech = 30 }
		}
        modifier = {
			factor = 0.95
			owner = { government_tech = 40 }
		}
        modifier = {
			factor = 0.95
			owner = { government_tech = 50 }
		}
	}

	title = "EVTNAME666312"
	desc = "EVTDESC666312"

       

	option = {
	      name = "OK"
              culture = saxon
              }
        
}
province_event = {

	id = 666339

	trigger = {
            province_id = 59
	    culture = saxon
            owner = { is_core = THIS }
            owner = { culture_group = west_slavic }
            }
            
	mean_time_to_happen = {
		years = 75
        modifier = {
			factor = 0.95
			owner = { religion = THIS }
		}
        modifier = {
			factor = 0.95
			owner = { ADM = 8 }
		}
        modifier = {
			factor = 0.95
			owner = { ADM = 9 }
		}
        modifier = {
			factor = 0.95
			owner = { stability = 1 }
		}
        modifier = {
			factor = 0.95
			owner = { stability = 2 }
		}
        modifier = {
			factor = 0.95
			owner = { stability = 3 }
		}
        modifier = {
			factor = 0.9
			owner = { production_tech = 25 }
		}
        modifier = {
			factor = 0.9
			owner = { production_tech = 50 }
		}
        modifier = {
			factor = 0.95
			owner = { government_tech = 10 }
		}
        modifier = {
			factor = 0.95
			owner = { government_tech = 20 }
		}
        modifier = {
			factor = 0.95
			owner = { government_tech = 30 }
		}
        modifier = {
			factor = 0.95
			owner = { government_tech = 40 }
		}
        modifier = {
			factor = 0.95
			owner = { government_tech = 50 }
		}
	}

	title = "EVTNAME666312"
	desc = "EVTDESC666312"

       

	option = {
	      name = "OK"
              culture = lusatian
              }
        
}

province_event = {

	id = 666340

	trigger = {
            province_id = 41
	    culture = prussian
            owner = { is_core = THIS }
            owner = { culture_group = germanic }
            }
            
	mean_time_to_happen = {
		years = 40
        modifier = {
			factor = 0.95
			owner = { religion = THIS }
		}
        modifier = {
			factor = 0.95
			owner = { ADM = 8 }
		}
        modifier = {
			factor = 0.95
			owner = { ADM = 9 }
		}
        modifier = {
			factor = 0.95
			owner = { stability = 1 }
		}
        modifier = {
			factor = 0.95
			owner = { stability = 2 }
		}
        modifier = {
			factor = 0.95
			owner = { stability = 3 }
		}
        modifier = {
			factor = 0.9
			owner = { production_tech = 25 }
		}
        modifier = {
			factor = 0.9
			owner = { production_tech = 50 }
		}
        modifier = {
			factor = 0.95
			owner = { government_tech = 10 }
		}
        modifier = {
			factor = 0.95
			owner = { government_tech = 20 }
		}
        modifier = {
			factor = 0.95
			owner = { government_tech = 30 }
		}
        modifier = {
			factor = 0.95
			owner = { government_tech = 40 }
		}
        modifier = {
			factor = 0.95
			owner = { government_tech = 50 }
		}
	}

	title = "EVTNAME666312"
	desc = "EVTDESC666312"

       

	option = {
	      name = "OK"
              culture = east_german
              }
        
}
province_event = {

	id = 666341

	trigger = {
            province_id = 41
	    culture = east_german
            owner = { is_core = THIS }
            owner = { culture_group = baltic }
            }
            
	mean_time_to_happen = {
		years = 75
        modifier = {
			factor = 0.95
			owner = { religion = THIS }
		}
        modifier = {
			factor = 0.95
			owner = { ADM = 8 }
		}
        modifier = {
			factor = 0.95
			owner = { ADM = 9 }
		}
        modifier = {
			factor = 0.95
			owner = { stability = 1 }
		}
        modifier = {
			factor = 0.95
			owner = { stability = 2 }
		}
        modifier = {
			factor = 0.95
			owner = { stability = 3 }
		}
        modifier = {
			factor = 0.9
			owner = { production_tech = 25 }
		}
        modifier = {
			factor = 0.9
			owner = { production_tech = 50 }
		}
        modifier = {
			factor = 0.95
			owner = { government_tech = 10 }
		}
        modifier = {
			factor = 0.95
			owner = { government_tech = 20 }
		}
        modifier = {
			factor = 0.95
			owner = { government_tech = 30 }
		}
        modifier = {
			factor = 0.95
			owner = { government_tech = 40 }
		}
        modifier = {
			factor = 0.95
			owner = { government_tech = 50 }
		}
	}

	title = "EVTNAME666312"
	desc = "EVTDESC666312"

       

	option = {
	      name = "OK"
              culture = prussian
              }
        
}
province_event = {

	id = 666342

	trigger = {
            province_id = 40
	    culture = prussian
            owner = { is_core = THIS }
            owner = { culture_group = germanic }
            }
            
	mean_time_to_happen = {
		years = 40
        modifier = {
			factor = 0.95
			owner = { religion = THIS }
		}
        modifier = {
			factor = 0.95
			owner = { ADM = 8 }
		}
        modifier = {
			factor = 0.95
			owner = { ADM = 9 }
		}
        modifier = {
			factor = 0.95
			owner = { stability = 1 }
		}
        modifier = {
			factor = 0.95
			owner = { stability = 2 }
		}
        modifier = {
			factor = 0.95
			owner = { stability = 3 }
		}
        modifier = {
			factor = 0.9
			owner = { production_tech = 25 }
		}
        modifier = {
			factor = 0.9
			owner = { production_tech = 50 }
		}
        modifier = {
			factor = 0.95
			owner = { government_tech = 10 }
		}
        modifier = {
			factor = 0.95
			owner = { government_tech = 20 }
		}
        modifier = {
			factor = 0.95
			owner = { government_tech = 30 }
		}
        modifier = {
			factor = 0.95
			owner = { government_tech = 40 }
		}
        modifier = {
			factor = 0.95
			owner = { government_tech = 50 }
		}
	}

	title = "EVTNAME666312"
	desc = "EVTDESC666312"

       

	option = {
	      name = "OK"
              culture = east_german
              }
        
}
province_event = {

	id = 666343

	trigger = {
            province_id = 40
	    culture = east_german
            owner = { is_core = THIS }
            owner = { culture_group = baltic }
            }
            
	mean_time_to_happen = {
		years = 40
        modifier = {
			factor = 0.95
			owner = { religion = THIS }
		}
        modifier = {
			factor = 0.95
			owner = { ADM = 8 }
		}
        modifier = {
			factor = 0.95
			owner = { ADM = 9 }
		}
        modifier = {
			factor = 0.95
			owner = { stability = 1 }
		}
        modifier = {
			factor = 0.95
			owner = { stability = 2 }
		}
        modifier = {
			factor = 0.95
			owner = { stability = 3 }
		}
        modifier = {
			factor = 0.9
			owner = { production_tech = 25 }
		}
        modifier = {
			factor = 0.9
			owner = { production_tech = 50 }
		}
        modifier = {
			factor = 0.95
			owner = { government_tech = 10 }
		}
        modifier = {
			factor = 0.95
			owner = { government_tech = 20 }
		}
        modifier = {
			factor = 0.95
			owner = { government_tech = 30 }
		}
        modifier = {
			factor = 0.95
			owner = { government_tech = 40 }
		}
        modifier = {
			factor = 0.95
			owner = { government_tech = 50 }
		}
	}

	title = "EVTNAME666312"
	desc = "EVTDESC666312"

       

	option = {
	      name = "OK"
              culture = prussian
              }
        
}
province_event = {

	id = 666344

	trigger = {
            province_id = 2174
	    culture = polish
            owner = { is_core = THIS }
            owner = { culture_group = east_slavic }
            }
            
	mean_time_to_happen = {
		years = 40
        modifier = {
			factor = 0.95
			owner = { religion = THIS }
		}
        modifier = {
			factor = 0.95
			owner = { ADM = 8 }
		}
        modifier = {
			factor = 0.95
			owner = { ADM = 9 }
		}
        modifier = {
			factor = 0.95
			owner = { stability = 1 }
		}
        modifier = {
			factor = 0.95
			owner = { stability = 2 }
		}
        modifier = {
			factor = 0.95
			owner = { stability = 3 }
		}
        modifier = {
			factor = 0.9
			owner = { production_tech = 25 }
		}
        modifier = {
			factor = 0.9
			owner = { production_tech = 50 }
		}
        modifier = {
			factor = 0.95
			owner = { government_tech = 10 }
		}
        modifier = {
			factor = 0.95
			owner = { government_tech = 20 }
		}
        modifier = {
			factor = 0.95
			owner = { government_tech = 30 }
		}
        modifier = {
			factor = 0.95
			owner = { government_tech = 40 }
		}
        modifier = {
			factor = 0.95
			owner = { government_tech = 50 }
		}
	}

	title = "EVTNAME666312"
	desc = "EVTDESC666312"

       

	option = {
	      name = "OK"
              culture = ruthenian
              }
        
}
province_event = {

	id = 666345

	trigger = {
            province_id = 2174
	    culture = ruthenian
            owner = { is_core = THIS }
            owner = { culture_group = west_slavic }
            }
            
	mean_time_to_happen = {
		years = 40
        modifier = {
			factor = 0.95
			owner = { religion = THIS }
		}
        modifier = {
			factor = 0.95
			owner = { ADM = 8 }
		}
        modifier = {
			factor = 0.95
			owner = { ADM = 9 }
		}
        modifier = {
			factor = 0.95
			owner = { stability = 1 }
		}
        modifier = {
			factor = 0.95
			owner = { stability = 2 }
		}
        modifier = {
			factor = 0.95
			owner = { stability = 3 }
		}
        modifier = {
			factor = 0.9
			owner = { production_tech = 25 }
		}
        modifier = {
			factor = 0.9
			owner = { production_tech = 50 }
		}
        modifier = {
			factor = 0.95
			owner = { government_tech = 10 }
		}
        modifier = {
			factor = 0.95
			owner = { government_tech = 20 }
		}
        modifier = {
			factor = 0.95
			owner = { government_tech = 30 }
		}
        modifier = {
			factor = 0.95
			owner = { government_tech = 40 }
		}
        modifier = {
			factor = 0.95
			owner = { government_tech = 50 }
		}
	}

	title = "EVTNAME666312"
	desc = "EVTDESC666312"

       

	option = {
	      name = "OK"
              culture = polish
              }
        
}
province_event = {

	id = 666346

	trigger = {
            province_id = 1253
	    culture = polish
            owner = { is_core = THIS }
            owner = { culture_group = east_slavic }
            }
            
	mean_time_to_happen = {
		years = 40
        modifier = {
			factor = 0.95
			owner = { religion = THIS }
		}
        modifier = {
			factor = 0.95
			owner = { ADM = 8 }
		}
        modifier = {
			factor = 0.95
			owner = { ADM = 9 }
		}
        modifier = {
			factor = 0.95
			owner = { stability = 1 }
		}
        modifier = {
			factor = 0.95
			owner = { stability = 2 }
		}
        modifier = {
			factor = 0.95
			owner = { stability = 3 }
		}
        modifier = {
			factor = 0.9
			owner = { production_tech = 25 }
		}
        modifier = {
			factor = 0.9
			owner = { production_tech = 50 }
		}
        modifier = {
			factor = 0.95
			owner = { government_tech = 10 }
		}
        modifier = {
			factor = 0.95
			owner = { government_tech = 20 }
		}
        modifier = {
			factor = 0.95
			owner = { government_tech = 30 }
		}
        modifier = {
			factor = 0.95
			owner = { government_tech = 40 }
		}
        modifier = {
			factor = 0.95
			owner = { government_tech = 50 }
		}
	}

	title = "EVTNAME666312"
	desc = "EVTDESC666312"

       

	option = {
	      name = "OK"
              culture = ruthenian
              }
        
}
province_event = {

	id = 666347

	trigger = {
            province_id = 1253
	    culture = ruthenian
            owner = { is_core = THIS }
            owner = { culture_group = west_slavic }
            }
            
	mean_time_to_happen = {
		years = 75
        modifier = {
			factor = 0.95
			owner = { religion = THIS }
		}
        modifier = {
			factor = 0.95
			owner = { ADM = 8 }
		}
        modifier = {
			factor = 0.95
			owner = { ADM = 9 }
		}
        modifier = {
			factor = 0.95
			owner = { stability = 1 }
		}
        modifier = {
			factor = 0.95
			owner = { stability = 2 }
		}
        modifier = {
			factor = 0.95
			owner = { stability = 3 }
		}
        modifier = {
			factor = 0.9
			owner = { production_tech = 25 }
		}
        modifier = {
			factor = 0.9
			owner = { production_tech = 50 }
		}
        modifier = {
			factor = 0.95
			owner = { government_tech = 10 }
		}
        modifier = {
			factor = 0.95
			owner = { government_tech = 20 }
		}
        modifier = {
			factor = 0.95
			owner = { government_tech = 30 }
		}
        modifier = {
			factor = 0.95
			owner = { government_tech = 40 }
		}
        modifier = {
			factor = 0.95
			owner = { government_tech = 50 }
		}
	}

	title = "EVTNAME666312"
	desc = "EVTDESC666312"

       

	option = {
	      name = "OK"
              culture = polish
              }
        
}
province_event = {

	id = 666348

	trigger = {
            province_id = 269
	    culture = polish
            owner = { is_core = THIS }
            owner = { culture_group = east_slavic }
            }
            
	mean_time_to_happen = {
		years = 40
        modifier = {
			factor = 0.95
			owner = { religion = THIS }
		}
        modifier = {
			factor = 0.95
			owner = { ADM = 8 }
		}
        modifier = {
			factor = 0.95
			owner = { ADM = 9 }
		}
        modifier = {
			factor = 0.95
			owner = { stability = 1 }
		}
        modifier = {
			factor = 0.95
			owner = { stability = 2 }
		}
        modifier = {
			factor = 0.95
			owner = { stability = 3 }
		}
        modifier = {
			factor = 0.9
			owner = { production_tech = 25 }
		}
        modifier = {
			factor = 0.9
			owner = { production_tech = 50 }
		}
        modifier = {
			factor = 0.95
			owner = { government_tech = 10 }
		}
        modifier = {
			factor = 0.95
			owner = { government_tech = 20 }
		}
        modifier = {
			factor = 0.95
			owner = { government_tech = 30 }
		}
        modifier = {
			factor = 0.95
			owner = { government_tech = 40 }
		}
        modifier = {
			factor = 0.95
			owner = { government_tech = 50 }
		}
	}

	title = "EVTNAME666312"
	desc = "EVTDESC666312"

       

	option = {
	      name = "OK"
              culture = byelorussian
              }
        
}
province_event = {

	id = 666349

	trigger = {
            province_id = 1253
	    culture = byelorussian
            owner = { is_core = THIS }
            owner = { culture_group = west_slavic }
            }
            
	mean_time_to_happen = {
		years = 75
        modifier = {
			factor = 0.95
			owner = { religion = THIS }
		}
        modifier = {
			factor = 0.95
			owner = { ADM = 8 }
		}
        modifier = {
			factor = 0.95
			owner = { ADM = 9 }
		}
        modifier = {
			factor = 0.95
			owner = { stability = 1 }
		}
        modifier = {
			factor = 0.95
			owner = { stability = 2 }
		}
        modifier = {
			factor = 0.95
			owner = { stability = 3 }
		}
        modifier = {
			factor = 0.9
			owner = { production_tech = 25 }
		}
        modifier = {
			factor = 0.9
			owner = { production_tech = 50 }
		}
        modifier = {
			factor = 0.95
			owner = { government_tech = 10 }
		}
        modifier = {
			factor = 0.95
			owner = { government_tech = 20 }
		}
        modifier = {
			factor = 0.95
			owner = { government_tech = 30 }
		}
        modifier = {
			factor = 0.95
			owner = { government_tech = 40 }
		}
        modifier = {
			factor = 0.95
			owner = { government_tech = 50 }
		}
	}

	title = "EVTNAME666312"
	desc = "EVTDESC666312"

       

	option = {
	      name = "OK"
              culture = polish
              }
        
}
province_event = {

	id = 666350

	trigger = {
            province_id = 291
	    culture = tartar
            owner = { is_core = THIS }
            owner = { culture_group = east_slavic }
            }
            
	mean_time_to_happen = {
		years = 40
        modifier = {
			factor = 0.95
			owner = { religion = THIS }
		}
        modifier = {
			factor = 0.95
			owner = { ADM = 8 }
		}
        modifier = {
			factor = 0.95
			owner = { ADM = 9 }
		}
        modifier = {
			factor = 0.95
			owner = { stability = 1 }
		}
        modifier = {
			factor = 0.95
			owner = { stability = 2 }
		}
        modifier = {
			factor = 0.95
			owner = { stability = 3 }
		}
        modifier = {
			factor = 0.9
			owner = { production_tech = 25 }
		}
        modifier = {
			factor = 0.9
			owner = { production_tech = 50 }
		}
        modifier = {
			factor = 0.95
			owner = { government_tech = 10 }
		}
        modifier = {
			factor = 0.95
			owner = { government_tech = 20 }
		}
        modifier = {
			factor = 0.95
			owner = { government_tech = 30 }
		}
        modifier = {
			factor = 0.95
			owner = { government_tech = 40 }
		}
        modifier = {
			factor = 0.95
			owner = { government_tech = 50 }
		}
	}

	title = "EVTNAME666312"
	desc = "EVTDESC666312"

       

	option = {
	      name = "OK"
              culture = ruthenian
              }
        
}
province_event = {

	id = 666351

	trigger = {
            province_id = 291
	    culture = ruthenian
            owner = { is_core = THIS }
            owner = { culture_group = kypchak }
            }
            
	mean_time_to_happen = {
		years = 75
        modifier = {
			factor = 0.95
			owner = { religion = THIS }
		}
        modifier = {
			factor = 0.95
			owner = { ADM = 8 }
		}
        modifier = {
			factor = 0.95
			owner = { ADM = 9 }
		}
        modifier = {
			factor = 0.95
			owner = { stability = 1 }
		}
        modifier = {
			factor = 0.95
			owner = { stability = 2 }
		}
        modifier = {
			factor = 0.95
			owner = { stability = 3 }
		}
        modifier = {
			factor = 0.9
			owner = { production_tech = 25 }
		}
        modifier = {
			factor = 0.9
			owner = { production_tech = 50 }
		}
        modifier = {
			factor = 0.95
			owner = { government_tech = 10 }
		}
        modifier = {
			factor = 0.95
			owner = { government_tech = 20 }
		}
        modifier = {
			factor = 0.95
			owner = { government_tech = 30 }
		}
        modifier = {
			factor = 0.95
			owner = { government_tech = 40 }
		}
        modifier = {
			factor = 0.95
			owner = { government_tech = 50 }
		}
	}

	title = "EVTNAME666312"
	desc = "EVTDESC666312"

       

	option = {
	      name = "OK"
              culture = tartar
              }
        
}
province_event = {

	id = 666352

	trigger = {
            province_id = 283
	    culture = tartar
            owner = { is_core = THIS }
            owner = { culture_group = east_slavic }
            }
            
	mean_time_to_happen = {
		years = 40
        modifier = {
			factor = 0.95
			owner = { religion = THIS }
		}
        modifier = {
			factor = 0.95
			owner = { ADM = 8 }
		}
        modifier = {
			factor = 0.95
			owner = { ADM = 9 }
		}
        modifier = {
			factor = 0.95
			owner = { stability = 1 }
		}
        modifier = {
			factor = 0.95
			owner = { stability = 2 }
		}
        modifier = {
			factor = 0.95
			owner = { stability = 3 }
		}
        modifier = {
			factor = 0.9
			owner = { production_tech = 25 }
		}
        modifier = {
			factor = 0.9
			owner = { production_tech = 50 }
		}
        modifier = {
			factor = 0.95
			owner = { government_tech = 10 }
		}
        modifier = {
			factor = 0.95
			owner = { government_tech = 20 }
		}
        modifier = {
			factor = 0.95
			owner = { government_tech = 30 }
		}
        modifier = {
			factor = 0.95
			owner = { government_tech = 40 }
		}
        modifier = {
			factor = 0.95
			owner = { government_tech = 50 }
		}
	}

	title = "EVTNAME666312"
	desc = "EVTDESC666312"

       

	option = {
	      name = "OK"
              culture = ruthenian
              }
        
}
province_event = {

	id = 666353

	trigger = {
            province_id = 283
	    culture = ruthenian
            owner = { is_core = THIS }
            owner = { culture_group = kypchak }
            }
            
	mean_time_to_happen = {
		years = 75
        modifier = {
			factor = 0.95
			owner = { religion = THIS }
		}
        modifier = {
			factor = 0.95
			owner = { ADM = 8 }
		}
        modifier = {
			factor = 0.95
			owner = { ADM = 9 }
		}
        modifier = {
			factor = 0.95
			owner = { stability = 1 }
		}
        modifier = {
			factor = 0.95
			owner = { stability = 2 }
		}
        modifier = {
			factor = 0.95
			owner = { stability = 3 }
		}
        modifier = {
			factor = 0.9
			owner = { production_tech = 25 }
		}
        modifier = {
			factor = 0.9
			owner = { production_tech = 50 }
		}
        modifier = {
			factor = 0.95
			owner = { government_tech = 10 }
		}
        modifier = {
			factor = 0.95
			owner = { government_tech = 20 }
		}
        modifier = {
			factor = 0.95
			owner = { government_tech = 30 }
		}
        modifier = {
			factor = 0.95
			owner = { government_tech = 40 }
		}
        modifier = {
			factor = 0.95
			owner = { government_tech = 50 }
		}
	}

	title = "EVTNAME666312"
	desc = "EVTDESC666312"

       

	option = {
	      name = "OK"
              culture = tartar
              }
        
}
province_event = {

	id = 666354

	trigger = {
            province_id = 233
	    culture = welsh
            owner = { is_core = THIS }
            owner = { culture_group = british }
            }
            
	mean_time_to_happen = {
		years = 75
        modifier = {
			factor = 0.95
			owner = { religion = THIS }
		}
        modifier = {
			factor = 0.95
			owner = { ADM = 8 }
		}
        modifier = {
			factor = 0.95
			owner = { ADM = 9 }
		}
        modifier = {
			factor = 0.95
			owner = { stability = 1 }
		}
        modifier = {
			factor = 0.95
			owner = { stability = 2 }
		}
        modifier = {
			factor = 0.95
			owner = { stability = 3 }
		}
        modifier = {
			factor = 0.9
			owner = { production_tech = 25 }
		}
        modifier = {
			factor = 0.9
			owner = { production_tech = 50 }
		}
        modifier = {
			factor = 0.95
			owner = { government_tech = 10 }
		}
        modifier = {
			factor = 0.95
			owner = { government_tech = 20 }
		}
        modifier = {
			factor = 0.95
			owner = { government_tech = 30 }
		}
        modifier = {
			factor = 0.95
			owner = { government_tech = 40 }
		}
        modifier = {
			factor = 0.95
			owner = { government_tech = 50 }
		}
	}

	title = "EVTNAME666312"
	desc = "EVTDESC666312"

       

	option = {
	      name = "OK"
              culture = english
              }
        
}
province_event = {

	id = 666355

	trigger = {
            province_id = 233
	    culture = english
            owner = { is_core = THIS }
            owner = { culture_group = gaelic }
            }
            
	mean_time_to_happen = {
		years = 75
        modifier = {
			factor = 0.95
			owner = { religion = THIS }
		}
        modifier = {
			factor = 0.95
			owner = { ADM = 8 }
		}
        modifier = {
			factor = 0.95
			owner = { ADM = 9 }
		}
        modifier = {
			factor = 0.95
			owner = { stability = 1 }
		}
        modifier = {
			factor = 0.95
			owner = { stability = 2 }
		}
        modifier = {
			factor = 0.95
			owner = { stability = 3 }
		}
        modifier = {
			factor = 0.9
			owner = { production_tech = 25 }
		}
        modifier = {
			factor = 0.9
			owner = { production_tech = 50 }
		}
        modifier = {
			factor = 0.95
			owner = { government_tech = 10 }
		}
        modifier = {
			factor = 0.95
			owner = { government_tech = 20 }
		}
        modifier = {
			factor = 0.95
			owner = { government_tech = 30 }
		}
        modifier = {
			factor = 0.95
			owner = { government_tech = 40 }
		}
        modifier = {
			factor = 0.95
			owner = { government_tech = 50 }
		}
	}

	title = "EVTNAME666312"
	desc = "EVTDESC666312"

       

	option = {
	      name = "OK"
              culture = welsh
              }
        
}