country_event = {
	id = 707001

	is_triggered_only = yes
	
	
	title = "EVTNAME707001"
	desc = "EVTDESC707001"
	
	option = {
		name = "EVTOPTA707001"
		ai_chance = { 
			factor = 30 
			days = 1
			modifier = {
				NOT = { num_of_cities = 10 }
				factor = 0.8
			}
			modifier = {
				NOT = { num_of_cities = 15 }
				factor = 0.9
			}
			modifier = {
				num_of_cities = 20
				factor = 1.1
			}
			modifier = {
				num_of_cities = 30
				factor = 1.1
			}
			modifier = {
				NOT = { MIL = 4 }
				factor = 0.5
			}
			modifier = {
				NOT = { MIL = 5 }
				factor = 0.8
			}
			modifier = {
				NOT = { MIL = 6 }
				factor = 0.9
			}
			modifier = {
				MIL = 7
				factor = 1.1
			}
			modifier = {
				MIL = 8
				factor = 1.2
			}
			modifier = {
				MIL = 9
				factor = 1.4
			}
			modifier = {
				NOT = { badboy = 0.1 }
				factor = 1.2
			}
			modifier = {
				NOT = { badboy = 0.2 }
				factor = 1.1
			}
			modifier = {
				NOT = { badboy = 0.3 }
				factor = 1.1
			}
			modifier = {
				NOT = { badboy = 0.4 }
				factor = 1.05
			}
			modifier = {
				badboy = 0.6
				factor = 0.9
			}
			modifier = {
				badboy = 0.7
				factor = 0.8
			}
			modifier = {
				badboy = 0.8
				factor = 0.7
			}
			modifier = {
				badboy = 0.9
				factor = 0.5
			}
		}
		add_country_modifier = {
			name = "partition_offer_accepted"
			duration = 5
		}
		badboy = 1
		any_country = {
			limit = {
				has_country_modifier = partition_offered
				alliance_with = THIS
			}
			country_event = 707002
		}
		any_country = {
			limit = { has_country_modifier = partitioned_country }
			relation = { who = THIS value = -200 }
			badboy = -2
		}
		random_owned = {
			random_neighbor_province = {
				limit = {
					NOT = { owned_by = THIS }
					NOT = { is_core = THIS }
					owner = { has_country_modifier = partitioned_country }
					}
				add_core = THIS
			}
		}
		random_owned = {
			random_neighbor_province = {
				limit = {
					NOT = { owned_by = THIS }
					NOT = { is_core = THIS }
					owner = { has_country_modifier = partitioned_country }
				}
				add_core = THIS
			}
		}
		random_owned = {
			random_neighbor_province = {
				limit = {
					NOT = { owned_by = THIS }
					NOT = { is_core = THIS }
					owner = { has_country_modifier = partitioned_country }
				}
				add_core = THIS
			}
		}
	}
	option = {
		name = "EVTOPTB707001"
		ai_chance = { 
			factor = 40
			days = 1
			modifier = {
				NOT = { war_exhaustion = 1 }
				factor = 0.8
			}
			modifier = {
				NOT = { war_exhaustion = 2 }
				factor = 0.9
			}
			modifier = {
				war_exhaustion = 4
				factor = 1.1
			}
			modifier = {
				war_exhaustion = 5
				factor = 1.2
			}
			modifier = {
				war_exhaustion = 6
				factor = 1.3
			}
			modifier = {
				war_exhaustion = 7
				factor = 1.4
			}
			modifier = {
				war_exhaustion = 8
				factor = 1.5
			}
			modifier = {
				war = yes
				factor = 1.5
			}
			modifier = {
				NOT = { stability = 0 }
				factor = 1.5
			}
			modifier = {
				stability = 2
				factor = 0.9
			}
			modifier = {
				stability = 3
				factor = 0.9
			}
		}
		add_country_modifier = {
			name = "partition_offer_declined_1"
			duration = 5
		}
		prestige = -0.02
		any_country = {
			limit = {
				has_country_modifier = partition_offered
				alliance_with = THIS
			}
			country_event = 707003
		}
		any_neighbor_country = {
			limit = { has_country_modifier = partitioned_country }
			relation = { who = THIS value = 25 }
		}
	}
	option = {
		name = "EVTOPTC707001"
		ai_chance = {
			factor = 30
			days = 1
			modifier = {
				any_known_country = {
					alliance_with = THIS
					has_country_modifier = partition_offered
					NOT = { relation = { who = THIS value = 120 } }
				}
				factor = 1.3
			}
			modifier = {
				any_known_country = {
					alliance_with = THIS
					has_country_modifier = partition_offered
					NOT = { relation = { who = THIS value = 150 } }
				}
				factor = 1.1
			}
			modifier = {
				any_known_country = {
					alliance_with = THIS
					has_country_modifier = partition_offered
					relation = { who = THIS value = 180 }
				}
				factor = 0.9
			}
			modifier = {
				any_known_country = {
					alliance_with = THIS
					has_country_modifier = partition_offered
					relation = { who = THIS value = 195 }
				}
				factor = 0.9
			}
			modifier = {
				any_known_country = {
					alliance_with = THIS
					has_country_modifier = partition_offered
					marriage_with = THIS
				}
				factor = 0.9
			}
			modifier = {
				any_known_country = {
					alliance_with = THIS
					has_country_modifier = partition_offered
					DIP = 8
				}
				factor = 0.9
			}
			modifier = {
				any_known_country = {
					alliance_with = THIS
					has_country_modifier = partition_offered
					DIP = 9
				}
				factor = 0.9
			}
			modifier = {
				any_known_country = {
					alliance_with = THIS
					has_country_modifier = partition_offered
					NOT = { prestige = 0.15 }
				}
				factor = 1.2
			}
			modifier = {
				any_known_country = {
					alliance_with = THIS
					has_country_modifier = partition_offered
					NOT = { prestige = 0.2 }
				}
				factor = 1.1
			}
			modifier = {
				any_known_country = {
					alliance_with = THIS
					has_country_modifier = partition_offered
					NOT = { prestige = 0.25 }
				}
				factor = 1.1
			}
			modifier = {
				any_known_country = {
					alliance_with = THIS
					has_country_modifier = partition_offered
					prestige = 0.40
				}
				factor = 0.9
			}
			modifier = {
				any_known_country = {
					alliance_with = THIS
					has_country_modifier = partition_offered
					prestige = 0.60
				}
				factor = 0.85
			}
			modifier = {
				any_known_country = {
					alliance_with = THIS
					has_country_modifier = partition_offered
					prestige = 0.80
				}
				factor = 0.8
			}
			modifier = {
				any_known_country = {
					alliance_with = THIS
					has_country_modifier = partition_offered
					prestige = 1
				}
				factor = 0.75
			}
			modifier = {
				any_known_country = {
					alliance_with = THIS
					has_country_modifier = partition_offered
					NOT = { badboy = 0.1 }
				}
				factor = 0.85
			}
			modifier = {
				any_known_country = {
					alliance_with = THIS
					has_country_modifier = partition_offered
					badboy = 0.3
				}
				factor = 1.1
			}
			modifier = {
				any_known_country = {
					alliance_with = THIS
					has_country_modifier = partition_offered
					badboy = 0.5
				}
				factor = 1.15
			}
			modifier = {
				any_known_country = {
					alliance_with = THIS
					has_country_modifier = partition_offered
					badboy = 0.7
				}
				factor = 1.25
			}
			modifier = {
				any_known_country = {
					alliance_with = THIS
					has_country_modifier = partition_offered
					badboy = 0.9
				}
				factor = 1.5
			}
			modifier = {
				any_known_country = {
					alliance_with = THIS
					has_country_modifier = partition_offered
					badboy = 1
				}
				factor = 2
			}
			modifier = {
				any_known_country = {
					alliance_with = THIS
					has_country_modifier = partition_offered
					NOT = { num_of_cities = 6 }
				}
				factor = 0.9
			}
			modifier = {
				any_known_country = {
					alliance_with = THIS
					has_country_modifier = partition_offered
					num_of_cities = 15
				}
				factor = 1.2
			}
			modifier = {
				any_known_country = {
					alliance_with = THIS
					has_country_modifier = partition_offered
					num_of_cities = 20
				}
				factor = 1.3
			}
			modifier = {
				any_known_country = {
					alliance_with = THIS
					has_country_modifier = partition_offered
					num_of_cities = 30
				}
				factor = 1.5
			}
			modifier = {
				any_known_country = {
					alliance_with = THIS
					has_country_modifier = partition_offered
					num_of_cities = 50
				}
				factor = 2
			}
			modifier = {
				any_neighbor_country = {
					has_country_modifier = partitioned_country
					NOT = { relation = { who = THIS value = -100 } }
				}
				factor = 0.85
			}
			modifier = {
				any_neighbor_country = {
					has_country_modifier = partitioned_country
					NOT = { relation = { who = THIS value = 0 } }
				}
				factor = 0.9
			}
			modifier = {
				any_neighbor_country = {
					has_country_modifier = partitioned_country
					relation = { who = THIS value = 50 }
				}
				factor = 1.05
			}
			modifier = {
				any_neighbor_country = {
					has_country_modifier = partitioned_country
					relation = { who = THIS value = 100 }
				}
				factor = 1.1
			}
			modifier = {
				any_neighbor_country = {
					has_country_modifier = partitioned_country
					relation = { who = THIS value = 150 }
				}
				factor = 1.2
			}
			modifier = {
				any_neighbor_country = {
					has_country_modifier = partitioned_country
					relation = { who = THIS value = 190 }
				}
				factor = 1.3
			}
			modifier = {
				any_neighbor_country = {
					has_country_modifier = partitioned_country
					marriage_with = THIS
				}
				factor = 1.15
			}
			modifier = {
				any_neighbor_country = {
					has_country_modifier = partitioned_country
					alliance_with = THIS
				}
				factor = 1.5
			}
		}
		add_country_modifier = {
			name = "partition_offer_declined_2"
			duration = 5
		}
		prestige = 0.02
		badboy = -1
		any_country = {
			limit = {
				has_country_modifier = partition_offered
				alliance_with = THIS
			}
			country_event = 707004
		}
		any_neighbor_country = {
			limit = { has_country_modifier = partitioned_country }
			relation = { who = THIS value = 100 }
		}
	}
}

country_event = {
	id = 707002

	is_triggered_only = yes
	
	
	title = "EVTNAME707002"
	desc = "EVTDESC707002"
	
	option = {
		name = "EVTOPTA707002"
		badboy = 1
		any_country = {
			limit = {
				has_country_modifier = partition_offer_accepted
				alliance_with = THIS
			}
			relation = { who = THIS value = 100 }
		}
		random_owned = {
			random_neighbor_province = {
				limit = {
					NOT = { owned_by = THIS }
					NOT = { is_core = THIS }
					owner = { has_country_modifier = partitioned_country }
				}
				add_core = THIS
			}
		}
		random_owned = {
			random_neighbor_province = {
				limit = {
					NOT = { owned_by = THIS }
					NOT = { is_core = THIS }
					owner = { has_country_modifier = partitioned_country }
				}
				add_core = THIS
			}
		}
		any_neighbor_country = {
			limit = { has_country_modifier = partitioned_country }
			relation = { who = THIS value = -200 }
			war = THIS
		}
	}
}

country_event = {
	id = 707003

	is_triggered_only = yes
	
	
	title = "EVTNAME707003"
	desc = "EVTDESC707003"
	
	option = {
		name = "EVTOPTA707003"
		prestige = -0.02
		any_country = {
			limit = {
				has_country_modifier = partition_offer_declined_1
				alliance_with = THIS
			}
			relation = { who = THIS value = -50 }
		}
		any_neighbor_country = {
			limit = { has_country_modifier = partitioned_country }
			relation = { who = THIS value = -25 }
		}
	}
}

country_event = {
	id = 707004

	is_triggered_only = yes
	
	
	title = "EVTNAME707004"
	desc = "EVTDESC707004"
	
	option = {
		name = "EVTOPTA707004"
		badboy = 3
		prestige = -0.1
		any_country = {
			limit = {
				has_country_modifier = partition_offer_declined_2
				alliance_with = THIS
			}
			relation = { who = THIS value = -200 }
			add_casus_belli = {	
				target = THIS
				type = cb_insult
				months = 12
			}
		}
		any_neighbor_country = {
			limit = { has_country_modifier = partitioned_country }
			relation = { who = THIS value = -200 }
			casus_belli = {	
				target = THIS
				type = cb_insult
				months = 12
			} 
		}
	}
}

country_event = {
	id = 707005

	is_triggered_only = yes
	
	
	title = "EVTNAME707005"
	desc = "EVTDESC707005"
	
	immediate = { set_country_flag = dei_offer_target }
	
	option = {
		name = "EVTOPTA707005"
		ai_chance = { 
			factor = 30
			days = 1
			modifier = {
				treasury = 1000
				factor = 1.1
			}
		}
		prestige = 0.01
		random_owned = {
			limit = { has_province_modifier = negotiations_up_our_heads }
			remove_province_modifier = negotiations_up_our_heads
		}
		any_neighbor_country = {
			limit = { has_country_flag = special_client }
			country_event = 707006
		}
	}
	option = {
		name = "EVTOPTB707005"
		ai_chance = {
			factor = 35
			days = 1
			modifier = {
				treasury = 500
				factor = 1.1
			}
		}
		random_owned = {
			limit = { has_province_modifier = negotiations_up_our_heads }
			remove_province_modifier = negotiations_up_our_heads
		}
		any_neighbor_country = {
			limit = { has_country_flag = special_client }
			country_event = 707007
		}
	}
	option = {
		name = "EVTOPTC707005"
		ai_chance = {
			factor = 35 
			days = 1
			modifier = {
				any_owned_province = {
					has_province_modifier = negotiations_up_our_heads
					is_colony = no
					has_owner_culture = yes
					has_owner_religion = yes
					is_core = THIS
				}
				factor = 0
			}
			modifier = {
				any_owned_province = {
					has_province_modifier = negotiations_up_our_heads
					is_colony = no
					has_owner_culture = yes
					has_owner_religion = yes
					NOT = { base_tax = 2 }
				}
				factor = 1.1
			}
			modifier = {
				any_owned_province = {
					has_province_modifier = negotiations_up_our_heads
					is_colony = no
					has_owner_culture = yes
					has_owner_religion = yes
					base_tax = 5
				}
				factor = 0.9
			}
			modifier = {
				any_owned_province = {
					has_province_modifier = negotiations_up_our_heads
					is_colony = no
					has_owner_culture = yes
					has_owner_religion = yes
					base_tax = 6
				}
				factor = 0.6
			}
			modifier = {
				any_owned_province = {
					has_province_modifier = negotiations_up_our_heads
					is_colony = no
					has_owner_culture = yes
					has_owner_religion = yes
					base_tax = 7
				}
				factor = 0.3
			}
			modifier = {
				any_owned_province = {
					has_province_modifier = negotiations_up_our_heads
					is_colony = no
					has_owner_culture = yes
					has_owner_religion = yes
					base_tax = 8
				}
				factor = 0
			}
			modifier = {
				any_owned_province = {
					has_province_modifier = negotiations_up_our_heads
					is_colony = no
					OR = {
						AND = { 
							has_owner_culture = yes
							has_owner_religion = no
						}
						AND = { 
							has_owner_culture = no
							has_owner_religion = yes
						}
					}
					NOT = { base_tax = 3 }
				}
				factor = 1.1
			}
			modifier = {
				any_owned_province = {
					has_province_modifier = negotiations_up_our_heads
					is_colony = no
					OR = {
						AND = { 
							has_owner_culture = yes
							has_owner_religion = no
						}
						AND = { 
							has_owner_culture = no
							has_owner_religion = yes
						}
					}
					base_tax = 6
				}
				factor = 0.9
			}
			modifier = {
				any_owned_province = {
					has_province_modifier = negotiations_up_our_heads
					is_colony = no
					OR = {
						AND = { 
							has_owner_culture = yes
							has_owner_religion = no
						}
						AND = { 
							has_owner_culture = no
							has_owner_religion = yes
						}
					}
					base_tax = 7
				}
				factor = 0.6
			}
			modifier = {
				any_owned_province = {
					has_province_modifier = negotiations_up_our_heads
					is_colony = no
					OR = {
						AND = { 
							has_owner_culture = yes
							has_owner_religion = no
						}
						AND = { 
							has_owner_culture = no
							has_owner_religion = yes
						}
					}
					base_tax = 8
				}
				factor = 0.3
			}
			modifier = {
				any_owned_province = {
					has_province_modifier = negotiations_up_our_heads
					is_colony = no
					OR = {
						AND = { 
							has_owner_culture = yes
							has_owner_religion = no
						}
						AND = { 
							has_owner_culture = no
							has_owner_religion = yes
						}
					}
					base_tax = 9
				}
				factor = 0
			}
			modifier = {
				any_owned_province = {
					has_province_modifier = negotiations_up_our_heads
					is_colony = no
					has_owner_culture = no
					has_owner_religion = no
					NOT = { base_tax = 4 }
				}
				factor = 1.1
			}
			modifier = {
				any_owned_province = {
					has_province_modifier = negotiations_up_our_heads
					is_colony = no
					has_owner_culture = no
					has_owner_religion = no
					base_tax = 7
				}
				factor = 0.9
			}
			modifier = {
				any_owned_province = {
					has_province_modifier = negotiations_up_our_heads
					is_colony = no
					has_owner_culture = no
					has_owner_religion = no
					base_tax = 8
				}
				factor = 0.6
			}
			modifier = {
				any_owned_province = {
					has_province_modifier = negotiations_up_our_heads
					is_colony = no
					has_owner_culture = no
					has_owner_religion = no
					base_tax = 9
				}
				factor = 0.3
			}
			modifier = {
				any_owned_province = {
					has_province_modifier = negotiations_up_our_heads
					is_colony = no
					has_owner_culture = no
					has_owner_religion = no
					base_tax = 10
				}
				factor = 0
			}
			modifier = {
				any_owned_province = {
					has_province_modifier = negotiations_up_our_heads
					is_colony = yes
					NOT = { base_tax = 4 }
				}
				factor = 1.1
			}
			modifier = {
				any_owned_province = {
					has_province_modifier = negotiations_up_our_heads
					is_colony = yes
					base_tax = 7
				}
				factor = 0.9
			}
			modifier = {
				any_owned_province = {
					has_province_modifier = negotiations_up_our_heads
					is_colony = yes
					base_tax = 8
				}
				factor = 0.6
			}
			modifier = {
				any_owned_province = {
					has_province_modifier = negotiations_up_our_heads
					is_colony = yes
					base_tax = 9
				}
				factor = 0.3
			}
			modifier = {
				any_owned_province = {
					has_province_modifier = negotiations_up_our_heads
					is_colony = yes
					base_tax = 10
				}
				factor = 0
			}
			modifier = {
				any_owned_province = {
					has_province_modifier = negotiations_up_our_heads
					is_capital = yes
				}
				factor = 0
			}
			modifier = {
				any_owned_province = {
					has_province_modifier = negotiations_up_our_heads
					cot = yes
				}
				factor = 0
			}
			modifier = {
				any_owned_province = {
					has_province_modifier = negotiations_up_our_heads
					has_building = refinery
				}
				factor = 0.5
			}
			modifier = {
				any_owned_province = {
					has_province_modifier = negotiations_up_our_heads
					has_building = wharf
				}
				factor = 0.5
			}
			modifier = {
				any_owned_province = {
					has_province_modifier = negotiations_up_our_heads
					has_building = weapons
				}
				factor = 0.5
			}
			modifier = {
				any_owned_province = {
					has_province_modifier = negotiations_up_our_heads
					has_building = textile
				}
				factor = 0.5
			}
			modifier = {
				any_owned_province = {
					has_province_modifier = negotiations_up_our_heads
					has_building = fine_arts_academy
				}
				factor = 0.6
			}
			modifier = {
				any_owned_province = {
					has_province_modifier = negotiations_up_our_heads
					has_building = university
				}
				factor = 0.5
			}
			modifier = {
				any_owned_province = {
					has_province_modifier = negotiations_up_our_heads
					has_building = fort4
				}
				factor = 0.9
			}
			modifier = {
				any_owned_province = {
					has_province_modifier = negotiations_up_our_heads
					has_building = fort5
				}
				factor = 0.85
			}
			modifier = {
				any_owned_province = {
					has_province_modifier = negotiations_up_our_heads
					has_building = fort6
				}
				factor = 0.8
			}
			modifier = {
				any_owned_province = {
					has_province_modifier = negotiations_up_our_heads
					is_core = THIS
				}
				factor = 0.8
			}
			modifier = {
				any_neighbor_country = {
					has_country_flag = special_client
					relation = { who = THIS value = 100 }
				}
				factor = 1.1
			}
			modifier = {
				any_neighbor_country = {
					has_country_flag = special_client
					relation = { who = THIS value = 150 }
				}
				factor = 1.1
			}
			modifier = {
				any_neighbor_country = {
					has_country_flag = special_client
					relation = { who = THIS value = 195 }
				}
				factor = 1.1
			}
			modifier = {
				any_neighbor_country = {
					has_country_flag = special_client
					alliance_with = THIS
				}
				factor = 1.1
			}
			modifier = {
				any_neighbor_country = {
					has_country_flag = special_client
					marriage_with = THIS
				}
				factor = 1.05
			}
			modifier = {
				any_neighbor_country = {
					has_country_flag = special_client
					NOT = { num_of_cities = 11 }
				}
				factor = 1.1
			}
			modifier = {
				any_neighbor_country = {
					has_country_flag = special_client
					NOT = { num_of_cities = 6 }
				}
				factor = 1.1
			}
		}
		any_neighbor_country = {
			limit = { has_country_flag = special_client }
			country_event = 707008
		}
	}
}

country_event = {
	id = 707006

	is_triggered_only = yes
	
	
	title = "EVTNAME707006"
	desc = "EVTDESC707006"
	
	option = {
		name = "EVTOPTA707006"
		clr_country_flag = special_client
		
		prestige = -0.02
		any_neighbor_country = {
			limit = { has_country_flag = dei_offer_target }
			relation = { who = THIS value = -50 }
			clr_country_flag = dei_offer_target
		}
	}
}

country_event = {
	id = 707007

	is_triggered_only = yes
	
	
	title = "EVTNAME707007"
	desc = "EVTDESC707007"
	
	option = {
		name = "EVTOPTA707007"
		clr_country_flag = special_client
		
		any_neighbor_country = {
			limit = { has_country_flag = dei_offer_target }
			relation = { who = THIS value = -5 }
			clr_country_flag = dei_offer_target
		}
	}
}

country_event = {
	id = 707008

	is_triggered_only = yes
	
	
	title = "EVTNAME707008"
	desc = "EVTDESC707008"
	
	option = {
		name = "EVTOPTA707008"
		clr_country_flag = special_client
		
		any_owned = {
			any_neighbor_province = {
				limit = { 
					owner = { has_country_flag = dei_offer_target }
					has_province_modifier = negotiations_up_our_heads
					OR = { 
						AND = {
							is_colony = no
							OR = {
								AND = { 
									has_owner_culture = yes
									has_owner_religion = no
								}
								AND = { 
									has_owner_culture = no
									has_owner_religion = yes
								}
							}
							NOT = { base_tax = 2 }							
						}
						AND = {
							is_colony = no
							has_owner_culture = no
							has_owner_religion = no
							NOT = { base_tax = 3 }							
						}
						AND = { 
							is_colony = yes
							NOT = { base_tax = 3 }
						}
					}
				}
				owner = { 
					clr_country_flag = dei_offer_target
					treasury = 150
				}
				remove_province_modifier = negotiations_up_our_heads
				secede_province = THIS
				owner = { treasury = -150 }	
			}
		}
		any_owned = {
			any_neighbor_province = {
				limit = { 
					owner = { has_country_flag = dei_offer_target }
					has_province_modifier = negotiations_up_our_heads
					OR = { 
						AND = {
							is_colony = no
							has_owner_culture = yes
							has_owner_religion = yes
							NOT = { base_tax = 2 }							
						}
						AND = {
							is_colony = no
							OR = {
								AND = { 
									has_owner_culture = yes
									has_owner_religion = no
								}
								AND = { 
									has_owner_culture = no
									has_owner_religion = yes
								}
							}
							base_tax = 2
							NOT = { base_tax = 3 }							
						}
						AND = {
							is_colony = no
							has_owner_culture = no
							has_owner_religion = no
							base_tax = 3
							NOT = { base_tax = 4 }							
						}
						AND = { 
							is_colony = yes
							base_tax = 3
							NOT = { base_tax = 4 }
						}
					}
				}
				owner = { 
					clr_country_flag = dei_offer_target
					treasury = 200
				}
				remove_province_modifier = negotiations_up_our_heads
				secede_province = THIS
				owner = { treasury = -200 }	
			}
		}
		any_owned = {
			any_neighbor_province = {
				limit = { 
					owner = { has_country_flag = dei_offer_target }
					has_province_modifier = negotiations_up_our_heads
					OR = { 
						AND = {
							is_colony = no
							has_owner_culture = yes
							has_owner_religion = yes
							base_tax = 2
							NOT = { base_tax = 3 }							
						}
						AND = {
							is_colony = no
							OR = {
								AND = { 
									has_owner_culture = yes
									has_owner_religion = no
								}
								AND = { 
									has_owner_culture = no
									has_owner_religion = yes
								}
							}
							base_tax = 3
							NOT = { base_tax = 4 }							
						}
						AND = {
							is_colony = no
							has_owner_culture = no
							has_owner_religion = no
							base_tax = 4
							NOT = { base_tax = 5 }							
						}
						AND = { 
							is_colony = yes
							base_tax = 4
							NOT = { base_tax = 5 }
						}
					}
				}
				owner = { 
					clr_country_flag = dei_offer_target
					treasury = 300
				}
				remove_province_modifier = negotiations_up_our_heads
				secede_province = THIS
				owner = { treasury = -300 }	
			}	
		}
		any_owned = {
			any_neighbor_province = {
				limit = { 
					owner = { has_country_flag = dei_offer_target }
					has_province_modifier = negotiations_up_our_heads
					OR = { 
						AND = {
							is_colony = no
							has_owner_culture = yes
							has_owner_religion = yes
							base_tax = 3
							NOT = { base_tax = 4 }							
						}
						AND = {
							is_colony = no
							OR = {
								AND = { 
									has_owner_culture = yes
									has_owner_religion = no
								}
								AND = { 
									has_owner_culture = no
									has_owner_religion = yes
								}
							}
							base_tax = 4
							NOT = { base_tax = 5 }							
						}
						AND = {
							is_colony = no
							has_owner_culture = no
							has_owner_religion = no
							base_tax = 5
							NOT = { base_tax = 6 }							
						}
						AND = { 
							is_colony = yes
							base_tax = 5
							NOT = { base_tax = 6 }
						}
					}
				}
				owner = { 
					clr_country_flag = dei_offer_target
					treasury = 500
				}
				remove_province_modifier = negotiations_up_our_heads
				secede_province = THIS
				owner = { treasury = -500 }	
			}
		}
		any_owned = {
			any_neighbor_province = {
				limit = { 
					owner = { has_country_flag = dei_offer_target }
					has_province_modifier = negotiations_up_our_heads
					OR = { 
						AND = {
							is_colony = no
							has_owner_culture = yes
							has_owner_religion = yes
							base_tax = 4
							NOT = { base_tax = 5 }							
						}
						AND = {
							is_colony = no
							OR = {
								AND = { 
									has_owner_culture = yes
									has_owner_religion = no
								}
								AND = { 
									has_owner_culture = no
									has_owner_religion = yes
								}
							}
							base_tax = 5
							NOT = { base_tax = 6 }							
						}
						AND = {
							is_colony = no
							has_owner_culture = no
							has_owner_religion = no
							base_tax = 6
							NOT = { base_tax = 7 }							
						}
						AND = { 
							is_colony = yes
							base_tax = 6
							NOT = { base_tax = 7 }
						}
					}
				}
				owner = { 
					clr_country_flag = dei_offer_target
					treasury = 750
				}
				remove_province_modifier = negotiations_up_our_heads
				secede_province = THIS
				owner = { treasury = -750 }	
			}
		}
		any_owned = {
			any_neighbor_province = {
				limit = { 
					owner = { has_country_flag = dei_offer_target }
					has_province_modifier = negotiations_up_our_heads
					OR = { 
						AND = {
							is_colony = no
							has_owner_culture = yes
							has_owner_religion = yes
							base_tax = 5
							NOT = { base_tax = 6 }							
						}
						AND = {
							is_colony = no
							OR = {
								AND = { 
									has_owner_culture = yes
									has_owner_religion = no
								}
								AND = { 
									has_owner_culture = no
									has_owner_religion = yes
								}
							}
							base_tax = 6
							NOT = { base_tax = 7 }							
						}
						AND = {
							is_colony = no
							has_owner_culture = no
							has_owner_religion = no
							base_tax = 7
							NOT = { base_tax = 8 }							
						}
						AND = { 
							is_colony = yes
							base_tax = 7
							NOT = { base_tax = 8 }
						}
					}
				}
				owner = { 
					clr_country_flag = dei_offer_target
					treasury = 1000
				}
				remove_province_modifier = negotiations_up_our_heads
				secede_province = THIS
				owner = { treasury = -1000 }
			}
		}
		any_owned = {
			any_neighbor_province = {
				limit = { 
					owner = { has_country_flag = dei_offer_target }
					has_province_modifier = negotiations_up_our_heads
					OR = { 
						AND = {
							is_colony = no
							has_owner_culture = yes
							has_owner_religion = yes
							base_tax = 6
							NOT = { base_tax = 7 }							
						}
						AND = {
							is_colony = no
							OR = {
								AND = { 
									has_owner_culture = yes
									has_owner_religion = no
								}
								AND = { 
									has_owner_culture = no
									has_owner_religion = yes
								}
							}
							base_tax = 7
							NOT = { base_tax = 8 }							
						}
						AND = {
							is_colony = no
							has_owner_culture = no
							has_owner_religion = no
							base_tax = 8
							NOT = { base_tax = 9 }							
						}
						AND = { 
							is_colony = yes
							base_tax = 8
							NOT = { base_tax = 9 }
						}
					}
				}
				owner = { 
					clr_country_flag = dei_offer_target
					treasury = 1300
				}
				remove_province_modifier = negotiations_up_our_heads
				secede_province = THIS
				owner = { treasury = -1300 }
			}
		}
		any_owned = {
			any_neighbor_province = {
				limit = { 
					owner = { has_country_flag = dei_offer_target }
					has_province_modifier = negotiations_up_our_heads
					OR = { 
						AND = {
							is_colony = no
							has_owner_culture = yes
							has_owner_religion = yes
							base_tax = 7						
						}
						AND = {
							is_colony = no
							OR = {
								AND = { 
									has_owner_culture = yes
									has_owner_religion = no
								}
								AND = { 
									has_owner_culture = no
									has_owner_religion = yes
								}
							}
							base_tax = 8						
						}
						AND = {
							is_colony = no
							has_owner_culture = no
							has_owner_religion = no
							base_tax = 9					
						}
						AND = { 
							is_colony = yes
							base_tax = 9
						}
					}
				}
				owner = { 
					clr_country_flag = dei_offer_target
					treasury = 1700
				}
				remove_province_modifier = negotiations_up_our_heads
				secede_province = THIS
				owner = { treasury = -1700 }
			}
		}
		add_country_modifier = {
			name = "we_bought_province"
			duration = 10950
		}
	}
	option = {
		name = "EVTOPTB707008"
		prestige = -0.01
		any_neighbor_country = {
			limit = { has_country_flag = dei_offer_target }
			country_event = 707009
		}					
	}
	option = {
		name = "EVTOPTC707008"
		clr_country_flag = special_client
		
		prestige = -0.04
		any_neighbor_country = {
			limit = { has_country_flag = dei_offer_target }
			relation = { who = THIS value = -40 }
			clr_country_flag = dei_offer_target
			any_owned = {
				limit = { has_province_modifier = negotiations_up_our_heads }
				remove_province_modifier = negotiations_up_our_heads
			}
		}					
	}
}

country_event = {
	id = 707009

	is_triggered_only = yes
	
	
	title = "EVTNAME707009"
	desc = "EVTDESC707009"
	
	option = {
		name = "EVTOPTA707009"
		ai_chance = {
			factor = 60 
			modifier = {
				any_neighbor_country = {
					has_country_flag = special_client
					NOT = { prestige = 0 }
				}
				factor = 1.2
			}
		}
		any_owned = {
			limit = { has_province_modifier = negotiations_up_our_heads }
			remove_province_modifier = negotiations_up_our_heads
		}
		any_neighbor_country = {
			limit = { has_country_flag = special_client }
			country_event = 707007
		}
	}
	option = {
		name = "EVTOPTB707009"
		ai_chance = {
			factor = 40
			days = 1
			modifier = {
				any_neighbor_country = {
					has_country_flag = special_client
					prestige = 0.25
				}
				factor = 1.1
			}
			modifier = {
				any_neighbor_country = {
					has_country_flag = special_client
					prestige = 0.50
				}
				factor = 1.1
			}
			modifier = {
				any_neighbor_country = {
					has_country_flag = special_client
					prestige = 0.75
				}
				factor = 1.1
			}
			modifier = {
				any_neighbor_country = {
					has_country_flag = special_client
					prestige = 1
				}
				factor = 1.1
			}
		}
		any_neighbor_country = {
			limit = { has_country_flag = special_client }
			country_event = 707010
		}
	}
}

country_event = {
	id = 707010

	is_triggered_only = yes
	
	
	title = "EVTNAME707010"
	desc = "EVTDESC707010"
	
	option = {
		name = "EVTOPTA707010"
		clr_country_flag = special_client
		
		any_owned = {
			any_neighbor_province = {
				limit = { 
					owner = { has_country_flag = dei_offer_target }
					has_province_modifier = negotiations_up_our_heads
					OR = { 
						AND = {
							is_colony = no
							OR = {
								AND = { 
									has_owner_culture = yes
									has_owner_religion = no
								}
								AND = { 
									has_owner_culture = no
									has_owner_religion = yes
								}
							}
							NOT = { base_tax = 2 }							
						}
						AND = {
							is_colony = no
							has_owner_culture = no
							has_owner_religion = no
							NOT = { base_tax = 3 }							
						}
						AND = { 
							is_colony = yes
							NOT = { base_tax = 3 }
						}
					}
				}
				owner = { 
					clr_country_flag = dei_offer_target
					treasury = 120
				}
				remove_province_modifier = negotiations_up_our_heads
				secede_province = THIS
				owner = { treasury = -120 }	
			}
		}
		any_owned = {
			any_neighbor_province = {
				limit = { 
					owner = { has_country_flag = dei_offer_target }
					has_province_modifier = negotiations_up_our_heads
					OR = { 
						AND = {
							is_colony = no
							has_owner_culture = yes
							has_owner_religion = yes
							NOT = { base_tax = 2 }							
						}
						AND = {
							is_colony = no
							OR = {
								AND = { 
									has_owner_culture = yes
									has_owner_religion = no
								}
								AND = { 
									has_owner_culture = no
									has_owner_religion = yes
								}
							}
							base_tax = 2
							NOT = { base_tax = 3 }							
						}
						AND = {
							is_colony = no
							has_owner_culture = no
							has_owner_religion = no
							base_tax = 3
							NOT = { base_tax = 4 }							
						}
						AND = { 
							is_colony = yes
							base_tax = 3
							NOT = { base_tax = 4 }
						}
					}
				}
				owner = { 
					clr_country_flag = dei_offer_target
					treasury = 160
				}
				remove_province_modifier = negotiations_up_our_heads
				secede_province = THIS
				owner = { treasury = -160 }	
			}
		}
		any_owned = {
			any_neighbor_province = {
				limit = { 
					owner = { has_country_flag = dei_offer_target }
					has_province_modifier = negotiations_up_our_heads
					OR = { 
						AND = {
							is_colony = no
							has_owner_culture = yes
							has_owner_religion = yes
							base_tax = 2
							NOT = { base_tax = 3 }							
						}
						AND = {
							is_colony = no
							OR = {
								AND = { 
									has_owner_culture = yes
									has_owner_religion = no
								}
								AND = { 
									has_owner_culture = no
									has_owner_religion = yes
								}
							}
							base_tax = 3
							NOT = { base_tax = 4 }							
						}
						AND = {
							is_colony = no
							has_owner_culture = no
							has_owner_religion = no
							base_tax = 4
							NOT = { base_tax = 5 }							
						}
						AND = { 
							is_colony = yes
							base_tax = 4
							NOT = { base_tax = 5 }
						}
					}
				}
				owner = { 
					clr_country_flag = dei_offer_target
					treasury = 240
				}
				remove_province_modifier = negotiations_up_our_heads
				secede_province = THIS
				owner = { treasury = -240 }	
			}
		}
		any_owned = {
			any_neighbor_province = {
				limit = { 
					owner = { has_country_flag = dei_offer_target }
					has_province_modifier = negotiations_up_our_heads
					OR = { 
						AND = {
							is_colony = no
							has_owner_culture = yes
							has_owner_religion = yes
							base_tax = 3
							NOT = { base_tax = 4 }							
						}
						AND = {
							is_colony = no
							OR = {
								AND = { 
									has_owner_culture = yes
									has_owner_religion = no
								}
								AND = { 
									has_owner_culture = no
									has_owner_religion = yes
								}
							}
							base_tax = 4
							NOT = { base_tax = 5 }							
						}
						AND = {
							is_colony = no
							has_owner_culture = no
							has_owner_religion = no
							base_tax = 5
							NOT = { base_tax = 6 }							
						}
						AND = { 
							is_colony = yes
							base_tax = 5
							NOT = { base_tax = 6 }
						}
					}
				}
				owner = { 
					clr_country_flag = dei_offer_target
					treasury = 400
				}
				remove_province_modifier = negotiations_up_our_heads
				secede_province = THIS
				owner = { treasury = -400 }	
			}
		}
		any_owned = {
			any_neighbor_province = {
				limit = { 
					owner = { has_country_flag = dei_offer_target }
					has_province_modifier = negotiations_up_our_heads
					OR = { 
						AND = {
							is_colony = no
							has_owner_culture = yes
							has_owner_religion = yes
							base_tax = 4
							NOT = { base_tax = 5 }							
						}
						AND = {
							is_colony = no
							OR = {
								AND = { 
									has_owner_culture = yes
									has_owner_religion = no
								}
								AND = { 
									has_owner_culture = no
									has_owner_religion = yes
								}
							}
							base_tax = 5
							NOT = { base_tax = 6 }							
						}
						AND = {
							is_colony = no
							has_owner_culture = no
							has_owner_religion = no
							base_tax = 6
							NOT = { base_tax = 7 }							
						}
						AND = { 
							is_colony = yes
							base_tax = 6
							NOT = { base_tax = 7 }
						}
					}
				}
				owner = { 
					clr_country_flag = dei_offer_target
					treasury = 600
				}
				remove_province_modifier = negotiations_up_our_heads
				secede_province = THIS
				owner = { treasury = -600 }	
			}
		}
		any_owned = {
			any_neighbor_province = {
				limit = { 
					owner = { has_country_flag = dei_offer_target }
					has_province_modifier = negotiations_up_our_heads
					OR = { 
						AND = {
							is_colony = no
							has_owner_culture = yes
							has_owner_religion = yes
							base_tax = 5
							NOT = { base_tax = 6 }							
						}
						AND = {
							is_colony = no
							OR = {
								AND = { 
									has_owner_culture = yes
									has_owner_religion = no
								}
								AND = { 
									has_owner_culture = no
									has_owner_religion = yes
								}
							}
							base_tax = 6
							NOT = { base_tax = 7 }							
						}
						AND = {
							is_colony = no
							has_owner_culture = no
							has_owner_religion = no
							base_tax = 7
							NOT = { base_tax = 8 }							
						}
						AND = { 
							is_colony = yes
							base_tax = 7
							NOT = { base_tax = 8 }
						}
					}
				}
				owner = { 
					clr_country_flag = dei_offer_target
					treasury = 800
				}
				remove_province_modifier = negotiations_up_our_heads
				secede_province = THIS
				owner = { treasury = -800 }	
			}
		}
		any_owned = {
			any_neighbor_province = {
				limit = { 
					owner = { has_country_flag = dei_offer_target }
					has_province_modifier = negotiations_up_our_heads
					OR = { 
						AND = {
							is_colony = no
							has_owner_culture = yes
							has_owner_religion = yes
							base_tax = 6
							NOT = { base_tax = 7 }							
						}
						AND = {
							is_colony = no
							OR = {
								AND = { 
									has_owner_culture = yes
									has_owner_religion = no
								}
								AND = { 
									has_owner_culture = no
									has_owner_religion = yes
								}
							}
							base_tax = 7
							NOT = { base_tax = 8 }							
						}
						AND = {
							is_colony = no
							has_owner_culture = no
							has_owner_religion = no
							base_tax = 8
							NOT = { base_tax = 9 }							
						}
						AND = { 
							is_colony = yes
							base_tax = 8
							NOT = { base_tax = 9 }
						}
					}
				}
				owner = { 
					clr_country_flag = dei_offer_target
					treasury = 1040
				}
				remove_province_modifier = negotiations_up_our_heads
				secede_province = THIS
				owner = { treasury = -1040 }
			}
		}
		any_owned = {
			any_neighbor_province = {
				limit = { 
					owner = { has_country_flag = dei_offer_target }
					has_province_modifier = negotiations_up_our_heads
					OR = { 
						AND = {
							is_colony = no
							has_owner_culture = yes
							has_owner_religion = yes
							base_tax = 7						
						}
						AND = {
							is_colony = no
							OR = {
								AND = { 
									has_owner_culture = yes
									has_owner_religion = no
								}
								AND = { 
									has_owner_culture = no
									has_owner_religion = yes
								}
							}
							base_tax = 8						
						}
						AND = {
							is_colony = no
							has_owner_culture = no
							has_owner_religion = no
							base_tax = 9					
						}
						AND = { 
							is_colony = yes
							base_tax = 9
						}
					}
				}
				owner = { 
					clr_country_flag = dei_offer_target
					treasury = 1360
				}
				remove_province_modifier = negotiations_up_our_heads
				secede_province = THIS
				owner = { treasury = -1360 }
			}
		}
		add_country_modifier = {
			name = "we_bought_province"
			duration = 10950
		}
	}
	option = {
		name = "EVTOPTB707010"
		clr_country_flag = special_client
		
		prestige = -0.05
		any_neighbor_country = {
			limit = { has_country_flag = dei_offer_target }
			relation = { who = THIS value = -45 }
			clr_country_flag = dei_offer_target
			any_owned = {
				limit = { has_province_modifier = negotiations_up_our_heads }
				remove_province_modifier = negotiations_up_our_heads
			}
		}					
	}
}