#105 - Parma

owner = MLO
controller = MLO
add_core = PAR 
culture = emilian 
religion = catholic 
hre = yes 
base_tax = 5        
trade_goods = wine
manpower = 1        
fort1 = yes 
capital = "Parma" 
citysize = 40000	# Estimated 
temple = yes 		# Completed bef. 12th century
university = yes	# Founded 1065
add_core = MLO
discovered_by = western
discovered_by = eastern discovered_by = GOL discovered_by = QAS discovered_by = CRI discovered_by = AST discovered_by = KAZ
discovered_by = muslim discovered_by = ottoman discovered_by = KZH discovered_by = ORZ discovered_by = KZI discovered_by = SHY discovered_by = KHI discovered_by = KOK discovered_by = TIM discovered_by = TYU discovered_by = SIB discovered_by = NOG discovered_by = ULZ discovered_by = KLM discovered_by = BUQ 

1450.1.1   = { citysize = 40000 }
1499.8.10 = { controller = FRA } # Louis XII of France invades...
1500.1.1  = { citysize = 43000 }
1504.1.31 = { owner = FRA add_core = FRA  } # ...and seizes Milan (and Parma)
1512.1.1  = { owner = PAP controller = PAP add_core = PAP } # Papal control
1515.1.1  = { controller = FRA } # French occupation
1516.12.1 = { owner = FRA } # Treaty of Brussels
1521.1.1  = { owner = PAP controller = PAP remove_core = FRA }
1545.1.1  = { owner = PAR controller = PAR add_core = PAR } # Duchy created for the son of Pope Paul III.
1550.1.1  = { citysize = 52000 }
1600.1.1  = { citysize = 66000 }
1648.5.15 = { hre = no } #Peace of Westphalia
1650.1.1  = { citysize = 36000 marketplace = yes } 
1700.1.1  = { citysize = 59000 } 
1735.1.1  = {	owner = HAB
		controller = HAB
		add_core = HAB
	    }
1748.1.1  = {	owner = PAR
		controller = PAR
		remove_core = HAB
	    }
1750.1.1  = { citysize = 66000 } 
1800.1.1  = { citysize = 62000 }
1801.3.21  = {	owner = RFR
		controller = RFR
		add_core = RFR
	     } # Treaty of Aranjuez, ceded to France
1814.4.11  = {	owner = PAR
		controller = PAR
		remove_core = RFR
	     } # Treaty of Fontainebleau, Napoleon abdicates unconditionally

