#1375 - Deli

owner = ATJ
controller = ATJ
add_core = ATJ
culture = malayan
religion = buddhism
capital = "Batak"
trade_goods = gold
hre = no
base_tax = 1
manpower = 1
citysize = 1000
add_core = ARU
discovered_by = chinese discovered_by = TRF discovered_by = AQS discovered_by = CHG discovered_by = MCH discovered_by = YUA discovered_by = QNG discovered_by = BRY discovered_by = KHA discovered_by = KSG discovered_by = TUV discovered_by = JZJ discovered_by = YNJ discovered_by = HXJ discovered_by = KLM
discovered_by = indian
discovered_by = muslim discovered_by = ottoman discovered_by = KZH discovered_by = ORZ discovered_by = KZI discovered_by = SHY discovered_by = KHI discovered_by = KOK discovered_by = TIM discovered_by = TYU discovered_by = SIB discovered_by = NOG discovered_by = ULZ discovered_by = KLM discovered_by = BUQ 

1500.1.1  = { citysize = 1900 religion = sunni }
1509.1.1  = { discovered_by = POR }
1550.1.1  = { citysize = 2544 }
1600.1.1  = { citysize = 2997 }
1630.1.1  = { owner = ARU controller = ARU }
1650.1.1  = { citysize = 3524 }
1683.1.1  = { add_core = NED }
1700.1.1  = { citysize = 4155 }
1750.1.1  = { citysize = 4866 }
1800.1.1  = { citysize = 5600 }
1814.3.18 = { owner = ARU controller = ARU }