1505.1.1 = { discovered_by = POR }
1675.9.1 = { discovered_by = MER }
1685.1.1 = { discovered_by = MEN discovered_by = ANT }
1690.1.1 = { discovered_by = BOI }
1691.2.11 = {  }
1712.9.1 = { discovered_by = TAM }
1817.10.23 = { discovered_by = MDG }
