#2285 - Annaba

owner = ALG
controller = ALG 
culture = berber
religion = sunni
capital = "Annaba"
trade_goods = grain
hre = no
base_tax = 1
manpower = 1
citysize = 17000
fort1 = yes
add_core = ALG
discovered_by = western
discovered_by = eastern
discovered_by = muslim
discovered_by = ottoman

1356.1.1 = { controller = MOR }
1359.1.1 = { owner = TUN controller = TUN }
1450.1.1 = { citysize = 19600 }
1500.1.1 = { citysize = 20110 }
1550.1.1 = { citysize = 22648 }
1567.1.1 = { owner = QUS controller = QUS }
1600.1.1 = { citysize = 24657 }
1650.1.1 = { citysize = 26341 marketplace = yes }
1700.1.1 = { citysize = 28514 }
1750.1.1 = { citysize = 30177 tax_assessor = yes }
1800.1.1 = { citysize = 33210 }
