#241 - Glamorgan

owner = ENG
controller = ENG
culture = welsh
religion = catholic
hre = no
base_tax = 4
trade_goods = iron
manpower = 1
capital = "Carmarthen"
citysize = 1200
add_core = ENG
add_core = WLS
fort1 = yes
discovered_by = western
discovered_by = muslim discovered_by = ottoman discovered_by = KZH discovered_by = ORZ discovered_by = KZI discovered_by = SHY discovered_by = KHI discovered_by = KOK discovered_by = TIM discovered_by = TYU discovered_by = SIB discovered_by = NOG discovered_by = ULZ discovered_by = KLM discovered_by = BUQ 
discovered_by = eastern discovered_by = GOL discovered_by = QAS discovered_by = CRI discovered_by = AST discovered_by = KAZ

1400.9.16 = { revolt = { type = nationalist_rebels size = 2 } controller = REB } # The Welsh Revolt
1415.1.1  = { revolt = {} controller = ENG } # English rule is restored
1450.1.1  = { citysize = 1500 }
1453.1.1  = { revolt_risk = 5 } #Start of the War of the Roses
1461.6.1  = { revolt_risk = 2 } #Coronation of Edward IV
1467.1.1  = { revolt_risk = 5 } #Rivalry between Edward IV & Warwick
1471.1.1  = { revolt_risk = 8 } #Unpopularity of Warwick & War with Burgundy
1471.3.1  = { revolt_risk = 0 revolt = { type = revolutionary_rebels size = 2 } controller = REB }
1471.5.4  = { revolt = {} revolt_risk = 2 controller = ENG } # Murder of Henry VI & Restoration of Edward IV
1483.6.26 = { revolt_risk = 8 } #Revulsion at Supposed Murder of the Princes in the Tower
1485.8.23 = { revolt_risk = 0 } #Battle of Bosworth Field & the End of the War of the Roses
1500.1.1  = { citysize = 1750 }
1550.1.1  = { citysize = 2200 }
1600.1.1  = { marketplace = yes fort2 = yes } #Estimated
1625.1.1  = { courthouse = yes } #Estimated
1645.10.1 = { revolt = { type = revolutionary_rebels size = 1 } controller = REB } # Estimated
1646.5.5  = { revolt = {} controller = ENG } # End of First English Civil War
1648.3.15 = { revolt = { type = revolutionary_rebels size = 2 } controller = REB } # Start of Second English Civil War
1648.7.11 = { revolt = {} controller = ENG }
1650.1.1  = { citysize = 3000 }
1700.1.1  = { citysize = 4000 constable = yes } #Constable Estimated
1707.5.12 = {	owner = GBR
		controller = GBR
		add_core = GBR
	    	remove_core = ENG
	    }
1800.1.1  = { citysize = 6000 }