#518 - Udaipur

owner = UDA
controller = UDA
culture = rajput
religion = jainism
capital = "Chitor"
trade_goods = grain
hre = no
base_tax = 4
manpower = 1
citysize = 7000
add_core = UDA
fort1 = yes
discovered_by = indian
discovered_by = muslim discovered_by = ottoman discovered_by = KZH discovered_by = ORZ discovered_by = KZI discovered_by = SHY discovered_by = KHI discovered_by = KOK discovered_by = TIM discovered_by = TYU discovered_by = SIB discovered_by = NOG discovered_by = ULZ discovered_by = KLM discovered_by = BUQ 
discovered_by = MUG

1500.1.1 = { citysize = 8240 }
1550.1.1 = { citysize = 9430 }
1567.1.1 = { capital = "Udaipur" }
1600.1.1 = { citysize = 10655 }
1650.1.1 = { citysize =  11100 }
1700.1.1 = { citysize = 12870 }
1750.1.1 = { citysize = 14847 }
1800.1.1 = { citysize = 16200 }