#782 - Tierra del Fuego

culture = ona
religion = shamanism
capital = "Tierra del Fuego"
trade_goods = unknown
hre = no
base_tax = 1
manpower = 1
native_size = 5
native_ferocity = 2
native_hostileness = 9

1520.1.1  = { discovered_by = SPA } # Ferdinand Magellan
1577.1.1  = { discovered_by = ENG } # Drake
1786.1.1  = { discovered_by = FRA } # Jean Francois la Perouse