#828 - Cartagena

culture = chibchan
religion = animism
capital = "Cartagena"
trade_goods = unknown
hre = no
base_tax = 5
manpower = 1
native_size = 15
native_ferocity = 1
native_hostileness = 2



1498.1.1   = { discovered_by = CAS } # Christopher Columbus
1516.1.23  = { discovered_by = SPA }
1533.1.1   = {	owner = SPA
		controller = SPA
		citysize = 280
		culture = castillian
	    	religion = catholic
		trade_goods = coffee
	     } # Pedro de Heredia
1540.1.1   = { citysize = 1678 }
1546.1.1   = { fort1 = yes } # Castle of San Felipe de Barajas
1550.1.1   = { marketplace = yes }
1558.1.1   = { add_core = SPA }
1600.1.1   = { citysize = 3080 }
1650.1.1   = { citysize = 5769 }
1700.1.1   = { citysize = 7570 }
1750.1.1   = { citysize = 14980 add_core = COL }
1800.1.1   = { citysize = 24000 }
1810.7.20  = {	owner = COL
		controller = COL
	     } # Colombia declares independence
1819.8.7   = { remove_core = SPA } # Colombia's independence is recongnized