#835 - Panama 

culture = choco
religion = animism
capital = "Panama"
trade_goods = unknown
hre = no
base_tax = 1
manpower = 1
native_size = 20
native_ferocity = 2
native_hostileness = 6

1503.1.9   = { discovered_by = CAS } # Christopher Columbus's last voyage
1509.1.1   = {	owner = CAS
		controller = CAS
	     	religion = catholic
	     	culture = castillian
		citysize = 560
		trade_goods = naval_supplies
	     } # Alonso de Ojeda established a settlement at Darien 
1514.1.1   = {	citysize = 2600
	     } # about 1500 Spanish settlers arrives
1516.1.23  = {	discovered_by = SPA
		owner = SPA
		controller = SPA
	     }
1530.1.1   = { marketplace = yes } # Panama became a marketplace for goods, contraband & slaves 
1534.1.1   = { add_core = SPA }
1550.1.1   = { citysize = 4540 }  
1600.1.1   = { citysize = 8705 fort1 = yes } # Fortified to prevent raids 
1650.1.1   = { citysize = 9870 } 
1671.1.1   = { revolt_risk = 7 } # Henry Morgan, believing England to still be at war with Spain took the city of Panama 
1671.6.6   = { revolt_risk = 0 } # Morgan is arrested and Panama returned to Spain 
1700.1.1   = { citysize = 12200 } 
1739.11.22 = { controller = GBR } # Portobelo & Chagres are seized by the English 
1742.1.1   = { controller = SPA } # Treaty of Aix-la-Chapelle, returned to Spain 
1750.1.1   = { add_core = COL }
1800.1.1   = { citysize = 15400 }
1810.7.20  = {	owner = COL
		controller = COL
	     } # Colombia declares independence
1819.8.7   = { remove_core = SPA } # Colombia's independence is recongnized