#874 - Salish

culture = plateau_penutian
religion = animism
capital = "Salish"
trade_goods = unknown
hre = no
base_tax = 4
manpower = 1
native_size = 10
native_ferocity = 1
native_hostileness = 6 

1543.1.1 = { discovered_by = SPA } # Sighted by Spanish explorers
1741.1.1 = { discovered_by = RUS } # Vitus Bering & Aleksei Chirikov
1788.1.1 = {	owner = GBR
		controller = GBR
		culture = english
		religion = episcopalism
		citysize = 400
		trade_goods = fur
	   } # First English settlers, John Meares
1789.1.1 = {	owner = SPA
		controller = SPA
	   } # A Spanish expedition took control of Meares's territory
1790.1.1 = {	owner = GBR
		controller = GBR
	   } # The Nootka convention settled the dispute
1800.1.1 = { citysize = 1644 }
1805.12.22 = { add_core = USA capital = "Fort Clatsop" discovered_by = USA }#Lewis and Clark
1815.1.1 = { add_core = GBR }