#908 - Minnesota

culture = dakota
religion = shamanism
capital = "Dakota"
trade_goods = unknown
hre = no
base_tax = 2
manpower = 1
native_size = 25
native_ferocity = 2
native_hostileness = 9
discovered_by = IOW
discovered_by = FOX
discovered_by = NAK
discovered_by = DAK
discovered_by = LAK

1684.1.1  = { discovered_by = FRA } # Nicolas Perrot
1727.1.1  = {	owner = FRA
		controller = FRA
		citysize = 500
		religion = catholic
		culture = cosmopolitan_french
		trade_goods = grain
	    } # Construction of Fort Beauharnois
1752.1.1  = { add_core = FRA }
1763.2.10 = {	owner = GBR
		controller = GBR
		remove_core = FRA
	    	culture = english
		religion = protestant
	    }
1783.9.3  = {	owner = USA
		controller = USA
		add_core = USA
	    }
1800.1.1  = { citysize = 1580 }