#945 - Michigan

culture = ojibwe
religion = shamanism
capital = "Michigan"
trade_goods = unknown
hre = no
base_tax = 3
manpower = 1
native_size = 5
native_ferocity = 0.5
native_hostileness = 4

1634.1.1  = { discovered_by = FRA } # Jean Nicolet
1691.1.1  = {	owner = FRA
		controller = FRA
		citysize = 400
		culture = cosmopolitan_french
		religion = catholic
		trade_goods = fur
	    } # Construction of Fort St. Joseph
1716.1.1  = { add_core = FRA }
1750.1.1  = { citysize = 1055 }
1763.2.10 = {	owner = GBR
		controller = GBR
		culture = english
		remove_core = FRA
	    } # Treaty of Paris, ceded to the British
1774.1.1  = { add_core = QUE } # United with Canada under the Quebec Act of 1774
1783.9.3  = {	owner = USA
		add_core = USA
		remove_core = QUE
	    } # Treaty of Paris, passed to the United States but still under British control
1800.1.1  = { citysize = 2200 }