#969 - Pocumtuk

culture = iroquis
religion = shamanism
capital = "Pocumtuk"
trade_goods = unknown
hre = no
base_tax = 2
manpower = 3
native_size = 5
native_ferocity = 0.5
native_hostileness = 4
discovered_by = IRO

1609.1.1  = { discovered_by = FRA } # Samuel de Champlain
1666.1.1  = {	owner = FRA
		controller = FRA
		citysize = 400
		culture = cosmopolitan_french
		religion = catholic
		trade_goods = naval_supplies
	    } # Construction of Fort Sainte Anne
1680.1.1  = { citysize = 120 } # The settlement is more or less abandoned 
1691.1.1  = { add_core = FRA }   
1724.1.1  = {	owner = GBR
		controller = GBR
		fort1 = yes
		citysize = 1030
		culture = english
	    } # Fort Dummer, British settlement
1749.1.1  = { add_core = GBR }
1750.1.1  = { citysize = 6000 }
1763.2.10 = { remove_core = FRA } # Treaty of Paris, France gave up its claim
1764.7.1  = {	culture = american
		revolt_risk = 6
		capital = "Windsor"
	    } # Growing unrest
1765.1.1  = { revolt_risk = 7 } # Controversy regarding New York's territorial claim to Vermont
1777.1.15 = {	revolt = { type = nationalist_rebels size = 0 } controller = REB }# Declared independent
1791.3.4  = {	revolt = { }
		owner = USA
		controller = USA
		add_core = USA
		remove_core = USA
	    } # Entered the union
1790.1.1  = { revolt_risk = 3 } # The dispute with New York is settled
1799.1.1  = { base_tax = 2 } # Federal tax on property
1800.1.1  = { citysize = 85450 }
