#970 - Pennacook

culture = massachusett
religion = shamanism
capital = "Pennacook"
trade_goods = unknown
hre = no
base_tax = 3
manpower = 1
native_size = 15
native_ferocity = 3
native_hostileness = 8
discovered_by = ABN

1605.1.1   = { discovered_by = ENG } # George Waymouth
1606.1.1   = { discovered_by = FRA } # Samuel de Champlain
1623.1.1   = {	owner = ENG
		controller = ENG
		capital = "Casco"
		citysize = 445
		culture = english
	     	religion = protestant
		trade_goods = naval_supplies
	     } # Settled by the British
1632.1.1   = {	citysize = 1125
		fort1 = yes
	     } # Fort William & Mary
1648.1.1   = { add_core = ENG }
1650.1.1   = { citysize = 2990 }
1653.1.1   = { capital = "Portsmouth" }
1700.1.1   = { citysize = 3580 }
1707.5.12  = {	owner = GBR
		controller = GBR
		add_core = GBR
		remove_core = ENG
	     } 
1750.1.1   = { citysize = 4280 add_core = USA }
1764.7.1   = {	culture = american
		revolt_risk = 6
	     } # Growing unrest
1774.12.14 = { revolt_risk = 7 } # Local mob led by John Langdon stormed the fort
1776.7.4   = {	owner = USA
		controller = USA
	     } # Declaration of independence
1780.1.1   = { tax_assessor = yes }
1782.11.1  = {	remove_core = GBR 
		revolt_risk = 0
	     } # Preliminary articles of peace, the British recognized Amercian independence
1800.1.1   = { citysize = 6400 }
