#974 - Kwakiutl

culture = northern_wakashan
religion = shamanism
capital = "Kwakiutl"
trade_goods = unknown 
hre = no
base_tax = 2
manpower = 1
native_size = 10
native_ferocity = 1
native_hostileness = 7

1741.1.1 = { discovered_by = RUS } # Vitus Bering
1778.1.1 = { discovered_by = GBR } # James Cook
1784.1.1 = {	owner = RUS
		controller = RUS
		citysize = 580
		culture = russian
		religion = orthodox
		trade_goods = fish 
	   }
1786.1.1 = { discovered_by = FRA } # Jean Francois la Perouse
1791.1.1 = { discovered_by = SPA } # Alessandro Malaspina
1809.1.1 = { add_core = RUS }
