#979 - Aleut

culture = aleutian
religion = shamanism
capital = "Aleut"
trade_goods = unknown
hre = no
base_tax = 1
manpower = 1
native_size = 5
native_ferocity = 1 
native_hostileness = 6 

1741.1.1 = { discovered_by = RUS } # Vitus Bering
1778.1.1 = { discovered_by = GBR } # James Cook
1784.1.1 = {	owner = RUS
		controller = RUS
		culture = russian
		religion = orthodox
		citysize = 840
		trade_goods = fur
	   }
