#984 - Acadia

owner = MIC
controller = MIC
add_core = MIC
culture = miqmaq
religion = shamanism
capital = "Acadia"
trade_goods = fish
hre = no
base_tax = 3
manpower = 1
citysize = 1500
discovered_by = MIC

1534.1.1  = { discovered_by = FRA }# Jacques Cartier
1605.1.1  = {	owner = FRA
		controller = FRA
		citysize = 366
		culture = cosmopolitan_french
		religion = catholic
	    } # Port Royal
1608.1.1  = { citysize = 840 }
1613.1.1  = {	owner = ENG
		controller = ENG
		culture = english
		religion = episcopalism
	    } # Taken by the troops of Samuel Argall
1632.3.29 = {	owner = FRA
		controller = FRA
		culture = cosmopolitan_french
		religion = catholic
	    } # Treaty of St. Germain-en-Layne, handed back to the French
1650.1.1  = { citysize = 2397 }
1657.1.1  = { add_core = FRA }
1692.1.1  = { controller = ENG } # King William's war
1697.9.20 = { controller = FRA } # Treaty of Ryswick
1700.1.1  = { citysize = 2870 }
1707.5.12 = { discovered_by = GBR } 
1710.10.1 = { controller = GBR } # Queen Anne's war
1713.4.11 = {	owner = GBR
		remove_core = FRA
		culture = english
		religion = episcopalism
	    } # Treaty of Utrecht
1738.4.11 = { add_core = GBR }
1749.1.1  = { capital = "Halifax" fort1 = yes } # Chebucto Bay
1750.1.1  = { citysize = 3970 }
1800.1.1  = { citysize = 3569 }
