#
# TODO, done the following
# 1-39
# 1164-1175

tropical = {
	1943 1164 1165 1166 1167 1168 1169 1170 1171 1172 1173 1174 1175 1397 #SouthWest Africa
	343 344 346 347 348 349 350 351 352 394 1110 1111 1112 1113 1114 1115 1116 1117 1118 1119 1120 1121 1122 1123 1124 1125 1126 1127 1128 1129 1130 1131 1132 1133 
	1134 1135 1136 1137 1138 1139 1140 1141 1142 1143 1144 1145 1146 1147 1148 1149 1150 1151 1152 1153 1154 1155 1156 1157 1158 1159 1160 1161 1162 1163 1249 1344#North and West Africa 
	359 360 1182 1183 1184 1185 1186 1187 1188 1189 1190 1191 1192 1193 1194 1195 1196 1197 1198 1199 1200 1201 1202 1203 1204 1205 1206 1207 1208 1209 1210 1211 1212
	1213 1214 1215 1216 1217 1218 1219 1220 1221 1222 1223 1224 1225 1226 1227 1228 1229 1230 1231 1232 1233 1234 1271 1272 1273 1274 1275 1276 1277 1278 1279 1280 1281 
	1282 1283 1284 1285 1286 1287 1288 1289 1290 1291 1292 1293 1294 1295 1296 1297 1298 1299 1300 1301 1302 1303 1304 1305 1306 1307 1308 1309 1310 1311 1313 #West Africa 
	505 512 513 514 515 516 517 518 519 520 522 524 525 526 527 528 529 530 531 532 533 534 535 536 537 538 539 540 541 542 543 544 545 546 547 548 549 550 551 552 553 5
	56 559 560 561 564 563 568 569 574 1952 1953 1954 1955 1956 1957 1958 1960 1961 1962 1963 1964 1965 1966 1967 1968 1969 1970 1971 1972 1973 1974 1975 1979 1980 1981 1983 1984 1985 1986 1987 1988 1991 1992#India 
	389 390 391 392 393 402 403 404 1333 1337 1338 1339 #interior of Arabia 
	617 618 619 620 621 622 623 624 625 626 627 628 629 630 631 632 633 634 635 636 637 638 639 640 641 642 643 644 645 646 647 648 649 650 659 1375 1376 1377 1378 1379
	1380 1381 1382 1383 1384 1385 1386 1387 1388 1389 1390 1391 1392 1394 1395 1396 1399 1400 1401 1402 1403 1404 1405 1406 1407 1408 1409 1410 1411 1412#Indoniesia  
	2016 2017 2018 2025 #north Australia
	1235 1236 1237 1238 1239 1240 1241 1242 1243 1244 1245 #Pacific Islands
	744 745 746 747 748 838 2112 2113 2116 2118 2119 2120 2121 2122 2123 2124 2127 2129 2130 2131 2139 #unhealthy bits of America    
	567 570 579 580 581 583 584 585 586 587 588 589 590 591 592 593 594 595 596 597 598 599 600 601 602 603 604 605 606 607 608 609 610 611 612 613 614 615 616 666 1993 1994 1995 1996 1997 1998 1999#South East Asia
}

#example: most of europe north of med.
mild_winter = { 
  	6 12 13 14 15 26 #Scandinavia
	44 54 55 1254 #German North Sea Coast
	87 88 89 90 91	92 93 94 95 96 97 98 99 100 1915 1916 1917 1918#The Low Countries	
 	167 168 169 170 171 172 173 174 175 176 177 178 179 180 181 182 183 184 185 186 187 188 189 190 191 192 193 194 195 196 198 199 203 204 1257 1258 1268 1270# North and West of France  
	206 207 208 209 214 215 216 217 219 1928 1919 1920 2194 2196#North Coast of Spain 
	103 104 107 108 109 111 # Northern Italy 
	233 234 235 236 237 238 239 240 241 242 243 244 245 #England
	129 131 136 138 139 143 144 149 150 152 1935 1936 2251 #Border with the Med
	159 282 284 285 286 287 148 1263 #Black sea coast
	316 322 323 326 331 332 1367# Central Anatolia
	372 373 374 375 376 1262 2203 2202 #Ireland	
	413 414 415 416 417 418 419 420 421 424 425 426 428 432 433 435 436 446 447 577 #Central Iran 
	427 437 438 439 440 441 442 443 454 455 457 459 456 461 712 714 #Border of Stepp  
	660 661 663 664 673 672 671 681 682 688 691 692 693 694 695 696 697 703 704 723 726 #Central and northenr China 
	701 702 713 715 717 718 719 720 721 722 725 730 731 732 733 734 735 736 1024 1025 1026 1029 1345 1346 1931 2001 2002 2004 2005 2009 2010
	506 507 510 511 521 523 555 558 562 566 571 582 1342 1946 1947 #Hilly bits of Northern India 
	871 872 972 #Wintery bits of the west coast 
	863 875 877 882 885 891 892 896 899 900 916 917 918 934 935 936 937 939 940 942 948 941 950 953 1264 1316 1368 1372 1373
    2154 2157 2158 2159 2170 2171 2177 2179 2182 2183 2185 2186 2187 2189 2190 2191 2247 2248 2255 2256 2257 2259 2260 2261 2264 2266 2267
}

#example: inland europe & scandinavia
normal_winter = { 
	1 2 3 4 5 7 16 17 23 24 25 27 28 34 35 36 37 38 39 #Scandinavia
	40 41 42 43 45 46 47 48 #The Baltic Coast
	49 50 51 52 53 56 57 58 59 60 61 62 63 64 65 66 67 68 69 70 71 72 74 75 76 77 78 79 80 81 82 83 84 85 86 1256 1312 1929 1932 1933 1934 1938 1939 1940 1944 1945 1927#Inland Germany
	128 132 133 134 135 140 141 153 154 155 156 157 158 160 161 162 212 #Austria and the Balkans
	246 247 248 249 250 251 252 253 #Scotland 
	254 255 256 257 258 259 260 261 262 263 264 265 266 267 268 269 270 271 272 273 274 275 276 277 278 279 280 281 283 288 289 290 291 292 # Poland and Lithunania 
	329 331 419 2186 2190
	462 464 465 466 467 468 469 470 471 472 474 475 476 477 478 479 480#The not quite so cold parts of the Stepp
	444 445 450 453 #mountians in Afghanistan
	662 674 675 679 680 689 698 699 700 707 708 709 #mountians in China 
	716 724 727 728 729 1031 1032 1033 1050 1056 1057 1058 1060 1063 1065 1066 1250 1251 1252 1253 1255 1267 1269 1330 1372 1373 1926
	873 874 973 #Cold bits of the west coast 
	878 879 880 881 889 890 898 902 905 913 914 915 943 946 947 949 951 952 954 955 956 957 958 959 960 961 962 963 964 965 966 967 968 969 970 971 980 981 982 983 984 985 989 990 1320 1334
    2090 2093 2099 2105 2106 2143 2144 2145 2146 2147 2148 2151 2152 2153 2156 2165 2166 2167 2168 2169 2172 2173 2174 2175 2176 2178 2192 2206 2249 2252 2254 2268
}

#example: russia & lappland
severe_winter = { 
	8 9 10 11 18 19 20 21 22 29 30 31 32 33  #Scandinavia
	73 110 165 166 205 1930 2149 2150 2250 2253 #The Alps 
	 2195 210 211 #The Pyraneese 
	293 294 295 296 297 298 299 300 301 302 303 304 305 306	307 308 309 310 311 312 313 314 315 1265 1266 1317 1318 1319 1321 1922 1923 1924 1925 2241 2242 2269#Mother Russia
	369 370 371 1104 1105 # The Cold North
	448 449 451 452 458 460 473 508 509 554 557 565 578 676 677 678 705 706 710 711 739 740 1370 1948 1949 1950 1951 2216 #Those High Mountians in Asia
	1034 1035 1036 1037 1038 1039 1040 1041 1042 1043 1044 1045 1046 1047 1048 1049 1051 1052 1053 1054 1055 1059 1061 1062 1064 1067 1068 1069 1070 1071 1072 1073 1074 1075 1076 1077 1078 1079 1080 1081 1082 1083 1322 1323 1324 1325 1326 1327 1328 1371 #Siberia
	422 423 463 1314 1315 #The Caucasis
	974 975 976 977 978 979 #Alaska 
	901 903 904 906 907 908 909 910 911 912 944 945 987 988 991 992 993 986 994 995 996 997 998 999 1000 1001 1002 1003 1004 1005 1006 1007 1008 1009 1010 1011
	2094 2095 2096 2097 2098 2100 2103 2162 2163 2164 2092 2101 2102 2207 2208 2209
}

impassable = {
	1329 1331 1366 1374 1393 1398 1332 1937 2155 1343 1365 2091 2124 2117 2210 2211 2212 2213 2214 2215 2217 2218 2219 2220 2221 2222 2223 2224 2225 2226 2227 2228 2229 2230 2231 2232 2233 2235 2236 2237 2238 2239 2240 2243 2246
}