color = { 4  144  178 }
color = { 181  72  106 }
color = { 63  125  214 }
color = { 54  167  156 }
color = { 231  181  12 }
color = { 57  160  101 }
color = { 194  140  86 }
color = { 199  175  12 }
color = { 69  157  208 }
color = { 117  165  188 }
color = { 206  181  97 }
color = { 195  149  155 }
color = { 94  136  191 }
color = { 219  124  139 }
color = { 146  108  146 }
color = { 69  130  203 }
color = { 59  158  125 }
color = { 220  138  57 }
color = { 191  113  133 }
color = { 147  157  76 }
color = { 26  53  177 }
color = { 125  92  110 }
color = { 121  162  109 }
color = { 182  134  100 }
color = { 201  97  74 }
color = { 116  92  39 }
color = { 33  101  137 }
color = { 129  177  125 }
color = { 118  99  151 }
color = { 23  114  143 }
color = { 110  173  129 }
color = { 148  30  70 }
color = { 100  94  125 }
color = { 40  121  66 }
color = { 41  89  174 }
color = { 240  167  130 }
color = { 193  65  54 }
color = { 118  193  153 }
color = { 93  180  76 }
color = { 120  148  140 }
color = { 161  139  40 }
color = { 36  109  194 }
color = { 140  207  116 }
color = { 130  25  74 }
color = { 178  163  143 }
color = { 154  129  35 }
color = { 117  161  67 }
color = { 132  70  102 }
color = { 114  70  103 }
color = { 94  117  55 }
color = { 62 122 189  }
color = { 193 26 14  }
color= { 220 138 57  }
color = { 136 157 23  }
color = { 48 164 51  }
color= { 182 134 100  }
color = { 39 108 140  }
color = { 112 150 105  }
color= { 191 113 133  }
color = { 107 94 169  }
color = { 121 162 109  }
color= { 117 165 188  }
color = { 202 112 85  }
color = { 104 137 140  }
color= { 220 150 158  }
color = { 166 72 57  }
color = { 199 175 12  }
color= { 181 72 106  }
color = { 161 126 128  }
color = { 131 101 85  }
color= { 113 112 96  }
color = { 152 85 92  }
color = { 117 127 174  }
color= { 240 167 130  }
color = { 126 203 120  }
color = { 107 170 77  }
color= { 140 207 116  }
color = { 83 149 105  }
color= { 211 172 185  }
color = { 255 87 127  }
color = { 183 176 194  }
color= { 174 227 95  }
color = { 129 177 125  }
color = { 166 189 199  }
color= { 138 110 130  }
color = { 94 117 55  }
color = { 99 137 153  }
color= { 78 75 39  }
color = { 236 159 89  }
color = { 80 79 88  }
color= { 249 206 173  }
color = { 89 140 176  }
color = { 197 92 106  }
color= { 106 127 183  }
color = { 101 102 163  }
color = { 195 149 155  }
color= { 113 150 11  }
color = { 144 52 53  }
color = { 154 69 116  }
color= { 136 157 23  }
color = { 219 124 139  }
color = { 69 157 208  }
color= { 39 108 140  }
color = { 229 12 109  }
color = { 184 193 89  }
color= { 107 94 169  }
color = { 124 140 162  }
color = { 17 16 203  }
color= { 202 112 85  }
color = { 194 140 86  }
color = { 137 183 124  }
color= { 166 72 57  }
color = { 69 157 208  }
color = { 210 106 47  }
color= { 211 207 173  }
color = { 154 69 116  }
color = { 122 179 97  }
color= { 161 126 128  }
color = { 195 149 155  }
color = { 187 79 86  }
color= { 152 85 92  }
color = { 197 92 106  }
color = { 119 151 122  }
color= { 126 203 120  }
color = { 135 104 85  }
color = { 80 79 88  }
color = { 134 166 117  }
color= { 255 87 127  }
color = { 166 189 199  }
color= { 193 26 14  }
color = { 99 137 153  }
color = { 83 149 105  }
color= { 48 164 51  }
color = { 183 176 194  }
color = { 107 170 77  }
color= { 112 150 105  }
color = { 136 157 23  }
color = { 117 127 174  }
color= { 121 162 109  }
color = { 39 108 140  }
color = { 131 101 85  }
color= { 104 137 140  }
color = { 107 94 169  }
color = { 199 175 12  }
color= { 199 175 12  }
color = { 202 112 85  }
color = { 104 137 140  }
color= { 131 101 85  }
color = { 166 72 57  }
color = { 121 162 109  }
color= { 117 127 174  }
color = { 161 126 128  }
color = { 112 150 105  }
color= { 107 170 77  }
color = { 152 85 92  }
color = { 48 164 51  }
color= { 83 149 105  }
color = { 126 203 120  }
color = { 193 26 14  }
color= { 193 26 14  }
color = { 99 137 153  }
color = { 83 149 105  }
color= { 129 177 125  }
color = { 183 176 194  }
color= { 94 117 55  }
color = { 255 87 127  }
color = { 99 137 153  }
color= { 236 159 89  }
color = { 129 177 125  }
color = { 80 79 88  }
color= { 89 140 176  }
color = { 94 117 55  }
color = { 197 92 106  }
color= { 101 102 163  }
color = { 236 159 89  }
color = { 195 149 155  }
color= { 144 52 53  }
color = { 89 140 176  }
color = { 154 69 116  }
color= { 219 124 139  }
color = { 101 102 163  }
color = { 69 157 208  }
color= { 124 140 162  }
color = { 144 52 53  }
color = { 184 193 89  }
color= { 194 140 86  }
color = { 219 124 139  }
color = { 17 16 203  }
color= { 69 157 208  }
color = { 124 140 162  }
color = { 137 183 124  }
color= { 154 69 116  }
color = { 210 106 47  }
color= { 195 149 155  }
color = { 194 140 86  }
color = { 122 179 97  }
color= { 197 92 106  }
color = { 69 157 208  }
color = { 187 79 86  }
color= { 80 79 88  }
