# Country unit colors.
# Yeren Jurchens
DOW = {
    color1= { 58 73 78 }
    color2= { 38 58 56 }
    color3= { 38 58 56 }
}
# Yeren Jurchens
YNJ = {
    color1= { 165 132 57  }
    color2= { 166 72 57  }
    color3= { 121 162 109  }
}
# Haixi Jurchens
HXJ = {
    color1= { 165 132 57  }
    color2= { 166 72 57  }
    color3= { 121 162 109  }
}
# Jianzhou Jurchens
JZJ = {
    color1= { 165 132 57  }
    color2= { 166 72 57  }
    color3= { 121 162 109  }
}
# Baku
BAK = {
    color1= { 0 0 0  }
    color2= { 0 150 150  }
    color3= { 0 0 0  }
}
# Derbent
DER = {
    color1= { 255 255 255 }
    color2= { 0 150 150  }
    color3= { 255 255 255  }
}
# Qarabagh
QBH = {
    color1= { 0 150 150  }
    color2= { 0 150 150  }
    color3= { 0 0 0  }
}
# Shirvan
SHV = {
    color1= { 150 0 0  }
    color2= { 150 0 0  }
    color3= { 0 0 0  }
}

# Banjarmasin
BAJ = {
    color1= { 41 89 174  }
    color2= { 169 157 208  }
    color3= { 112 150 105  }
}

# Jaffna
JAF = {
    color1= { 141 189 74  }
    color2= { 169 157 28  }
    color3= { 112 150 15  }
}

# Mactan
MAC = {
    color1= { 141 89 17 }
    color2= { 69 157 20 }
    color3= { 112 150 15 }
}

# Luzon
LUZ = {
    color1= { 41 89 174 }
    color2= { 19 157 20 }
    color3= { 112 150 105 }
}

# Maguindanao
MGD = {
    color1= { 141 89 174  }
    color2= { 169 157 208  }
    color3= { 112 150 105  }
}

# Tambora
TMB = {
    color1= { 141 189 174  }
    color2= { 169 157 208  }
    color3= { 112 150 105  }
}

# Bima
BIM = {
    color1= { 41 89 174  }
    color2= { 69 157 208  }
    color3= { 12 150 105  }
}

# Cebu
CEB = {
    color1= { 141 189 174  }
    color2= { 169 157 108  }
    color3= { 112 150 105  }
}

# Ternate
TER = {
    color1= { 41 189 174  }
    color2= { 69 157 208  }
    color3= { 12 150 105  }
}

# Tidore
TID = {
    color1= { 41 129 174  }
    color2= { 69 157 108  }
    color3= { 12 150 155  }
}

# Butung
BUT = {
    color1= { 41 89 174  }
    color2= { 19 157 208  }
    color3= { 112 150 5  }
}

# Jailolo
JAO = {
    color1= { 41 189 174  }
    color2= { 169 157 18  }
    color3= { 52 150 105  }
}

# Sonbai Besar
SBB = {
    color1= { 255 255 255 }
    color2= { 19 157 18  }
    color3= { 255 255 255 }
}

# Sonbai Kecil
SBK = {
    color1= { 255 255 255 }
    color2= { 19 157 18  }
    color3= { 255 255 255 }
}

# Luwu
LUW = {
    color1= { 55 155 55 }
    color2= { 19 157 18  }
    color3= { 55 155 55 }
}

# Sonbai
SBI = {
    color1= { 55 255 255 }
    color2= { 0 0 0 }
    color3= { 55 255 255 }
}


# Pasir
PSI = {
    color1= { 41 189 74  }
    color2= { 69 157 28  }
    color3= { 21 150 15  }
}


# Kota Waringin
KTW = {
    color1= { 241 229 74  }
    color2= { 229 227 28  }
    color3= { 221 220 15  }
}

# Berau
BEU = {
    color1= { 241 189 74  }
    color2= { 229 157 28  }
    color3= { 221 150 15  }
}


# Pontianak
PON = {
    color1= { 241 189 74  }
    color2= { 169 227 128  }
    color3= { 221 150 15  }
}

# Kutai
KUT = {
    color1= { 241 89 174  }
    color2= { 69 157 208  }
    color3= { 212 150 105  }
}


# Sunda
SUN = {
    color1= { 130 125 74 }
    color2= { 194 140 86 }
    color3= { 148 164 51 }
}

# Sumenep
SMN = {
    color1= { 230 125 74 }
    color2= { 24 140 86 }
    color3= { 218 164 51 }
}

# Semarang
SMG = {
    color1= { 230 25 74 }
    color2= { 224 40 86 }
    color3= { 218 64 51 }
}

# Bangkalan
BNN = {
    color1= { 230 125 74 }
    color2= { 214 10 86 }
    color3= { 218 164 51 }
}

# Cirebon
CIR = {
    color1= { 30 125 74 }
    color2= { 214 40 86 }
    color3= { 218 164 51 }
}

# Sumedang
SUM = {
    color1= { 230 125 74 }
    color2= { 214 140 86 }
    color3= { 218 64 51 }
}

# Cianjur
CIA = {
    color1= { 230 125 74 }
    color2= { 214 140 8 }
    color3= { 218 164 51 }
}

# Mangkunegara
MNN = {
    color1= { 30 125 74 }
    color2= { 214 140 86 }
    color3= { 18 164 51 }
}

# Surakarta
SRK = {
    color1= { 20 125 74 }
    color2= { 14 140 86 }
    color3= { 218 164 51 }
}

# Surabaya
SUR = {
    color1= { 230 125 74 }
    color2= { 214 140 86 }
    color3= { 218 164 51 }
}

# Pajang
PAJ = {
    color1= { 230 225 74 }
    color2= { 255 255 255 }
    color3= { 251 251 251 }
}

# Bonanjo
BON = {
    color1= { 13 125 74 }
    color2= { 194 14 86 }
    color3= { 148 16 51 }
}

# Riau
RAU = {
    color1= { 255 255 255 }
    color2= { 0 0 0 }
    color3= { 255 255 255 }
}

# Johor
JOH = {
    color1= { 255 255 255 }
    color2= { 0 0 0 }
    color3= { 0 0 0 }
}

# Pahang
PAH = {
    color1= { 0 0 0 }
    color2= { 255 255 255 }
    color3= { 0 0 0 }
}

# Perak
PRK = {
    color1= { 255 255 255 }
    color2= { 255 200 0 }
    color3= { 0 0 0 }
}

# Negeri Sembilan
NGS = {
    color1= { 255 25 25 }
    color2= { 255 200 0 }
    color3= { 0 0 0 }
}

# Kedah
KED = {
    color1= { 255 25 25 }
    color2= { 255 25 25 }
    color3= { 255 25 25 }
}

# Kelantan
KEL = {
    color1= { 255 255 255 }
    color2= { 0 60 110 }
    color3= { 255 255 255 }
}

# Srvijaya
SRV = {
    color1= { 88 237 72  }
    color2= { 155 255 155  }
    color3= { 90 129 88  }
}

# Jambi
PLM = {
    color1= { 88 237 72  }
    color2= { 155 255 155  }
    color3= { 90 129 88  }
}

# Jambi
JMB = {
    color1= { 255 255 255 }
    color2= { 255 255 255 }
    color3= { 255 255 255 }
}

# Siak
SIA = {
    color1= { 88 177 172  }
    color2= { 155 255 255  }
    color3= { 220 79 88  }
}

# Aru
ARU = {
    color1= { 18 177 172  }
    color2= { 255 55 55  }
    color3= { 10 179 188  }
}

# Minangkabau
MIG = {
    color1= { 203 78 46  }
    color2= { 124 240 162  }
    color3= { 107 220 107  }
}

# Schwyz
SCH = {
    color1= { 203 78 46  }
    color2= { 124 140 162  }
    color3= { 107 170 77  }
}

# Germiyan
GRM = {
    color1= { 55 255 55 }
    color2= { 255 255 255 }
    color3= { 255 255 255 }
}

# Ukita
UKI = {
    color1= { 255 55 55 }
    color2= { 255 255 255 }
    color3= { 255 255 255 }
}

# Diyarbakir
DIY = {
    color1= { 0 150 150 }
    color2= { 255 255 255 }
    color3= { 255 255 255 }
}

# Skardu
SKA = {
    color1= { 155 0 0 }
    color2= { 255 255 255 }
    color3= { 255 255 255 }
}

# Sivas
SIV = {
    color1= { 0 150 150 }
    color2= { 55 55 255 }
    color3= { 55 55 55 }
}

# Lesser Armenia
AMI = {
    color1= { 155 0 0 }
    color2= { 25 55 55 }
    color3= { 25 55 55 }
}

# Mentese
MNT = {
    color1= { 155 0 0 }
    color2= { 255 255 255 }
    color3= { 255 255 255 }
}

# Saruhan
SRH = {
    color1= { 255 55 55 }
    color2= { 255 255 255 }
    color3= { 255 255 255 }
}

# Tamna
TMN = {
    color1= { 26 53 177  }
    color2= { 136 157 23  }
    color3= { 166 189 199  }
}

# Great Perm
PRM = {
    color1= { 0 0 0 }
    color2= { 230 230 230 }
    color3= { 0 0 0 }
}

# Kuroda
KUO = {
    color1= { 200 150 100 }
    color2= { 0 0 0 }
    color3= { 200 150 100 }
}

# Tokugawa
TKG = {
    color1= { 200 150 100 }
    color2= { 0 0 0 }
    color3= { 200 150 100 }
}

# Toyotomi
TOY = {
    color1= { 200 150 100 }
    color2= { 0 0 0 }
    color3= { 200 150 100 }
}

# Saito
SAI = {
    color1= { 200 150 100 }
    color2= { 0 0 0 }
    color3= { 200 150 100 }
}

# Amako
AMA = {
    color1= { 200 150 100 }
    color2= { 0 0 0 }
    color3= { 200 150 100 }
}

# Matsuda
MAT = {
    color1= { 200 150 100 }
    color2= { 0 0 0 }
    color3= { 200 150 100 }
}

# Hojo
HOJ = {
    color1= { 200 150 100 }
    color2= { 0 0 0 }
    color3= { 200 150 100 }
}

# Uesugi
UES = {
    color1= { 200 150 100 }
    color2= { 0 0 0 }
    color3= { 200 150 100 }
}

# Takeda
TAK = {
    color1= { 200 150 100 }
    color2= { 0 0 0 }
    color3= { 200 150 100 }
}

# Date
DAT = {
    color1= { 200 150 100 }
    color2= { 0 0 0 }
    color3= { 200 150 100 }
}

# Shiba
SHB = {
    color1= { 200 150 100 }
    color2= { 0 0 0 }
    color3= { 200 150 100 }
}

# Yamana
YAM = {
    color1= { 200 150 100 }
    color2= { 0 0 0 }
    color3= { 200 150 100 }
}

# Isshiki
ISH = {
    color1= { 200 200 50 }
    color2= { 200 200 50 }
    color3= { 0 0 0 }
}

# Nanbu
NAN = {
    color1= { 250 50 50 }
    color2= { 255 255 255 }
    color3= { 250 50 50 }
}

# Hatakeyama
HAK = {
    color1= { 200 200 50 }
    color2= { 200 200 50 }
    color3= { 0 0 0 }
}

# Ichijo
ICH = {
    color1= { 200 200 50 }
    color2= { 200 200 50 }
    color3= { 0 0 0 }
}

# Miyoshi
MIY = {
    color1= { 200 200 50 }
    color2= { 200 200 50 }
    color3= { 0 0 0 }
}

# Chosokabe
CHO = {
    color1= { 200 200 50 }
    color2= { 200 200 50 }
    color3= { 0 0 0 }
}

# Oda
ODA = {
    color1= { 200 200 50 }
    color2= { 200 200 50 }
    color3= { 0 0 0 }
}

# Toki
TOI = {
    color1= { 200 200 50 }
    color2= { 200 200 50 }
    color3= { 0 0 0 }
}

# Ashikaga
ASK = {
    color1= { 200 200 50 }
    color2= { 200 200 50 }
    color3= { 0 0 0 }
}

# Akamatsu
AKM = {
    color1= { 200 200 100 }
    color2= { 0 0 0 }
    color3= { 200 200 100 }
}

# Imagawa
IMA = {
    color1= { 200 200 80 }
    color2= { 0 0 0 }
    color3= { 0 0 0 }
}

# Ryuzoyi
RYZ = {
    color1= { 255 255 255 }
    color2= { 0 0 0 }
    color3= { 0 0 0 }
}

# Shimazu
SHI = {
    color1= { 255 255 255 }
    color2= { 0 0 0 }
    color3= { 0 0 0 }
}

# Hosokawa
HOS = {
    color1= { 255 255 255 }
    color2= { 0 0 0 }
    color3= { 0 0 0 }
}

# Otomo
OTO = {
    color1= { 255 255 255 }
    color2= { 0 0 0 }
    color3= { 0 0 0 }
}

# Aso
ASO = {
    color1= { 255 255 255 }
    color2= { 0 0 0 }
    color3= { 0 0 0 }
}

# Ito
ITO = {
    color1= { 255 255 255 }
    color2= { 0 0 0 }
    color3= { 0 0 0 }
}

# Nabeshima
NBS = {
    color1= { 255 255 255 }
    color2= { 0 0 0 }
    color3= { 0 0 0 }
}

# Ouchi
OUC = {
    color1= { 255 255 255 }
    color2= { 0 0 0 }
    color3= { 0 0 0 }
}

#Mori
MRI = {
    color1= { 255 255 55 }
    color2= { 0 0 0 }
    color3= { 0 0 0 }
}

# So
SOC = {
    color1= { 250 250 250 }
    color2= { 0 0 0 }
    color3= { 0 0 0 }
}


#BSH - Bashkirs
BSH = {
    color1= { 255 255 0 }
    color2= { 0 153 0 }
    color3= { 255 255 0 }
}

#SIK - Sikkim
SIK = {
    color1= { 255 49 0 }
    color2= { 255 206 0 }
    color3= { 0 156 0 }
}

#GLH - Galich
GAL = {
    color1= { 255 255 0 }
    color2= { 255 0 0 }
    color3= { 0 0 200 }
}

#VIA - Viatka
VIA = {
    color1= { 200 200 0 }
    color2= { 200 200 0 }
    color3= { 200 200 0 }
}

#DEN - Denkyira
DEN = {
    color1= { 155 155 55 }
    color2= { 55 55 10 }
    color3= { 155 155 55 }
}

#MAH - Mahra
MAH = {
    color1= { 255 78 46  }
    color2= { 255 255 255  }
    color3= { 255 70 77  }
}

#NIZ - Nizwa
NZW = {
    color1= { 255 200 200  }
    color2= { 255 255 255  }
    color3= { 255 200 200  }
}

#SUH - Suhar
SUH = {
    color1= { 255 20 20  }
    color2= { 255 255 255  }
    color3= { 255 20 20  }
}

#KUW - Kuwait
KUW = {
    color1= { 55 248 46  }
    color2= { 255 255 255  }
    color3= { 55 220 77  }
}

#MAK - Maku
MAK = {
    color1= { 155 78 46  }
    color2= { 255 255 255  }
    color3= { 155 70 77  }
}

#TAB - Tabriz
TAB = {
    color1= { 60 250 60  }
    color2= { 255 255 255  }
    color3= { 200 200 77  }
}

# Khoy
KHY = {
    color1= { 110 15 15 }
    color2= { 255 255 255 }
    color3= { 115 15 15 }
}

# Ardebil
ARD = {
    color1= { 10 15 15 }
    color2= { 255 255 255 }
    color3= { 15 15 15 }
}

# Tyumen
TYU = {
    color1= { 139 138 160  }
    color2= { 197 92 106  }
    color3= { 122 179 97  }
}

# Tuva
TUV = {
    color1= { 139 138 250  }
    color2= { 255 255 255  }
    color3= { 122 179 250  }
}

#Pelym
PEL = {
    color1= { 155 158 46  }
    color2= { 255 255 255  }
    color3= { 155 150 77  }
}

#ABU - Abu Dhabi
ABU = {
    color1= { 255 78 46  }
    color2= { 255 255 255  }
    color3= { 255 70 77  }
}


# Herat
HER = {
    color1= { 0 200 0  }
    color2= { 250 250 250  }
    color3= { 0 200 0  }
}

# Qandahar
QAN = {
    color1= { 0 0 0  }
    color2= { 0 0 0  }
    color3= { 0 0 0  }
}

# Kabul
KAB = {
    color1= { 0 0 0  }
    color2= { 0 0 0  }
    color3= { 0 0 0  }
}

# Peshawar
PES = {
    color1= { 0 200 0  }
    color2= { 250 250 250 }
    color3= { 250 250 250  }
}

# Jammu
JAM = {
    color1= { 253 78 46  }
    color2= { 224 240 222  }
    color3= { 227 70 77  }
}

# Samarkand
SAM = {
    color1= { 223 78 46  }
    color2= { 250 250 252  }
    color3= { 17 70 217  }
}

# Balkh
BLK = {
    color1= { 23 28 246  }
    color2= { 224 222 222  }
    color3= { 17 20 217  }
}

# Chach
TAS = {
    color1= { 23 228 46  }
    color2= { 224 222 222  }
    color3= { 17 220 17  }
}

# Uruguay
URU = {
    color1= { 23 78 246  }
    color2= { 24 40 222  }
    color3= { 17 70 217  }
}

# Ma'an
MAA = {
    color1= { 250 250 250  }
    color2= { 250 50 50  }
    color3= { 50 250 50  }
}

# Zufar
ZUF = {
    color1= { 250 250 250  }
    color2= { 0 0 0  }
    color3= { 250 250 250  }
}

# Kathiri
HDR = {
    color1= { 250 25 25  }
    color2= { 25 250 50  }
    color3= { 250 250 50  }
}

# Musha'sha
MUS = {
    color1= { 210 250 210  }
    color2= { 250 250 250  }
    color3= { 210 250 210  }
}

# Hormuz
HOR = {
    color1= { 250 210 210  }
    color2= { 210 210 250  }
    color3= { 250 250 210  }
}

# Bahrein
BHR = {
    color1= { 250 250 250  }
    color2= { 250 20 20  }
    color3= { 20 20 20  }
}

# Romania
ROM = {
    color1= { 161 126 128  }
    color2= { 195 149 155  }
    color3= { 187 79 86  }
}

# Kalmar Union
KAL = {
    color1= { 200 20 20  }
    color2= { 200 200 20  }
    color3= { 200 200 20  }
}

# Kiev
KIE = {
    color1= { 100 100 250  }
    color2= { 100 100 250  }
    color3= { 100 100 250  }
}

# Jerusalem
JER = {
    color1= { 250 250 250  }
    color2= { 0 250 250  }
    color3= { 0 250 250  }
}

# Minsk
MIN = {
    color1= { 250 100 100  }
    color2= { 200 200 200  }
    color3= { 250 100 100  }
}

# Polotsk
PLT = {
    color1= { 250 150 150  }
    color2= { 200 200 200  }
    color3= { 250 150 150  }
}

# Chernihiv
CHR = {
    color1= { 0 0 0  }
    color2= { 250 250 250  }
    color3= { 0 0 0  }
}

# Halych-Volhynia
HAL = {
    color1= { 150 150 250  }
    color2= { 150 150 250  }
    color3= { 150 150 250  }
}

# Grand Duchy of Kiev
GDK = {
    color1= { 100 100 250  }
    color2= { 100 100 250  }
    color3= { 100 100 250  }
}

# Hussite
HUS = {
    color1= { 250 10 10  }
    color2= { 255 255 255  }
    color3= { 0 0 0  }
}

# Alcantara
ALC = {
    color1= { 55 255 55  }
    color2= { 255 255 255  }
    color3= { 255 255 255  }
}

# Kaarta
KAA = {
    color1= { 55 108 158  }
    color2= { 89 140 176  }
    color3= { 154 69 116  }
}

# Smolensk
SMO = {
    color1= { 255 118 118  }
    color2= { 255 255 255  }
    color3= { 255 111 116  }
}

# Byzantium
BYZ = {
    color1= { 255 108 253  }
    color2= { 89 140 176  }
    color3= { 154 69 116  }
}

# Adyge
ADG = {
    color1= { 55 208 158  }
    color2= { 89 140 176  }
    color3= { 154 69 116  }
}

# Imereti
IME = {
    color1= { 55 25 152  }
    color2= { 225 225 225  }
    color3= { 54 25 250  }
}

# Abkhazia
ABH = {
    color1= { 55 225 58  }
    color2= { 225 225 225  }
    color3= { 54 225 50  }
}

# Kakheti
KAH = {
    color1= { 255 125 128  }
    color2= { 25 225 25  }
    color3= { 54 225 50  }
}

# Kartli
KRT = {
    color1= { 255 25 28  }
    color2= { 225 225 225  }
    color3= { 254 225 250  }
}

# Dar Fur
DAR = {
    color1= { 55 155 155  }
    color2= { 89 140 176  }
    color3= { 154 69 116  }
}

# Kordofan
KRD = {
    color1= { 155 155 55  }
    color2= { 89 140 176  }
    color3= { 154 69 116  }
}

# Shoa
SHO = {
    color1= { 155 155 255  }
    color2= { 89 140 216  }
    color3= { 154 69 216  }
}

# Fuuta Tooro
FUT = {
    color1= { 155 108 158  }
    color2= { 89 140 176  }
    color3= { 154 69 116  }
}

# Kong
KNG = {
    color1= { 155 208 158  }
    color2= { 89 140 176  }
    color3= { 154 69 116  }
}

# Fuuta Jallon
FUJ = {
    color1= { 115 118 158  }
    color2= { 89 140 176  }
    color3= { 154 69 116  }
}


# Ouaddai
OUD = {
    color1= { 43 128 46  }
    color2= { 124 140 162  }
    color3= { 107 170 77  }
}

# Tuggurt
TUG = {
    color1= { 200 200 200  }
    color2= { 40 100 40  }
    color3= { 40 100 40  }
}

# Wukari
WUK = {
    color1= { 200 200 100  }
    color2= { 40 100 40  }
    color3= { 40 100 40  }
}
# Sokoto
SOK = {
    color1= { 250 250 250  }
    color2= { 250 250 250  }
    color3= { 250 250 250  }
}

# Hadejia
HAD = {
    color1= { 200 200 100  }
    color2= { 40 100 40  }
    color3= { 40 100 40  }
}

# Kebbi
KEB = {
    color1= { 100 200 150  }
    color2= { 40 100 40  }
    color3= { 40 100 40  }
}

# Okolo-Ama
OKO = {
    color1= { 130 120 50  }
    color2= { 40 100 40  }
    color3= { 40 100 40  }
}

# Bauchi
BAU = {
    color1= { 200 200 200  }
    color2= { 200 200 200  }
    color3= { 200 200 200  }
}


# Savi Hwedah
SVH = {
    color1= { 143 128 46  }
    color2= { 124 140 162  }
    color3= { 107 170 77  }
}

# Igala
IGA = {
    color1= { 143 28 46  }
    color2= { 124 140 162  }
    color3= { 107 170 77  }
}


# Bussa
BUS = {
    color1= { 143 228 146  }
    color2= { 124 140 162  }
    color3= { 107 170 77  }
}

# Mandara
MND = {
    color1= { 43 128 146  }
    color2= { 124 140 162  }
    color3= { 107 170 77  }
}


# Damagaram
DAM = {
    color1= { 143 28 46  }
    color2= { 124 140 162  }
    color3= { 107 170 77  }
}

# Great Zimbabwe
GZI = {
    color1= { 255 255 255  }
    color2= { 126 203 120  }
    color3= { 122 179 97  }
}

# Torwa
TRW = {
    color1= { 255 255 155  }
    color2= { 126 203 120  }
    color3= { 122 179 97  }
}

# Rozwi
ROZ = {
    color1= { 255 255 155  }
    color2= { 126 203 120  }
    color3= { 122 179 97  }
}

# Aloe
ALO = {
    color1= { 243 228 46  }
    color2= { 124 140 162  }
    color3= { 107 170 77  }
}


# Air
AIR = {
    color1= { 143 128 146  }
    color2= { 124 140 162  }
    color3= { 107 170 77  }
}

# Fezzan
FZZ = {
    color1= { 243 228 246  }
    color2= { 124 140 162  }
    color3= { 107 170 77  }
}

# Ife
IFE = {
    color1= { 143 128 146  }
    color2= { 124 140 162  }
    color3= { 107 170 77  }
}

# Nupe
NUP = {
    color1= { 43 128 146  }
    color2= { 124 140 162  }
    color3= { 107 170 77  }
}

# Zamfara
ZAM = {
    color1= { 43 28 46  }
    color2= { 124 140 162  }
    color3= { 107 170 77  }
}

# Gobir
GOB = {
    color1= { 43 128 246  }
    color2= { 124 140 162  }
    color3= { 107 170 77  }
}

# Katsina
KTS = {
    color1= { 43 228 46  }
    color2= { 124 140 162  }
    color3= { 107 170 77  }
}

# Baguirmi
BAG = {
    color1= { 123 78 146  }
    color2= { 124 140 162  }
    color3= { 107 170 77  }
}

# Katanga
KAT = {
    color1= { 223 78 146  }
    color2= { 124 140 162  }
    color3= { 107 170 77  }
}

# Luba
LUB = {
    color1= { 123 78 46  }
    color2= { 124 140 162  }
    color3= { 107 170 77  }
}

# Lozi
LOZ = {
    color1= { 223 228 146  }
    color2= { 124 140 162  }
    color3= { 107 170 77  }
}

# Ouagadougou
OUG = {
    color1= { 213 78 46  }
    color2= { 124 140 162  }
    color3= { 107 170 77  }
}

# Nungu
NUN = {
    color1= { 13 78 46  }
    color2= { 124 140 162  }
    color3= { 107 170 77  }
}

# Yatenga
YAT = {
    color1= { 13 78 246  }
    color2= { 124 140 162  }
    color3= { 107 170 77  }
}

# bamaNgwato
BAM = {
    color1= { 3 8 6  }
    color2= { 124 140 162  }
    color3= { 107 170 77  }
}

# Ajache Ipo
AJI = {
    color1= { 123 178 146  }
    color2= { 124 140 162  }
    color3= { 107 170 77  }
}

# Dahomey
DAH = {
    color1= { 3 178 146  }
    color2= { 124 140 162  }
    color3= { 107 170 77  }
}

# Alada
ALA = {
    color1= { 13 18 246  }
    color2= { 124 140 162  }
    color3= { 107 170 77  }
}

# Ndongo
NDO = {
    color1= { 123 78 46  }
    color2= { 124 140 162  }
    color3= { 107 170 77  }
}

# Kilwa
KIL = {
    color1= { 203 78 46  }
    color2= { 124 140 20  }
    color3= { 107 0 0  }
}

# Oromo
ORO = {
    color1= { 0 100 0  }
    color2= { 124 140 20  }
    color3= { 107 0 0  }
}

# Qustantine
QUS = {
    color1= { 100 10 0  }
    color2= { 124 140 20  }
    color3= { 107 0 0  }
}

# Burundi
BRN = {
    color1= { 255 255 255  }
    color2= { 255 0 0  }
    color3= { 107 0 0  }
}

# Tooro
TOR = {
    color1= { 20 220 20  }
    color2= { 200 200 220  }
    color3= { 107 100 100  }
}

# Rwanda
RWA = {
    color1= { 120 78 46  }
    color2= { 112 14 20  }
    color3= { 110 0 0  }
}

# Nkore
NKO = {
    color1= { 20 250 46  }
    color2= { 200 200 200  }
    color3= { 20 200 20  }
}

# Buganda
BUG = {
    color1= { 20 20 246  }
    color2= { 200 200 200  }
    color3= { 200 200 20  }
}

# Bunjoro-Kitara
BUN = {
    color1= { 20 20 246  }
    color2= { 20 20 200  }
    color3= { 200 20 20  }
}

# Mombassa
MOM = {
    color1= { 255 160 150 }
    color2= { 200 200 200 }
    color3= { 255 160 150 }
}

# Malindi
MLI = {
    color1= { 255 0 0  }
    color2= { 224 0 0  }
    color3= { 207 0 0  }
}

# Pemba
PEM = {
    color1= { 203 0 0  }
    color2= { 0 121 0  }
    color3= { 107 0 0  }
}

# Warsangeli
WRS = {
    color1= { 255 20 20  }
    color2= { 200 20 20  }
    color3= { 255 20 20  }
}

# Pate
PTE = {
    color1= { 255 0 0  }
    color2= { 200 0 0  }
    color3= { 255 0 0  }
}

# Majerten
MAJ = {
    color1= { 155 20 20  }
    color2= { 100 20 20  }
    color3= { 155 20 20  }
}

# Boina
BOI = {
    color1= { 255 20 20  }
    color2= { 200 200 200  }
    color3= { 255 20 20  }
}

# Ambohidratima
AMB = {
    color1= { 255 250 200  }
    color2= { 200 200 200  }
    color3= { 255 20 20  }
}

# Gran Komora
KOM = {
    color1= { 255 200 200  }
    color2= { 200 200 20  }
    color3= { 205 200 200  }
}

# Tamatave
TAM = {
    color1= { 100 20 20  }
    color2= { 200 200 200  }
    color3= { 25 200 20  }
}

# Antakatana
ANT = {
    color1= { 255 255 20  }
    color2= { 200 200 200  }
    color3= { 255 20 20  }
}

# Menabe
MEN = {
    color1= { 255 200 200  }
    color2= { 255 20 20  }
    color3= { 255 200 200  }
}

# Imernia
MER = {
    color1= { 255 20 20  }
    color2= { 255 255 255  }
    color3= { 255 255 255  }
}

# Madagascar
MDG = {
    color1= { 255 20 20  }
    color2= { 255 255 255  }
    color3= { 255 255 255  }
}

# Trient
TRT = {
    color1= { 230 200 200  }
    color2= { 230 240 255  }
    color3= { 10 10 7  }
}
# Uri
URI = {
    color1= { 203 248 46  }
    color2= { 24 40 62  }
    color3= { 10 17 7  }
}

# Switzerland
BER = {
    color1= { 203 78 46  }
    color2= { 124 140 2  }
    color3= { 207 70 77  }
}

# Bearn
BEA = {
    color1= { 255 20 20  }
    color2= { 255 255 20  }
    color3= { 255 255 22  }
}
# Zanzibar
ZZA = {
    color1= { 255 255 255  }
    color2= { 255 200 200  }
    color3= { 255 255 255  }
}
# Maqdishu
MAQ = {
    color1= { 255 255 255  }
    color2= { 200 200 255  }
    color3= { 255 255 255  }
}
# Lucca
LUC = {
    color1= { 255 20 20  }
    color2= { 255 255 225  }
    color3= { 255 25 22  }
}
# Stettin
STE = {
    color1= { 255 20 20  }
    color2= { 25 25 250  }
    color3= { 12 12 225  }
}
# Vyerkhovskye
WRC = {
    color1= { 250 200 200  }
    color2= { 25 25 250  }
    color3= { 12 12 225  }
}
# Stadt Metz
MTZ = {
    color1= { 0 0 0  }
    color2= { 255 255 250  }
    color3= { 212 212 225  }
}
# Wolgast
WOL = {
    color1= { 255 205 200  }
    color2= { 255 25 25  }
    color3= { 255 255 225  }
}
# Geneva
GEV = {
    color1= { 0 0 0  }
    color2= { 250 25 25  }
    color3= { 225 25 25  }
}
# Nurnberg
NUR = {
    color1= { 25 25 250  }
    color2= { 250 250 25  }
    color3= { 225 225 22  }
}
# Frankfurt
FRN = {
    color1= { 255 25 25  }
    color2= { 25 25 255  }
    color3= { 225 225 225  }
}
# Lubeck
LBK = {
    color1= { 0 0 0 }
    color2= { 255 255 0  }
    color3= { 25 255 255  }
}
# Livonian Order
LIV = {
    color1= { 255 255 255  }
    color2= { 100 100 100  }
    color3= { 100 100 100  }
}

# Belz
BEL = {
    color1= { 255 255 255  }
    color2= { 250 100 100  }
    color3= { 250 100 100  }
}

# The Polish - Lithuanian Commonwealth
RZP = {
    color1= { 197 92 106  }
    color2= { 69 157 208  }
    color3= { 187 79 86  }
}

# The Polish - Lithuanian - Ukrainian Commonwealth
RTN = {
    color1= { 197 92 106  }
    color2= { 69 157 208  }
    color3= { 187 79 86  }
}

#Warmia
WRI = {
    color1= { 255 25 25 }
    color2= { 255 255 255 }
    color3= { 255 25 25 }
}
#Glogau
GLO = {
    color1= { 255 255 255  }
    color2= { 255 255 255  }
    color3= { 255 0 0  }
}

# Oppeln
OPP = {
    color1= { 250 250 25  }
    color2= { 230 230 23  }
    color3= { 30 30 200  }
}

# Tesin
TES = {
    color1= { 200 25 25  }
    color2= { 200 230 20  }
    color3= { 30 30 200  }
}

# Plock
PLO = {
    color1= { 0 0 0 }
    color2= { 255 5 5 }
    color3= { 250 5 2  }
}

# Sweden
SWE = {
    color1= { 62 122 189  }
    color2= { 255 255 255  }
    color3= { 193 26 14  }
}


# Denmark
DAN = {
    color1= { 220 138 57  }
    color2= { 136 157 23  }
    color3= { 48 164 51  }
}


# Finland
FIN = {
    color1= { 182 134 100  }
    color2= { 39 108 140  }
    color3= { 112 150 105  }
}


# Gotland
GOT = {
    color1= { 191 113 133  }
    color2= { 107 94 169  }
    color3= { 121 162 109  }
}


# Norway
NOR = {
    color1= { 117 165 188  }
    color2= { 202 112 85  }
    color3= { 104 137 140  }
}


# Holstein
SHL = {
    color1= { 220 150 158  }
    color2= { 166 72 57  }
    color3= { 199 175 12  }
}


# Albania
ALB = {
    color1= { 181 72 106  }
    color2= { 161 126 128  }
    color3= { 131 101 85  }
}


# Athens
ATH = {
    color1= { 113 112 96  }
    color2= { 152 85 92  }
    color3= { 117 127 174  }
}


# Bosnia
BOS = {
    color1= { 240 167 130  }
    color2= { 126 203 120  }
    color3= { 107 170 77  }
}


# Bulgaria
BUL = {
    color1= { 140 207 116  }
    color2= { 255 255 255  }
    color3= { 83 149 105  }
}


# Corfu
CEP = {
    color1= { 211 172 185  }
    color2= { 255 87 127  }
    color3= { 183 176 194  }
}


# Croatia
CRO = {
    color1= { 174 227 95  }
    color2= { 129 177 125  }
    color3= { 166 189 199  }
}


# Crete
CRT = {
    color1= { 138 110 130  }
    color2= { 94 117 55  }
    color3= { 99 137 153  }
}


# Cyprus
CYP = {
    color1= { 78 75 39  }
    color2= { 236 159 89  }
    color3= { 80 79 88  }
}


# Greece
GRE = {
    color1= { 249 206 173  }
    color2= { 89 140 176  }
    color3= { 197 92 106  }
}


# Knights
KNI = {
    color1= { 106 127 183  }
    color2= { 101 102 163  }
    color3= { 195 149 155  }
}


# Morea
MOE = {
    color1= { 113 150 11  }
    color2= { 144 52 53  }
    color3= { 154 69 116  }
}


# Moldavia
MOL = {
    color1= { 136 157 23  }
    color2= { 219 124 139  }
    color3= { 69 157 208  }
}


# Montenegro
MON = {
    color1= { 39 108 140  }
    color2= { 229 12 109  }
    color3= { 184 193 89  }
}


# Naxos
NAX = {
    color1= { 107 94 169  }
    color2= { 124 140 162  }
    color3= { 17 16 203  }
}


# Ragusa
RAG = {
    color1= { 202 112 85  }
    color2= { 194 140 86  }
    color3= { 137 183 124  }
}


# Serbia
SER = {
    color1= { 166 72 57  }
    color2= { 69 157 208  }
    color3= { 210 106 47  }
}


# Transylvania
TRA = {
    color1= { 211 207 173  }
    color2= { 154 69 116  }
    color3= { 122 179 97  }
}


# Wallachia
WAL = {
    color1= { 161 126 128  }
    color2= { 195 149 155  }
    color3= { 187 79 86  }
}


# Hungary
HUN = {
    color1= { 152 85 92  }
    color2= { 197 92 106  }
    color3= { 119 151 122  }
}


# The Ottomans
TUR = {
    color1= { 126 203 120  }
    color2= { 255 255 255  }
    color3= { 135 104 85  }
}


# Connacht
CNN = {
    color1= { 255 255 255  }
    color2= { 80 79 88  }
    color3= { 134 166 117  }
}

# England
ENG = {
    color1= { 193 26 14  }
    color2= { 99 137 153  }
    color3= { 83 149 105  }
}


# Leinster
LEI = {
    color1= { 48 164 51  }
    color2= { 183 176 194  }
    color3= { 107 170 77  }
}


# Ireland
IRE = {
    color1= { 112 150 105  }
    color2= { 136 157 23  }
    color3= { 117 127 174  }
}


# Lancaster
LAN = {
    color1= { 121 162 109  }
    color2= { 39 108 140  }
    color3= { 131 101 85  }
}


# Munster
MNS = {
    color1= { 104 137 140  }
    color2= { 107 94 169  }
    color3= { 199 175 12  }
}


# Scotland
SCO = {
    color1= { 199 175 12  }
    color2= { 202 112 85  }
    color3= { 104 137 140  }
}


# Tyrone
TYR = {
    color1= { 131 101 85  }
    color2= { 166 72 57  }
    color3= { 121 162 109  }
}


# Wales
WLS = {
    color1= { 117 127 174  }
    color2= { 161 126 128  }
    color3= { 112 150 105  }
}


# York
YOR = {
    color1= { 107 170 77  }
    color2= { 152 85 92  }
    color3= { 48 164 51  }
}


# Northumberland
NOL = {
    color1= { 83 149 105  }
    color2= { 126 203 120  }
    color3= { 193 26 14  }
}


# Great Britain
GBR = {
    color1= { 193 26 14  }
    color2= { 99 137 153  }
    color3= { 83 149 105  }
}


# Brazil
BRZ = {
    color1= { 129 177 125  }
    color2= { 255 255 255  }
    color3= { 183 176 194  }
}


# Canada
CAN = {
    color1= { 94 117 55  }
    color2= { 255 87 127  }
    color3= { 99 137 153  }
}


# Chile
CHL = {
    color1= { 236 159 89  }
    color2= { 129 177 125  }
    color3= { 80 79 88  }
}


# Colombia
COL = {
    color1= { 89 140 176  }
    color2= { 94 117 55  }
    color3= { 197 92 106  }
}


# LaPlata
LAP = {
    color1= { 101 102 163  }
    color2= { 236 159 89  }
    color3= { 195 149 155  }
}


# Louisiana
LOU = {
    color1= { 144 52 53  }
    color2= { 89 140 176  }
    color3= { 154 69 116  }
}


# Mexico
MEX = {
    color1= { 219 124 139  }
    color2= { 101 102 163  }
    color3= { 69 157 208  }
}


# Peru
PEU = {
    color1= { 124 140 162  }
    color2= { 144 52 53  }
    color3= { 184 193 89  }
}


# Quebec
QUE = {
    color1= { 194 140 86  }
    color2= { 219 124 139  }
    color3= { 17 16 203  }
}


# USA
USA = {
    color1= { 69 157 208  }
    color2= { 124 140 162  }
    color3= { 137 183 124  }
}


# Lithuania
LIT = {
    color1= { 154 69 116  }
    color2= { 255 255 255  }
    color3= { 210 106 47  }
}


# Mazovia
MAZ = {
    color1= { 195 149 155  }
    color2= { 194 140 86  }
    color3= { 122 179 97  }
}


# Poland
POL = {
    color1= { 197 92 106  }
    color2= { 69 157 208  }
    color3= { 187 79 86  }
}


# Prussia
PRU = {
    color1= { 80 79 88  }
    color2= { 154 69 116  }
    color3= { 255 255 255  }
}


# Kurland
KUR = {
    color1= { 99 137 153  }
    color2= { 195 149 155  }
    color3= { 255 255 255  }
}


# Riga
RIG = {
    color1= { 183 176 194  }
    color2= { 197 92 106  }
    color3= { 255 255 255  }
}


# Teutonic Order
TEU = {
    color1= { 102 105 104  }
    color2= { 80 79 88  }
    color3= { 255 255 255  }
}


# Alsace
ALS = {
    color1= { 246 223 15  }
    color2= { 99 137 153  }
    color3= { 255 255 255  }
}


# Armagnac
AMG = {
    color1= { 252 233 58  }
    color2= { 183 176 194  }
    color3= { 119 151 122  }
}


# Auvergne
AUV = {
    color1= { 81 122 125  }
    color2= { 136 157 23  }
    color3= { 135 104 85  }
}


# Avignon
AVI = {
    color1= { 105 106 182  }
    color2= { 39 108 140  }
    color3= { 134 166 117  }
}


# Bourbonnais
BOU = {
    color1= { 120 148 140  }
    color2= { 107 94 169  }
    color3= { 166 189 199  }
}


# Brittany
BRI = {
    color1= { 118 99 151  }
    color2= { 202 112 85  }
    color3= { 83 149 105  }
}


# Burgundy
BUR = {
    color1= { 148 30 70  }
    color2= { 166 72 57  }
    color3= { 107 170 77  }
}


# Champagne
CHP = {
    color1= { 193 237 85  }
    color2= { 161 126 128  }
    color3= { 117 127 174  }
}


# Corsica
COR = {
    color1= { 106 178 46  }
    color2= { 152 85 92  }
    color3= { 131 101 85  }
}


# Dauphine
DAU = {
    color1= { 93 194 122  }
    color2= { 126 203 120  }
    color3= { 199 175 12  }
}


# Foix
FOI = {
    color1= { 205 178 107  }
    color2= { 255 87 127  }
    color3= { 104 137 140  }
}


# France
FRA = {
    color1= { 63 125 214  }
    color2= { 129 177 125  }
    color3= { 121 162 109  }
}


# Guyenne
GUY = {
    color1= { 32 144 204  }
    color2= { 255 255 255  }
    color3= { 104 137 140  }
}


# Nevers
NEV = {
    color1= { 207 111 64  }
    color2= { 255 87 127  }
    color3= { 199 175 12  }
}


# Normandy
NRM = {
    color1= { 131 138 116  }
    color2= { 129 177 125  }
    color3= { 131 101 85  }
}


# Orleans
ORL = {
    color1= { 61 136 66  }
    color2= { 94 117 55  }
    color3= { 117 127 174  }
}


# Provence
PRO = {
    color1= { 93 160 163  }
    color2= { 236 159 89  }
    color3= { 107 170 77  }
}


# Toulouse
TOU = {
    color1= { 127 170 146  }
    color2= { 89 140 176  }
    color3= { 166 189 199  }
}


# Anhalt
ANH = {
    color1= { 203 93 124  }
    color2= { 101 102 163  }
    color3= { 134 166 117  }
}


# Ansbach
ANS = {
    color1= { 120 77 119  }
    color2= { 144 52 53  }
    color3= { 135 104 85  }
}


# Baden
BAD = {
    color1= { 117 161 67  }
    color2= { 219 124 139  }
    color3= { 119 151 122  }
}


# Bavaria
BAV = {
    color1= { 178 163 143  }
    color2= { 124 140 162  }
    color3= { 187 79 86  }
}


# Bohemia
BOH = {
    color1= { 161 139 40  }
    color2= { 194 140 86  }
    color3= { 122 179 97  }
}


# Brandenburg
BRA = {
    color1= { 193 65 54  }
    color2= { 69 157 208  }
    color3= { 210 106 47  }
}


# Bremen
BRE = {
    color1= { 33 101 137  }
    color2= { 195 149 155  }
    color3= { 137 183 124  }
}


# Brunswick
BRU = {
    color1= { 116 92 39  }
    color2= { 197 92 106  }
    color3= { 255 255 255  }
}


# Germany
GER = {
    color1= { 255 255 255  }
    color2= { 80 79 88  }
    color3= { 17 16 203  }
}


# Austria
HAB = {
    color1= { 170 43 21  }
    color2= { 99 137 153  }
    color3= { 17 16 203  }
}


# Hamburg
HAM = {
    color1= { 104 148 71  }
    color2= { 183 176 194  }
    color3= { 69 157 208  }
}


# Hannover
HAN = {
    color1= { 164 217 127  }
    color2= { 136 157 23  }
    color3= { 154 69 116  }
}


# Hesse
HES = {
    color1= { 114 171 184  }
    color2= { 39 108 140  }
    color3= { 195 149 155  }
}


# Cleves
KLE = {
    color1= { 173 176 113  }
    color2= { 107 94 169  }
    color3= { 197 92 106  }
}


# Cologne
KOL = {
    color1= { 84 124 48  }
    color2= { 202 112 85  }
    color3= { 80 79 88  }
}


# Lorraine
LOR = {
    color1= { 115 142 205  }
    color2= { 166 72 57  }
    color3= { 99 137 153  }
}


# Luneburg
LUN = {
    color1= { 135 109 147  }
    color2= { 161 126 128  }
    color3= { 183 176 194  }
}


# Magdeburg
MAG = {
    color1= { 189 115 99  }
    color2= { 152 85 92  }
    color3= { 193 26 14  }
}


# Mainz
MAI = {
    color1= { 178 145 87  }
    color2= { 126 203 120  }
    color3= { 48 164 51  }
}


# Mecklenburg
MKL = {
    color1= { 69 130 203  }
    color2= { 255 87 127  }
    color3= { 112 150 105  }
}


# Munster
MUN = {
    color1= { 85 112 167  }
    color2= { 129 177 125  }
    color3= { 121 162 109  }
}


# Oldenburg
OLD = {
    color1= { 147 130 118  }
    color2= { 94 117 55  }
    color3= { 104 137 140  }
}


# The Palatinate
PAL = {
    color1= { 57 151 142  }
    color2= { 236 159 89  }
    color3= { 199 175 12  }
}


# Pommerania
POM = {
    color1= { 111 122 184  }
    color2= { 89 140 176  }
    color3= { 131 101 85  }
}


# Saxony
SAX = {
    color1= { 155 147 180  }
    color2= { 101 102 163  }
    color3= { 117 127 174  }
}


# Silesia
SIL = {
    color1= { 84 166 93  }
    color2= { 144 52 53  }
    color3= { 107 170 77  }
}


# Salzburg
SLZ = {
    color1= { 149 119 9  }
    color2= { 219 124 139  }
    color3= { 83 149 105  }
}


# Styria
STY = {
    color1= { 40 63 102  }
    color2= { 89 140 176  }
    color3= { 117 127 174  }
}


# Switzerland
SWI = {
    color1= { 203 78 46  }
    color2= { 124 140 162  }
    color3= { 107 170 77  }
}


# Thuringia
THU = {
    color1= { 146 155 156  }
    color2= { 194 140 86  }
    color3= { 83 149 105  }
}


# Tirol
TIR = {
    color1= { 214 224 213  }
    color2= { 69 157 208  }
    color3= { 166 189 199  }
}


# Trier
TRI = {
    color1= { 208 104 44  }
    color2= { 154 69 116  }
    color3= { 134 166 117  }
}


# Wurzburg
WBG = {
    color1= { 147 146 106  }
    color2= { 195 149 155  }
    color3= { 135 104 85  }
}


# Wurttemberg
WUR = {
    color1= { 111 162 128  }
    color2= { 197 92 106  }
    color3= { 119 151 122  }
}


# Aragon
ARA = {
    color1= { 166 68 72  }
    color2= { 80 79 88  }
    color3= { 122 179 97  }
}


# Castille
CAS = {
    color1= { 193 171 8  }
    color2= { 99 137 153  }
    color3= { 122 179 97  }
}


# Catalunya
CAT = {
    color1= { 213 132 76  }
    color2= { 183 176 194  }
    color3= { 137 183 124  }
}


# Granada
GRA = {
    color1= { 194 205 83  }
    color2= { 136 157 23  }
    color3= { 17 16 203  }
}


# Navarra
NAV = {
    color1= { 154 182 242  }
    color2= { 39 108 140  }
    color3= { 17 16 203  }
}


# Portugal
POR = {
    color1= { 57 160 101  }
    color2= { 107 94 169  }
    color3= { 69 157 208  }
}


# Spain
SPA = {
    color1= { 231 181 12  }
    color2= { 202 112 85  }
    color3= { 154 69 116  }
}


# Ferrara
FER = {
    color1= { 192 102 151  }
    color2= { 166 72 57  }
    color3= { 195 149 155  }
}


# Genoa
GEN = {
    color1= { 101 162 129  }
    color2= { 161 126 128  }
    color3= { 197 92 106  }
}


# Italy
ITA = {
    color1= { 255 255 255  }
    color2= { 152 85 92  }
    color3= { 80 79 88  }
}


# Mantua
MAN = {
    color1= { 191 83 101  }
    color2= { 126 203 120  }
    color3= { 99 137 153  }
}


# Milan
MLO = {
    color1= { 146 108 146  }
    color2= { 255 87 127  }
    color3= { 183 176 194  }
}


# Modena
MOD = {
    color1= { 241 252 151  }
    color2= { 129 177 125  }
    color3= { 193 26 14  }
}


# The Papal State
PAP = {
    color1= { 211 220 178  }
    color2= { 94 117 55  }
    color3= { 48 164 51  }
}


# Parma
PAR = {
    color1= { 161 36 16  }
    color2= { 236 159 89  }
    color3= { 112 150 105  }
}


# Pisa
PIS = {
    color1= { 177 150 109  }
    color2= { 89 140 176  }
    color3= { 121 162 109  }
}


# Sardinia
SAR = {
    color1= { 117 146 167  }
    color2= { 101 102 163  }
    color3= { 104 137 140  }
}


# Savoy
SAV = {
    color1= { 215 201 206  }
    color2= { 144 52 53  }
    color3= { 199 175 12  }
}


# Sicily
SIC = {
    color1= { 73 152 76  }
    color2= { 219 124 139  }
    color3= { 131 101 85  }
}


# Siena
SIE = {
    color1= { 75 111 205  }
    color2= { 124 140 162  }
    color3= { 117 127 174  }
}


# Tuscany
TUS = {
    color1= { 74 126 117  }
    color2= { 194 140 86  }
    color3= { 107 170 77  }
}


# Urbino
URB = {
    color1= { 61 152 180  }
    color2= { 255 255 255  }
    color3= { 83 149 105  }
}


# Venice
VEN = {
    color1= { 54 167 156  }
    color2= { 69 157 208  }
    color3= { 166 189 199  }
}


# Brabant
BRB = {
    color1= { 118 193 153  }
    color2= { 154 69 116  }
    color3= { 166 189 199  }
}


# Flanders
FLA = {
    color1= { 43 141 172  }
    color2= { 195 149 155  }
    color3= { 134 166 117  }
}


# Friesland
FRI = {
    color1= { 165 89 27  }
    color2= { 197 92 106  }
    color3= { 135 104 85  }
}


# Gelre
GEL = {
    color1= { 139 66 97  }
    color2= { 80 79 88  }
    color3= { 119 151 122  }
}


# Hainaut
HAI = {
    color1= { 43 42 130  }
    color2= { 99 137 153  }
    color3= { 187 79 86  }
}


# Holland
HOL = {
    color1= { 156 96 100  }
    color2= { 183 176 194  }
    color3= { 122 179 97  }
}


# Liege
LIE = {
    color1= { 149 186 37  }
    color2= { 136 157 23  }
    color3= { 255 255 255  }
}


# Luxembourg
LUX = {
    color1= { 53 140 73  }
    color2= { 39 108 140  }
    color3= { 122 179 97  }
}


# Netherlands
NED = {
    color1= { 139 125 149  }
    color2= { 107 94 169  }
    color3= { 137 183 124  }
}


# Utrecht
UTR = {
    color1= { 223 198 64  }
    color2= { 202 112 85  }
    color3= { 17 16 203  }
}


# Armenia
ARM = {
    color1= { 128 170 63  }
    color2= { 166 72 57  }
    color3= { 17 16 203  }
}


# Astrakhan
AST = {
    color1= { 26 27 154  }
    color2= { 161 126 128  }
    color3= { 69 157 208  }
}


# Crimea
CRI = {
    color1= { 59 158 125  }
    color2= { 152 85 92  }
    color3= { 193 26 14  }
}


# Georgia
GEO = {
    color1= { 36 132 247  }
    color2= { 126 203 120  }
    color3= { 48 164 51  }
}


# GoldenHorde
GOL = {
    color1= { 193 179 127  }
    color2= { 255 87 127  }
    color3= { 112 150 105  }
}


# Kazan
KAZ = {
    color1= { 97 102 135  }
    color2= { 129 177 125  }
    color3= { 121 162 109  }
}


# Muscowy
MOS = {
    color1= { 96 131 80  }
    color2= { 144 52 53  }
    color3= { 107 170 77  }
}


# Novgorod
NOV = {
    color1= { 97 126 37  }
    color2= { 236 159 89  }
    color3= { 199 175 12  }
}


# Pskov
PSK = {
    color1= { 82 123 95  }
    color2= { 89 140 176  }
    color3= { 131 101 85  }
}


# QasimKhanate
QAS = {
    color1= { 82 135 124  }
    color2= { 101 102 163  }
    color3= { 117 127 174  }
}


# Russia
RUS = {
    color1= { 96 131 80  }
    color2= { 144 52 53  }
    color3= { 107 170 77  }
}


# Ryazan
RYA = {
    color1= { 145 72 107  }
    color2= { 219 124 139  }
    color3= { 83 149 105  }
}


# Tver
TVE = {
    color1= { 136 158 183  }
    color2= { 124 140 162  }
    color3= { 166 189 199  }
}


# Ukraine
UKR = {
    color1= { 124 183 151  }
    color2= { 194 140 86  }
    color3= { 134 166 117  }
}


# Yaroslavl
YAR = {
    color1= { 71 108 121  }
    color2= { 69 157 208  }
    color3= { 135 104 85  }
}

# Nogai
NOG = {
    color1= { 144 181 106  }
    color2= { 195 149 155  }
    color3= { 187 79 86  }
}


# Sibir
SIB = {
    color1= { 139 138 160  }
    color2= { 197 92 106  }
    color3= { 122 179 97  }
}


# Yemen
ADE = {
    color1= { 213 155 81  }
    color2= { 80 79 88  }
    color3= { 122 179 97  }
}


# Haasa
ALH = {
    color1= { 178 103 5  }
    color2= { 99 137 153  }
    color3= { 137 183 124  }
}


# Oman
OMA = {
    color1= { 98 134 153  }
    color2= { 255 255 255  }
    color3= { 17 16 203  }
}


# Najd
NAJ = {
    color1= { 175 122 10  }
    color2= { 183 176 194  }
    color3= { 17 16 203  }
}


# Hedjaz
HED = {
    color1= { 83 167 56  }
    color2= { 136 157 23  }
    color3= { 69 157 208  }
}


# Sharjah
SHR = {
    color1= { 64 120 172  }
    color2= { 39 108 140  }
    color3= { 154 69 116  }
}


# AkKoyunlu
AKK = {
    color1= { 4 144 178  }
    color2= { 107 94 169  }
    color3= { 195 149 155  }
}


# Candar
CND = {
    color1= { 114 70 103  }
    color2= { 202 112 85  }
    color3= { 197 92 106  }
}


# Dulkadir
DUL = {
    color1= { 97 119 31  }
    color2= { 166 72 57  }
    color3= { 80 79 88  }
}


# Karaman
KAR = {
    color1= { 153 141 117  }
    color2= { 255 255 255  }
    color3= { 99 137 153  }
}


# Trebizond
TRE = {
    color1= { 40 164 157  }
    color2= { 161 126 128  }
    color3= { 80 79 88  }
}


# Algiers
ALG = {
    color1= { 220 202 96  }
    color2= { 152 85 92  }
    color3= { 99 137 153  }
}


# Fez
FEZ = {
    color1= { 191 110 62  }
    color2= { 126 203 120  }
    color3= { 183 176 194  }
}


# Burgi
MAM = {
    color1= { 188 166 93  }
    color2= { 255 87 127  }
    color3= { 193 26 14  }
}


# Morocco
MOR = {
    color1= { 224 146 113  }
    color2= { 129 177 125  }
    color3= { 48 164 51  }
}


# Tripoli
TRP = {
    color1= { 129 204 96  }
    color2= { 94 117 55  }
    color3= { 112 150 105  }
}


# Tunisia
TUN = {
    color1= { 146 106 57  }
    color2= { 236 159 89  }
    color3= { 121 162 109  }
}


# Kazakh
KZH = {
    color1= { 112 194 63  }
    color2= { 89 140 176  }
    color3= { 104 137 140  }
}


# Khiva
KHI = {
    color1= { 121 159 109  }
    color2= { 101 102 163  }
    color3= { 199 175 12  }
}


# Shaybanid
SHY = {
    color1= { 89 134 166  }
    color2= { 144 52 53  }
    color3= { 131 101 85  }
}


# Kokkand
KOK = {
    color1= { 98 140 84  }
    color2= { 219 124 139  }
    color3= { 117 127 174  }
}


# Durrani
DUR = {
    color1= { 30 45 13  }
    color2= { 124 140 162  }
    color3= { 107 170 77  }
}


# Persia
PER = {
    color1= { 199 177 128  }
    color2= { 194 140 86  }
    color3= { 83 149 105  }
}


# QaraKoyunlu
QAR = {
    color1= { 116 153 8  }
    color2= { 69 157 208  }
    color3= { 107 170 77  }
}


# Timurid
TIM = {
    color1= { 161 210 149  }
    color2= { 154 69 116  }
    color3= { 117 127 174  }
}


# Aztec
AZT = {
    color1= { 48 149 21  }
    color2= { 195 149 155  }
    color3= { 131 101 85  }
}


# Cherokee
CHE = {
    color1= { 105 145 40  }
    color2= { 197 92 106  }
    color3= { 199 175 12  }
}


# Chimu
CHM = {
    color1= { 39 123 126  }
    color2= { 255 255 255  }
    color3= { 104 137 140  }
}


# Creek
CRE = {
    color1= { 108 139 208  }
    color2= { 134 166 117  }
    color3= { 121 162 109  }
}


# Huron
HUR = {
    color1= { 147 157 76  }
    color2= { 219 124 139  }
    color3= { 135 104 85  }
}


# Inca
INC = {
    color1= { 125 92 110  }
    color2= { 195 149 155  }
    color3= { 119 151 122  }
}


# Iroquois
IRO = {
    color1= { 87 182 80  }
    color2= { 69 157 208  }
    color3= { 135 104 85  }
}


# Maya
MAY = {
    color1= { 94 136 191  }
    color2= { 197 92 106  }
    color3= { 134 166 117  }
}


# Shawnee
SHA = {
    color1= { 212 105 118  }
    color2= { 80 79 88  }
    color3= { 166 189 199  }
}


# Zapotec
ZAP = {
    color1= { 255 255 255  }
    color2= { 99 137 153  }
    color3= { 255 255 255  }
}


# Ashanti
ASH = {
    color1= { 97 98 195  }
    color2= { 183 176 194  }
    color3= { 112 150 105  }
}


# Benin
BEN = {
    color1= { 110 173 129  }
    color2= { 136 157 23  }
    color3= { 255 255 255  }
}


# Ethiopia
ETH = {
    color1= { 56 120 191  }
    color2= { 39 108 140  }
    color3= { 121 162 109  }
}


# Kongo
KON = {
    color1= { 255 255 255  }
    color2= { 107 94 169  }
    color3= { 193 26 14  }
}


# Mali
MAL = {
    color1= { 215 135 125  }
    color2= { 202 112 85  }
    color3= { 134 166 117  }
}


# Funj
NUB = {
    color1= { 48 20 111  }
    color2= { 166 72 57  }
    color3= { 135 104 85  }
}


# Songhai
SON = {
    color1= { 62 175 151  }
    color2= { 161 126 128  }
    color3= { 119 151 122  }
}

# Mutapa
ZIM = {
    color1= { 255 255 255  }
    color2= { 126 203 120  }
    color3= { 122 179 97  }
}


# Adal
ADA = {
    color1= { 180 137 148  }
    color2= { 255 87 127  }
    color3= { 122 179 97  }
}

# KanemBornu
KBO = {
    color1= { 30 131 162  }
    color2= { 236 159 89  }
    color3= { 17 16 203  }
}


# Loango
LOA = {
    color1= { 200 202 85  }
    color2= { 94 117 55  }
    color3= { 17 16 203  }
}


# Oyo
OYO = {
    color1= { 211 184 179  }
    color2= { 255 255 255  }
    color3= { 69 157 208  }
}


# Segu
SOF = {
    color1= { 55 108 158  }
    color2= { 89 140 176  }
    color3= { 154 69 116  }
}


# Annam
ANN = {
    color1= { 186 14 92  }
    color2= { 101 102 163  }
    color3= { 195 149 155  }
}


# Arakan
ARK = {
    color1= { 212 211 151  }
    color2= { 144 52 53  }
    color3= { 197 92 106  }
}


# Atjeh
ATJ = {
    color1= { 88 137 172  }
    color2= { 255 255 255  }
    color3= { 80 79 88  }
}


# Ayutthaya
AYU = {
    color1= { 84 152 93  }
    color2= { 219 124 139  }
    color3= { 255 255 255  }
}


# Bali
BLI = {
    color1= { 201 97 74  }
    color2= { 124 140 162  }
    color3= { 193 26 14  }
}


# Banten
BAN = {
    color1= { 130 25 74  }
    color2= { 194 140 86  }
    color3= { 48 164 51  }
}


# Brunei
BEI = {
    color1= { 41 89 174  }
    color2= { 69 157 208  }
    color3= { 112 150 105  }
}


# Champa
CHA = {
    color1= { 53 151 151  }
    color2= { 154 69 116  }
    color3= { 121 162 109  }
}


# ChagataiKhanate
CHG = {
    color1= { 87 92 104  }
    color2= { 195 149 155  }
    color3= { 104 137 140  }
}


# Champassak
CHK = {
    color1= { 139 131 162  }
    color2= { 197 92 106  }
    color3= { 199 175 12  }
}


# DaiViet
DAI = {
    color1= { 136 117 90  }
    color2= { 80 79 88  }
    color3= { 131 101 85  }
}


# Japan
JAP = {
    color1= { 209 0 0  }
    color2= { 37 37 37  }
    color3= { 219 192 50  }
}


# MongolKhanate
KHA = {
    color1= { 108 153 65  }
    color2= { 99 137 153  }
    color3= { 107 170 77  }
}


# Khmer
KHM = {
    color1= { 127 180 60  }
    color2= { 183 176 194  }
    color3= { 83 149 105  }
}


# Korea
KOR = {
    color1= { 42 14 74  }
    color2= { 255 0 0  }
    color3= { 219 192 50  }
}


# LanNa
LNA = {
    color1= { 74 92 128  }
    color2= { 39 108 140  }
    color3= { 193 26 14  }
}


# LuangPrabang
LUA = {
    color1= { 93 147 88  }
    color2= { 107 94 169  }
    color3= { 48 164 51  }
}


# LanXang
LXA = {
    color1= { 210 46 28  }
    color2= { 202 112 85  }
    color3= { 112 150 105  }
}


# Manchu
MCH = {
    color1= { 165 132 57  }
    color2= { 250 250 0  }
    color3= { 250 0 0  }
}


# Makassar
MKS = {
    color1= { 117 179 128  }
    color2= { 152 85 92  }
    color3= { 199 175 12  }
}


# Malacca
MLC = {
    color1= { 100 146 197  }
    color2= { 126 203 120  }
    color3= { 131 101 85  }
}


# Ming
MNG = {
    color1= { 179 128 104  }
    color2= { 59 192 59  }
    color3= { 59 128 192  }
}


# Mataram
MTR = {
    color1= { 227 162 94  }
    color2= { 129 177 125  }
    color3= { 107 170 77  }
}


# OiratHorde
OIR = {
    color1= { 204 184 177  }
    color2= { 94 117 55  }
    color3= { 83 149 105  }
}


# Pattani
PAT = {
    color1= { 162 134 164  }
    color2= { 236 159 89  }
    color3= { 166 189 199  }
}


# Pegu
PEG = {
    color1= { 109 168 127  }
    color2= { 89 140 176  }
    color3= { 134 166 117  }
}


# Ryukyu
RYU = {
    color1= { 90 138 133  }
    color2= { 101 102 163  }
    color3= { 135 104 85  }
}


# Shan
SST = {
    color1= { 189 123 130  }
    color2= { 144 52 53  }
    color3= { 119 151 122  }
}


# Sulu
SUL = {
    color1= { 89 164 144  }
    color2= { 219 124 139  }
    color3= { 187 79 86  }
}


# Taungu
TAU = {
    color1= { 165 151 80  }
    color2= { 124 140 162  }
    color3= { 122 179 97  }
}


# Tibet
TIB = {
    color1= { 177 207 205  }
    color2= { 194 140 86  }
    color3= { 122 179 97  }
}


# Tonkin
TOK = {
    color1= { 81 144 126  }
    color2= { 69 157 208  }
    color3= { 255 255 255  }
}


# Vientiane
VIE = {
    color1= { 151 174 28  }
    color2= { 195 149 155  }
    color3= { 137 183 124  }
}


# Bihar
AHM = {
    color1= { 100 94 125  }
    color2= { 197 92 106  }
    color3= { 17 16 203  }
}


# Assam
ASS = {
    color1= { 163 5 77  }
    color2= { 255 255 255  }
    color3= { 17 16 203  }
}


# Deccan
BAH = {
    color1= { 49 175 191  }
    color2= { 80 79 88  }
    color3= { 69 157 208  }
}


# Baluchistan
BAL = {
    color1= { 175 82 16  }
    color2= { 99 137 153  }
    color3= { 154 69 116  }
}


# Ahmadnagar
BAS = {
    color1= { 74 87 138  }
    color2= { 183 176 194  }
    color3= { 195 149 155  }
}


# Bengal
BNG = {
    color1= { 36 109 194  }
    color2= { 255 255 255  }
    color3= { 197 92 106  }
}


# Berar
BRR = {
    color1= { 255 255 255  }
    color2= { 136 157 23  }
    color3= { 80 79 88  }
}


# Bhonsle 
BHO = {
    color1= { 154 129 35  }
    color2= { 39 108 140  }
    color3= { 99 137 153  }
}


# Bhutan
BHU = {
    color1= { 93 180 76  }
    color2= { 107 94 169  }
    color3= { 183 176 194  }
}


# Bijapur
BIJ = {
    color1= { 40 121 66  }
    color2= { 202 112 85  }
    color3= { 193 26 14  }
}


# Bundelkhand
BND = {
    color1= { 23 114 143  }
    color2= { 166 72 57  }
    color3= { 48 164 51  }
}


# Delhi
DLH = {
    color1= { 157 200 42  }
    color2= { 161 126 128  }
    color3= { 112 150 105  }
}


# Gakwar
GAK = {
    color1= { 245 139 127  }
    color2= { 152 85 92  }
    color3= { 121 162 109  }
}


# Golcanda
GOC = {
    color1= { 255 255 255  }
    color2= { 255 87 127  }
    color3= { 104 137 140  }
}


# Gondwana 
GDW = {
    color1= { 255 255 255  }
    color2= { 129 177 125  }
    color3= { 199 175 12  }
}


# Gujarat
GUJ = {
    color1= { 231 224 107  }
    color2= { 94 117 55  }
    color3= { 117 127 174  }
}


# Hyderabad
HYD = {
    color1= { 89 141 140  }
    color2= { 236 159 89  }
    color3= { 131 101 85  }
}


# Carnatic
KRK = {
    color1= { 132 70 102  }
    color2= { 89 140 176  }
    color3= { 107 170 77  }
}


# Kashmir
KSH = {
    color1= { 63 150 30  }
    color2= { 101 102 163  }
    color3= { 83 149 105  }
}


# Khandesh
KHD = {
    color1= { 255 255 255  }
    color2= { 144 52 53  }
    color3= { 166 189 199  }
}


# Ceylon
KTH = {
    color1= { 60 123 65  }
    color2= { 219 124 139  }
    color3= { 134 166 117  }
}


# Madurai
MAD = {
    color1= { 190 180 93  }
    color2= { 124 140 162  }
    color3= { 135 104 85  }
}


# Maharasthra
MAR = {
    color1= { 255 255 255  }
    color2= { 194 140 86  }
    color3= { 119 151 122  }
}


# Manipur
MLB = {
    color1= { 149 191 117  }
    color2= { 69 157 208  }
    color3= { 187 79 86  }
}


# Maldive
MLD = {
    color1= { 79 166 103  }
    color2= { 154 69 116  }
    color3= { 122 179 97  }
}


# Malwa
MLW = {
    color1= { 168 174 133  }
    color2= { 195 149 155  }
    color3= { 122 179 97  }
}


# Mughal
MUG = {
    color1= { 154 133 153  }
    color2= { 197 92 106  }
    color3= { 137 183 124  }
}


# Mysore
MYS = {
    color1= { 184 193 89  }
    color2= { 80 79 88  }
    color3= { 17 16 203  }
}


# Deva Bengal
NIZ = {
    color1= { 17 16 203  }
    color2= { 99 137 153  }
    color3= { 17 16 203  }
}


# Nepal
NPL = {
    color1= { 137 183 124  }
    color2= { 183 176 194  }
    color3= { 69 157 208  }
}


# Orissa
ORI = {
    color1= { 210 106 47  }
    color2= { 136 157 23  }
    color3= { 154 69 116  }
}


# Oudh
ODH = {
    color1= { 122 179 97  }
    color2= { 39 108 140  }
    color3= { 195 149 155  }
}


# Punjab
PUN = {
    color1= { 187 79 86  }
    color2= { 107 94 169  }
    color3= { 197 92 106  }
}


# Rajputna
RAJ = {
    color1= { 119 151 122  }
    color2= { 202 112 85  }
    color3= { 80 79 88  }
}


# Sind
SND = {
    color1= { 135 104 85  }
    color2= { 166 72 57  }
    color3= { 99 137 153  }
}


# Travanacore
TRV = {
    color1= { 134 166 117  }
    color2= { 161 126 128  }
    color3= { 255 255 255  }
}


# Vijaynagara
VIJ = {
    color1= { 166 189 199  }
    color2= { 255 87 127  }
    color3= { 183 176 194  }
}
