#Country Name: Please see filename.

graphical_culture = africangfx

color = { 128 3 128 }

historical_ideas = { naval_transport
	merchant_adventures
	excellent_shipwrights
	shrewd_commerce_practise
	superior_seamanship
	national_conscripts
	national_trade_policy
	sea_hawks
	naval_fighting_instruction
	military_drill
	naval_glory
	battlefield_commisions
	engineer_corps
}

historical_units = {
	polynesian_daggermen
	polynesian_spearmen
	polynesian_clubmen
	polynesian_javelinmen
	polynesian_long_clubmen
	polynesian_shark_tooth
	polynesian_two_blade
	polynesian_throwing_axe
	polynesian_lua
	polynesian_slingermen
	polynesian_rifles
}

monarch_names = {
	"'Ailana #0" = -5                            
	"'Aka 'Aka #0" = 10                        
	"Akana #0" = 10                
	"Ake-akamai #0" = -5
	"Akela #0" = -5                                 
	"Alaka'i #0" = 10
	"Alana #0" = 10                     
	"'Alani #0" = -5               
	"Alapa'i #0" = 10                   
	"Ali'i #0" = 10                           
	"Ali'i-loa #0" = 10
	"Alika #0" = 10                       
	"Aloha #0" = 10
	"'Alohi #0" = -5                                
	"'Alohi-lani #0" = 10
	"Amoe #0" = -5                         
	"'Anela #0" = -5                      
	"Anuenue #0" = 10
	"Anu-hea #0" = -5
	"Ao-lani #0" = 10
	"'Au-kai #0" = 10
	"'Au-lani #0" = 10
	"'Auli'i #0" = -5
	"'Awapuhi #0" = 10
	"'Ehu-kai #0" = 10                  
	"Enoka #0" = 10                               
	"'Ewa-lani #0" = -5             
	"Ha'aheo #0" = 10
	"Hale-a-ka-la #0" = -5
	"Hali'a #0" = -5                            
	"Hana-lei #0" = 10 
	"Hanohano #0"= 10
	"Hau-nani #0"= -5   
	"Hau'oli #0" = 10
	"Hawea #0" = 10                      
	"Hea-lani #0" = 10                        
	"Hekili #0" = 10                            
	"Hiapo #0" = 10
	"Hi'iaka #0" = -5                            
	"Hi'i-lani #0" = 10
	"Hi'i-laniwai #0" = 10
	"Hi'i-lei #0" = -5
	"Hilina'i #0" = 10
	"Hina #0" = 10                            
	"Hinano #0" = -5                               
	"Hiwahiwa #0" = -5                       
	"Hoku #0" = -5                                 
	"Hoku-lani #0" = 10      
	"Ho'okano #0" = 10
	"Ho'onani #0" = 10
	"Ho'opi'i #0" = 10
	"Hua-lani #0" = 10
	"Hu'eu #0" = 10                                  
	"'Ihi-lani #0" = -5
	"Ikaika #0" = 10                              
	"'Ilima #0" = -5                 
	"Ima-i-ka-lani #0" = 10
	"'Imi-'ike #0" = 10
	"Ioane #0" = 10                          
	"Iokepa #0" = 10                                
	"'Io-lana #0" = -5                      
	"'Io-lani #0" = 10                    
	"Ipo #0" = 10                                    
	"Ipo-lani #0" = -5      
	"'Iwa-lani #0" = -5                       
	"Ka-'ahu-manu #0" = -5                 
	"Ka-'au-moana #0" = 10
	"Kaena #0" = 10                         
	"Ka-'ena #0" = 10                    
	"Ka'eo #0" = 10
	"Kaha'i #0" = 10                                 
	"Ka-hala-o-mapuana #0" = -5
	"Ka-hale-wai #0" = 10                 
	"Ka-hanu-ola #0" = -5
	"Ka-hea-lani #0" = -5                            
	"Kahiau #0" = 10                                 
	"Kahiki-lani #0" = 10                    
	"Ka-hula #0" = -5                                
	"Kai #0" = 10           
	"Kaia #0" = -5           
	"Ka-ihe #0" = 10
	"Kaila #0" = -5
	"Kai-lani #0" = -5
	"Kai-leo #0" = 10
	"Ka-'ili #0" = 10
	"Ka-'ili-hiwa #0" = 10
	"Ka-'ili-kea #0" = 10
	"Kaimana #0" = 10                 
	"Ka-'imi #0" = 10                  
	"Ka-'imi-na'au-ao #0" = 10
	"Ka-'imi-pono #0" = 10
	"Kaina #0"= -5
	"Kai-nalu #0" = 10                            
	"Ka-inoa #0" = 10              
	"Ka-inoa-kupuna #0" = 10
	"Kai-olohia #0" = 10
	"Ka-ipo #0" = 10
	"Ka-'iu #0" = 10
	"Ka-'iu-lani #0" = -5                            
	"Ka-'iu-pono #0"= 10    
	"Kala #0" = 10                             
	"Ka-la #0" = 10
	"Ka-la'e #0" = -5
	"Ka-la-hiki-ola #0" = 10
	"Ka-la'i #0" = 10
	"Ka-la'i-akea #0" = 10       
	"Ka-lama #0" = 10             
	"Ka-lani #0" = 10                  
	"Ka-lani-ki'eki'e #0" = 10
	"Kale #0" = 10                                
	"Ka-le'a #0" = -5
	"Ka-lehua-wehe #0" = 10
	"Ka-lei #0" = 10                         
	"Ka-lei-ali'i #0" = 10
	"Ka-lei-aloha #0" = 10
	"Ka-lei-kau-maka #0" = 10
	"Ka-lei-nani #0" = 10
	"Ka-lei-o-ka-lani #0" = -5
	"Ka-lei-onaona #0" = 10   
	"Ka-lei-wohi #0" = -5
	"Ka-lena #0" = -5                   
	"Ka-leo #0" = 10
	"Ka-leo-lani #0" = 10     
	"Kaleponi #0" = -5
	"Kali #0" = -5                        
	"Kalia #0" = -5                              
	"Ka-liko #0" = 10                
	"Ka-liko-lehua #0" = 10
	"Kalili #0" = 10                           
	"Kalokuokamaile #0" = 10
	"Ka-luhi #0" = 10
	"Ka-maile #0" = 10
	"Ka-makana-mai-ka-lani #0" = 10
	"Ka-makana-o-ka-lani #0" = 10
	"Ka-makana-makamae-mai-ka-lani #0" = 10
	"Ka-mala #0" = -5                               
	"Kama-lani #0" = -5                        
	"Kama-lei #0" = 10
	"Kamali'i #0" = 10
	"Ka-malu #0" = 10
	"Ka-mea-'i'o-makamae #0" = 10
	"Ka-mealoha #0" = 10
	"Kameameha #0" = 20
	"Kamila #0"= -5
	"Kamuela #0"= 10                                
	"Ka-na'i #0" = 10
	"Ka-na'i-aupuni #0" = 10                       
	"Kanaka-nui #0" = 10
	"Kanamu #0" = 10                                
	"Ka-nani #0" = 10                   
	"Ka-nani-mau-loa #0" = 10
	"Ka-nani-o-ku'u-home #0" = -5
	"Kane #0" = 10
	"Kaniela #0" = 10                                
	"Ka-noa #0" = 10
	"Ka-noe-lani #0" = 10
	"Ka-noe-lehua #0" = -5
	"Ka-'ohu #0" = -5
	"Ka-'ohu-lani #0" = -5
	"Ka-'opua #0" = 10
	"Kapena #0" = 10
	"Kapi'i-oho #0" = 10
	"Kapiolani #0" = 10
	"Ka-pi'o-lani #0" = -5                   
	"Ka-pono #0" = 10
	"Ka-pua #0" = 10                             
	"Kapu-lani #0" = 10
	"Ka-puni #0" = 10                               
	"Ka-'uhane #0" = 10
	"Ka-u'i #0" = 10
	"Ka-u'i-o-na-lani #0" = 10                      
	"Kaulana #0" = 10
	"Kaumana #0" = 10                                
	"Ka-wai #0" = 10                               
	"Ka-wai-lani #0" = 10
	"Ka-wai-lehua #0" = -5
	"Ka-wehi #0" = -5
	"Ka-wehi-o-na-pua #0" = -5
	"Ka-welo #0" = 10                               
	"Ka-wena #0" = -5                         
	"Kawika #0" = 10                
	"Ka-wohi-ku-kapu-lani #0" = 10
	"Kea #0" = -5                                    
	"Ke-ahi #0" = 10
	"Ke-aka #0" = 10    
	"Ke-aka-o-ka-lani #0" = 10
	"Ke-ala #0" = 10
	"Ke-'ala #0" = 10                         
	"Kea-lani #0" = -5
	"Ke-ali'i #0" = 10                             
	"Ke-ali'i-'au-kai #0" = 10
	"Ke-aloha #0" = 10                     
	"Ke-aloha-lani #0" = -5
	"Ke-aloha-pau-'ole #0" = -5
	"Ke-'alohi-lani #0" = 10
	"Ke-ani #0" = -5
	"Ke-anu #0" = 10                          
	"Ke-anuenue-o-ka-lani #0" = -5
	"Ke-ao #0" = 10
	"Ke-awe #0" = 10                               
	"Kehau #0" = 10                               
	"Kehau-lani #0" = 10                             
	"Kehau-nani #0" = 10
	"Keiki-lani #0" = -5
	"Keiki-o-ka-'aina #0" = 10
	"Kei-lani #0" = -5
	"Ke-kai-malie #0" = 10
	"Ke-kaulike #0" = 10                             
	"Ke-koa #0" = 10                   
	"Ke-kona #0" = 10                             
	"Keli'i #0" = 10                         
	"Keoki #0" = 10                                 
	"Ke-ola #0" = 10                         
	"Ke-ona #0" = 10                              
	"Ke-onaona #0" = 10
	"Ke-one #0" = 10                               
	"Keoni #0" = 10                    
	"Kepano #0" = 10                                
	"Kiana #0" = -5               
	"Kiani #0" = -5             
	"Kiele #0" = -5                         
	"Kilohana #0" = 10
	"Kimo #0" = 10
	"Kina #0"= -5
	"Koa #0" = 10                                   
	"Koke #0" = 10                                
	"Kona #0" = 10                         
	"Konane #0" = -5
	"Konapiliahi #0" = 10
	"Ku #0" = 10                         
	"Ku-ali'i #0" = 10                               
	"Kukuna-o-ka-la #0" = 10
	"Kula-manu #0" = -5
	"Ku-lani #0" = 10
	"Kulia #0" = -5                            
	"Kunane #0" = 10                                
	"Ku'u-aloha #0" = 10
	"Ku'u-'anela-lani #0" = -5
	"Ku'u-ipo #0" = 10
	"Ku'u-lani #0" = -5
	"Ku'u-lei #0" = 10                              
	"Ku'u-lei-aloha #0" = -5
	"Ku'u-lei-lani #0" = 10
	"Ku'u-lei-nani #0" = -5
	"Ku'u-momi-makamae #0" = -5
	"La'a-kea #0" = 10
	"Lahapa #0" = -5
	"Lahela #0" = -5                               
	"Lana #0" = -5                                
	"Lanakila #0" = 10
	"Lani #0" = 10
	"Lea #0" = -5                            
	"Lehua #0" = 10                       
	"Lehua-nani #0" = -5
	"Lei #0" = 10                                
	"Lei-aloha #0" = 10
	"Lei-hua #0" = -5                               
	"Lei-ko #0" = -5                      
	"Lei-lani #0" = 10                        
	"Lei-lehua #0" = -5
	"Lei-mamo #0" = 10                        
	"Lei-momi #0" = -5
	"Ka-lei-momi #0" = -5 
	"Ku'u-lei-momi #0" = -5                         
	"Leina-'ala #0" = -5
	"Lei-nani #0" = 10
	"Leo-lani #0" = 10                               
	"Li #0" = 10                    
	"Lihau #0" = -5                          
	"Li'ili'i #0" = 10
	"Li'i #0" = 10
	"Likeke #0" = 10                                
	"Lilia #0" = -5                                  
	"Lili-noe #0" = -5
	"Lilo #0" = -5
	"Li-loa #0" = 10                                 
	"Loke #0" = -5                              
	"Loke-lani #0" = -5                         
	"Lono #0" = 10                               
	"Lopaka #0" = 10                                
	"Luana #0" = -5                       
	"Luka #0" = 10                                
	"Lu'ukia #0" = -5                                
	"Mahea-lani #0" = 10                
	"Mahi-'ai #0" = 10
	"Mahina #0" = -5                            
	"Maika'i #0"= 10
	"Maile #0" = -5                     
	"Maile-lau-li'i #0" = -5
	"Maka #0" = 10                                
	"Maka-'ala #0" = 10
	"Ka-maka-'ala #0" = 10
	"Ma-kai #0" = 10
	"Makala-pua #0" = -5
	"Makamae #0" = 10
	"Makana #0" = 10                    
	"Makani #0" = 10
	"Ka-makani #0" = 10                            
	"Maka-nui #0" = 10
	"Maka-o-ka-lani #0" = 10
	"Makoa #0" = 10
	"Malama #0" = -5
	"Malama #0" = -5
	"Malia #0" = -5
	"Malia-lani #0" = -5
	"Malie #0" = -5
	"Malina #0" = -5
	"Maluhia #0" = -5
	"Malu-lani #0" = 10
	"Mamo #0" = -5
	"Mana #0" = 10
	"Manu #0" = 10
	"Manuia #0" = 10
	"Mapuana #0" = 10
	"Maui #0" = 10
	"Mauna-kea #0" = 10
	"Mea-li'i #0" = -5
	"Mele #0" = -5
	"Melia #0" = -5
	"Mika'ele #0" = 10
	"Mikahala #0" = -5
	"Miki'ala #0" = -5
	"Mili-lani #0" = -5
	"Moana #0" = 10
	"Moani #0" = -5
	"Moani-ke-'ala #0" = -5
	"Mokihana #0" = -5
	"Momi #0" = 10
	"Momi-lani #0" = -5
	"Na'au-ao #0" = 10
	"Nahenahe #0" = -5
	"Nai'a #0" = -10
	"Na-inoa #0" = 10
	"Na-lani #0" = 10
	"Nanea #0" = -5
	"Nani #0" = 10
	"Na-pua #0" = 10
	"Na-pua-lani #0" = -5
	"Noa #0" = 10
	"Noe #0" = -5
	"No'eau #0" = 10
	"Noe-lani #0" = 10
	"Nohea #0" = 10
	"Nohea-lani #0" = -5
	"Nohelani #0" = -5
	"O-ka-lani #0" = -5
	"Oliana #0" = 10
	"Onaona #0" = -5
	"Pa-'ana-a-ka-la #0" = 10
	"Pahu-kula #0" = 10
	"Pali #0" = 10
	"Pali-kapu #0" = 10
	"Pau-ahi #0" = 10
	"Paulo #0" = 10
	"Pi'i-kea #0" = 10
	"Pi'i-lani #0" = -5
	"Pili-aloha #0" = 10
	"Pohai-ke-aloha #0" = 10
	"Pohaku #0" = 10
	"Pomaika'i #0" = 10
	"Po'o-kela #0" = 10
	"Pua #0" = 10
	"Pua-lani #0" = 10
	"Pua-mana #0" = -5
	"Pua-nani #0" = -5
	"Pumehana #0" = -5
	"Puna #0" = 10
	"Puna-hele #0" = 10
	"Punohu #0" = 10
	"U'i-lani #0" = -5
	"Ulu-lani #0" = -5
	"Ulu-wehi #0" = -5
	"Wahine-'au-kai #0" = 10
	"Wai-anu-hea #0" = 10
	"Wai-lani #0" = -5
	"Wai-ola #0" = 10
	"Wai-puna #0" = 10
}

leader_names = {
		Akana Ka-lua Ka-maka Kini Keli'i
}

ship_names = {
		"Mauna Loa" "Mauna Kea"
}

fleet_names = {
	"King's Canoes"
}